<?xml version="1.0" encoding="UTF-8"?>
<svg xmlns="http://www.w3.org/2000/svg" xmlns:xlink="http://www.w3.org/1999/xlink" width="225.156pt" height="380.633pt" viewBox="0 0 225.156 380.633" version="1.1">
<defs>
<g>
<symbol overflow="visible" id="glyph0-0">
<path style="stroke:none;" d=""/>
</symbol>
<symbol overflow="visible" id="glyph0-1">
<path style="stroke:none;" d="M 2.265625 -0.9375 L 0.890625 -0.9375 L 0.890625 0 C 1.453125 -0.015625 2.65625 -0.0625 3.40625 -0.0625 C 4.1875 -0.0625 5.359375 -0.015625 5.921875 0 L 5.921875 -0.9375 L 4.546875 -0.9375 L 4.546875 -5.09375 C 4.546875 -7.265625 6.25 -8.25 7.515625 -8.25 C 8.1875 -8.25 8.609375 -7.828125 8.609375 -6.3125 L 8.609375 -0.9375 L 7.234375 -0.9375 L 7.234375 0 C 7.796875 -0.015625 8.984375 -0.0625 9.734375 -0.0625 C 10.515625 -0.0625 11.6875 -0.015625 12.25 0 L 12.25 -0.9375 L 10.875 -0.9375 L 10.875 -6.09375 C 10.875 -8.1875 9.796875 -8.96875 7.8125 -8.96875 C 5.890625 -8.96875 4.875 -7.8125 4.421875 -7.015625 L 4.421875 -13.828125 L 0.890625 -13.671875 L 0.890625 -12.734375 C 2.125 -12.734375 2.265625 -12.734375 2.265625 -11.953125 Z M 2.265625 -0.9375 "/>
</symbol>
<symbol overflow="visible" id="glyph0-2">
<path style="stroke:none;" d="M 4.46875 -8.96875 L 1 -8.8125 L 1 -7.875 C 2.171875 -7.875 2.3125 -7.875 2.3125 -7.09375 L 2.3125 -0.9375 L 0.9375 -0.9375 L 0.9375 0 C 1.546875 -0.015625 2.53125 -0.0625 3.359375 -0.0625 C 3.96875 -0.0625 4.984375 -0.015625 5.703125 0 L 5.703125 -0.9375 L 4.46875 -0.9375 Z M 4.65625 -12.296875 C 4.65625 -13.171875 3.9375 -13.84375 3.109375 -13.84375 C 2.25 -13.84375 1.546875 -13.140625 1.546875 -12.296875 C 1.546875 -11.4375 2.25 -10.734375 3.109375 -10.734375 C 3.9375 -10.734375 4.65625 -11.421875 4.65625 -12.296875 Z M 4.65625 -12.296875 "/>
</symbol>
<symbol overflow="visible" id="glyph0-3">
<path style="stroke:none;" d="M 5.078125 -3.78125 C 3.328125 -3.78125 3.328125 -5.125 3.328125 -6.015625 C 3.328125 -6.90625 3.328125 -8.25 5.078125 -8.25 C 6.828125 -8.25 6.828125 -6.90625 6.828125 -6.015625 C 6.828125 -5.125 6.828125 -3.78125 5.078125 -3.78125 Z M 2.65625 -3.578125 C 3.5625 -3.109375 4.578125 -3.0625 5.078125 -3.0625 C 7.953125 -3.0625 9.046875 -4.625 9.046875 -6.015625 C 9.046875 -6.953125 8.546875 -7.609375 8.25 -7.921875 C 8.84375 -8.25 9.265625 -8.28125 9.484375 -8.3125 C 9.4375 -8.203125 9.40625 -8.03125 9.40625 -7.90625 C 9.40625 -7.40625 9.734375 -7.046875 10.265625 -7.046875 C 10.78125 -7.046875 11.109375 -7.4375 11.109375 -7.90625 C 11.109375 -8.359375 10.78125 -9.0625 9.859375 -9.0625 C 9.5625 -9.0625 8.625 -9 7.75 -8.3125 C 7.390625 -8.546875 6.546875 -8.96875 5.078125 -8.96875 C 2.21875 -8.96875 1.109375 -7.40625 1.109375 -6.015625 C 1.109375 -5.203125 1.515625 -4.375 2.15625 -3.921875 C 1.59375 -3.234375 1.46875 -2.5625 1.46875 -2.15625 C 1.46875 -1.859375 1.546875 -0.875 2.34375 -0.234375 C 2.09375 -0.171875 0.640625 0.234375 0.640625 1.5 C 0.640625 2.515625 1.734375 4 5.71875 4 C 9.25 4 10.796875 2.828125 10.796875 1.4375 C 10.796875 0.84375 10.640625 -0.421875 9.296875 -1.09375 C 8.1875 -1.65625 7 -1.65625 5.078125 -1.65625 C 4.5625 -1.65625 3.640625 -1.65625 3.546875 -1.671875 C 2.671875 -1.8125 2.453125 -2.5625 2.453125 -2.921875 C 2.453125 -3.125 2.53125 -3.421875 2.65625 -3.578125 Z M 3.890625 0.265625 L 6.21875 0.265625 C 6.828125 0.265625 9.078125 0.265625 9.078125 1.5 C 9.078125 2.21875 8.3125 3.28125 5.71875 3.28125 C 3.328125 3.28125 2.34375 2.375 2.34375 1.453125 C 2.34375 0.265625 3.609375 0.265625 3.890625 0.265625 Z M 3.890625 0.265625 "/>
</symbol>
<symbol overflow="visible" id="glyph0-4">
<path style="stroke:none;" d="M 10.796875 -4.34375 C 10.796875 -7.015625 8.96875 -9.03125 5.71875 -9.03125 C 2.453125 -9.03125 0.640625 -7 0.640625 -4.34375 C 0.640625 -1.875 2.390625 0.125 5.71875 0.125 C 9.0625 0.125 10.796875 -1.890625 10.796875 -4.34375 Z M 5.71875 -0.671875 C 3.1875 -0.671875 3.1875 -2.828125 3.1875 -4.5625 C 3.1875 -5.453125 3.1875 -6.46875 3.53125 -7.15625 C 3.90625 -7.890625 4.734375 -8.3125 5.71875 -8.3125 C 6.546875 -8.3125 7.390625 -7.984375 7.828125 -7.296875 C 8.25 -6.609375 8.25 -5.515625 8.25 -4.5625 C 8.25 -2.828125 8.25 -0.671875 5.71875 -0.671875 Z M 5.71875 -0.671875 "/>
</symbol>
<symbol overflow="visible" id="glyph0-5">
<path style="stroke:none;" d="M 8.328125 -0.859375 L 8.328125 0.125 L 11.96875 0 L 11.96875 -0.9375 C 10.734375 -0.9375 10.59375 -0.9375 10.59375 -1.71875 L 10.59375 -13.828125 L 7.078125 -13.671875 L 7.078125 -12.734375 C 8.3125 -12.734375 8.453125 -12.734375 8.453125 -11.953125 L 8.453125 -8.0625 C 7.453125 -8.84375 6.421875 -8.96875 5.75 -8.96875 C 2.84375 -8.96875 0.75 -7.21875 0.75 -4.40625 C 0.75 -1.765625 2.59375 0.125 5.53125 0.125 C 6.75 0.125 7.703125 -0.359375 8.328125 -0.859375 Z M 8.328125 -7.03125 L 8.328125 -2.046875 C 8.0625 -1.6875 7.25 -0.59375 5.734375 -0.59375 C 3.3125 -0.59375 3.3125 -3.015625 3.3125 -4.40625 C 3.3125 -5.359375 3.3125 -6.4375 3.828125 -7.21875 C 4.40625 -8.046875 5.34375 -8.25 5.953125 -8.25 C 7.09375 -8.25 7.890625 -7.609375 8.328125 -7.03125 Z M 8.328125 -7.03125 "/>
</symbol>
<symbol overflow="visible" id="glyph0-6">
<path style="stroke:none;" d="M 2.265625 -7.09375 L 2.265625 -0.9375 L 0.890625 -0.9375 L 0.890625 0 C 1.453125 -0.015625 2.65625 -0.0625 3.40625 -0.0625 C 4.1875 -0.0625 5.359375 -0.015625 5.921875 0 L 5.921875 -0.9375 L 4.546875 -0.9375 L 4.546875 -5.09375 C 4.546875 -7.265625 6.28125 -8.25 7.515625 -8.25 C 8.1875 -8.25 8.625 -7.84375 8.625 -6.3125 L 8.625 -0.9375 L 7.25 -0.9375 L 7.25 0 C 7.8125 -0.015625 9 -0.0625 9.765625 -0.0625 C 10.53125 -0.0625 11.71875 -0.015625 12.265625 0 L 12.265625 -0.9375 L 10.890625 -0.9375 L 10.890625 -5.09375 C 10.890625 -7.265625 12.625 -8.25 13.859375 -8.25 C 14.546875 -8.25 14.984375 -7.84375 14.984375 -6.3125 L 14.984375 -0.9375 L 13.609375 -0.9375 L 13.609375 0 C 14.171875 -0.015625 15.359375 -0.0625 16.109375 -0.0625 C 16.890625 -0.0625 18.0625 -0.015625 18.625 0 L 18.625 -0.9375 L 17.25 -0.9375 L 17.25 -6.09375 C 17.25 -8.140625 16.234375 -8.96875 14.1875 -8.96875 C 12.375 -8.96875 11.328125 -7.96875 10.8125 -7.046875 C 10.421875 -8.90625 8.59375 -8.96875 7.828125 -8.96875 C 6.09375 -8.96875 4.953125 -8.0625 4.328125 -6.8125 L 4.328125 -8.96875 L 0.890625 -8.8125 L 0.890625 -7.875 C 2.125 -7.875 2.265625 -7.875 2.265625 -7.09375 Z M 2.265625 -7.09375 "/>
</symbol>
<symbol overflow="visible" id="glyph0-7">
<path style="stroke:none;" d="M 9.203125 -4.34375 C 9.640625 -4.34375 9.84375 -4.34375 9.84375 -4.875 C 9.84375 -5.5 9.71875 -6.953125 8.71875 -7.953125 C 7.984375 -8.671875 6.9375 -9.03125 5.5625 -9.03125 C 2.375 -9.03125 0.640625 -6.96875 0.640625 -4.484375 C 0.640625 -1.8125 2.625 0.125 5.84375 0.125 C 8.984375 0.125 9.84375 -1.984375 9.84375 -2.328125 C 9.84375 -2.6875 9.46875 -2.6875 9.359375 -2.6875 C 9.03125 -2.6875 8.984375 -2.59375 8.859375 -2.265625 C 8.453125 -1.3125 7.3125 -0.671875 6.015625 -0.671875 C 3.203125 -0.671875 3.1875 -3.328125 3.1875 -4.34375 Z M 3.1875 -5 C 3.234375 -5.78125 3.25 -6.609375 3.671875 -7.265625 C 4.1875 -8.0625 4.984375 -8.3125 5.5625 -8.3125 C 7.890625 -8.3125 7.921875 -5.703125 7.953125 -5 Z M 3.1875 -5 "/>
</symbol>
<symbol overflow="visible" id="glyph0-8">
<path style="stroke:none;" d="M 4.046875 -6.71875 L 4.046875 -8.96875 L 0.734375 -8.8125 L 0.734375 -7.875 C 1.96875 -7.875 2.109375 -7.875 2.109375 -7.09375 L 2.109375 -0.9375 L 0.734375 -0.9375 L 0.734375 0 C 1.4375 -0.015625 2.328125 -0.0625 3.25 -0.0625 C 4 -0.0625 5.28125 -0.0625 6 0 L 6 -0.9375 L 4.265625 -0.9375 L 4.265625 -4.421875 C 4.265625 -5.8125 4.765625 -8.25 6.75 -8.25 C 6.734375 -8.234375 6.375 -7.90625 6.375 -7.328125 C 6.375 -6.515625 7.015625 -6.109375 7.59375 -6.109375 C 8.171875 -6.109375 8.8125 -6.53125 8.8125 -7.328125 C 8.8125 -8.390625 7.734375 -8.96875 6.6875 -8.96875 C 5.296875 -8.96875 4.5 -7.96875 4.046875 -6.71875 Z M 4.046875 -6.71875 "/>
</symbol>
<symbol overflow="visible" id="glyph0-9">
<path style="stroke:none;" d="M 7.453125 -1.53125 C 7.453125 -0.921875 7.453125 0 9.515625 0 L 10.484375 0 C 10.875 0 11.109375 0 11.109375 -0.484375 C 11.109375 -0.9375 10.859375 -0.9375 10.59375 -0.9375 C 9.390625 -0.953125 9.390625 -1.21875 9.390625 -1.671875 L 9.390625 -5.953125 C 9.390625 -7.734375 7.96875 -9.03125 5 -9.03125 C 3.859375 -9.03125 1.4375 -8.9375 1.4375 -7.1875 C 1.4375 -6.3125 2.125 -5.9375 2.671875 -5.9375 C 3.28125 -5.9375 3.921875 -6.359375 3.921875 -7.1875 C 3.921875 -7.796875 3.546875 -8.125 3.484375 -8.171875 C 4.046875 -8.28125 4.6875 -8.3125 4.921875 -8.3125 C 6.421875 -8.3125 7.109375 -7.46875 7.109375 -5.953125 L 7.109375 -5.28125 C 5.703125 -5.21875 0.640625 -5.046875 0.640625 -2.15625 C 0.640625 -0.234375 3.109375 0.125 4.484375 0.125 C 6.078125 0.125 7.015625 -0.703125 7.453125 -1.53125 Z M 7.109375 -4.65625 L 7.109375 -2.765625 C 7.109375 -0.859375 5.28125 -0.59375 4.78125 -0.59375 C 3.765625 -0.59375 2.96875 -1.296875 2.96875 -2.171875 C 2.96875 -4.328125 6.109375 -4.609375 7.109375 -4.65625 Z M 7.109375 -4.65625 "/>
</symbol>
<symbol overflow="visible" id="glyph0-10">
<path style="stroke:none;" d="M 2.046875 -7.90625 L 2.046875 -2.453125 C 2.046875 -0.3125 3.78125 0.125 5.203125 0.125 C 6.71875 0.125 7.609375 -1.015625 7.609375 -2.46875 L 7.609375 -3.53125 L 6.671875 -3.53125 L 6.671875 -2.515625 C 6.671875 -1.15625 6.03125 -0.671875 5.484375 -0.671875 C 4.328125 -0.671875 4.328125 -1.953125 4.328125 -2.40625 L 4.328125 -7.90625 L 7.234375 -7.90625 L 7.234375 -8.84375 L 4.328125 -8.84375 L 4.328125 -12.65625 L 3.390625 -12.65625 C 3.359375 -10.65625 2.390625 -8.6875 0.421875 -8.625 L 0.421875 -7.90625 Z M 2.046875 -7.90625 "/>
</symbol>
<symbol overflow="visible" id="glyph0-11">
<path style="stroke:none;" d="M 4.375 -6.546875 C 4.375 -6.9375 4.40625 -6.953125 4.6875 -7.234375 C 5.484375 -8.046875 6.515625 -8.171875 6.953125 -8.171875 C 8.28125 -8.171875 9.40625 -6.953125 9.40625 -4.4375 C 9.40625 -1.640625 8.015625 -0.59375 6.71875 -0.59375 C 6.4375 -0.59375 5.5 -0.59375 4.609375 -1.671875 C 4.375 -1.9375 4.375 -1.953125 4.375 -2.328125 Z M 4.375 -0.78125 C 5.234375 -0.078125 6.109375 0.125 6.9375 0.125 C 9.921875 0.125 11.953125 -1.671875 11.953125 -4.4375 C 11.953125 -7.09375 10.140625 -8.96875 7.265625 -8.96875 C 5.78125 -8.96875 4.71875 -8.34375 4.265625 -7.984375 L 4.265625 -8.96875 L 0.734375 -8.8125 L 0.734375 -7.875 C 1.96875 -7.875 2.109375 -7.875 2.109375 -7.109375 L 2.109375 2.921875 L 0.734375 2.921875 L 0.734375 3.859375 C 1.296875 3.84375 2.484375 3.8125 3.25 3.8125 C 4.03125 3.8125 5.203125 3.84375 5.75 3.859375 L 5.75 2.921875 L 4.375 2.921875 Z M 4.375 -0.78125 "/>
</symbol>
<symbol overflow="visible" id="glyph0-12">
<path style="stroke:none;" d="M 4.265625 -7.984375 L 4.265625 -13.828125 L 0.734375 -13.671875 L 0.734375 -12.734375 C 1.96875 -12.734375 2.109375 -12.734375 2.109375 -11.953125 L 2.109375 0 L 3.046875 0 L 4.03125 -1.109375 C 4.1875 -0.953125 5.15625 0.125 6.9375 0.125 C 9.90625 0.125 11.953125 -1.671875 11.953125 -4.4375 C 11.953125 -7.09375 10.078125 -8.96875 7.1875 -8.96875 C 5.734375 -8.96875 4.734375 -8.390625 4.265625 -7.984375 Z M 4.375 -1.96875 L 4.375 -6.96875 C 4.921875 -7.671875 5.875 -8.25 6.96875 -8.25 C 9.40625 -8.25 9.40625 -5.84375 9.40625 -4.4375 C 9.40625 -3.5 9.40625 -2.40625 8.890625 -1.640625 C 8.3125 -0.8125 7.390625 -0.59375 6.75 -0.59375 C 5.359375 -0.59375 4.578125 -1.671875 4.375 -1.96875 Z M 4.375 -1.96875 "/>
</symbol>
</g>
<filter id="alpha" filterUnits="objectBoundingBox" x="0%" y="0%" width="100%" height="100%">
  <feColorMatrix type="matrix" in="SourceGraphic" values="0 0 0 0 1 0 0 0 0 1 0 0 0 0 1 0 0 0 1 0"/>
</filter>
<mask id="mask0">
  <g filter="url(#alpha)">
<rect x="0" y="0" width="225.156" height="380.633" style="fill:rgb(0%,0%,0%);fill-opacity:0.45;stroke:none;"/>
  </g>
</mask>
<clipPath id="clip2">
  <path d="M 0.234375 0.636719 L 31 0.636719 L 31 20 L 0.234375 20 Z M 0.234375 0.636719 "/>
</clipPath>
<clipPath id="clip3">
  <path d="M 29 4 L 41.476562 4 L 41.476562 17 L 29 17 Z M 29 4 "/>
</clipPath>
<clipPath id="clip4">
  <path d="M 0.234375 24 L 31 24 L 31 44 L 0.234375 44 Z M 0.234375 24 "/>
</clipPath>
<clipPath id="clip5">
  <path d="M 29 28 L 41.476562 28 L 41.476562 41 L 29 41 Z M 29 28 "/>
</clipPath>
<clipPath id="clip6">
  <path d="M 0.234375 48 L 31 48 L 31 67.75 L 0.234375 67.75 Z M 0.234375 48 "/>
</clipPath>
<clipPath id="clip7">
  <path d="M 29 52 L 41.476562 52 L 41.476562 65 L 29 65 Z M 29 52 "/>
</clipPath>
<clipPath id="clip1">
  <rect x="0" y="0" width="42" height="68"/>
</clipPath>
<g id="surface5" clip-path="url(#clip1)">
<g clip-path="url(#clip2)" clip-rule="nonzero">
<path style=" stroke:none;fill-rule:nonzero;fill:rgb(100%,100%,100%);fill-opacity:1;" d="M 27.257812 10.085938 C 27.253906 8.050781 28.0625 6.046875 29.597656 4.289062 L 30.210938 3.574219 C 28.925781 3.371094 27.613281 3.242188 26.292969 3.191406 C 24.527344 2.285156 21.894531 1.207031 18.855469 0.867188 L 16.992188 0.636719 L 18.066406 3.957031 C 14.710938 4.71875 11.75 6.257812 9.789062 7.320312 C 9.410156 7.109375 9.015625 6.902344 8.597656 6.699219 C 5.402344 5.144531 1.945312 4.992188 1.800781 4.988281 L 0.234375 4.933594 L 0.449219 5.96875 C 0.472656 6.074219 1 8.371094 3 10.074219 C 1 11.785156 0.476562 14.074219 0.449219 14.183594 L 0.234375 15.238281 L 1.800781 15.164062 C 1.945312 15.160156 5.402344 15.011719 8.597656 13.453125 C 9.007812 13.257812 9.398438 13.050781 9.773438 12.84375 C 11.734375 13.90625 14.695312 15.453125 18.058594 16.210938 L 16.992188 19.535156 L 18.855469 19.308594 C 21.878906 18.964844 24.5 17.890625 26.269531 16.980469 C 27.605469 16.929688 28.9375 16.800781 30.238281 16.59375 L 29.601562 15.886719 C 28.066406 14.125 27.257812 12.125 27.257812 10.085938 Z M 27.257812 10.085938 "/>
<path style=" stroke:none;fill-rule:nonzero;fill:rgb(100%,100%,100%);fill-opacity:1;" d="M 16.992188 0.636719 L 18.855469 0.867188 C 21.894531 1.207031 24.527344 2.285156 26.292969 3.191406 C 27.613281 3.242188 28.925781 3.371094 30.210938 3.574219 L 29.597656 4.289062 C 28.0625 6.046875 27.253906 8.050781 27.257812 10.085938 C 27.257812 12.125 28.066406 14.125 29.601562 15.886719 L 30.238281 16.59375 C 28.9375 16.800781 27.605469 16.929688 26.269531 16.980469 C 24.5 17.890625 21.878906 18.964844 18.855469 19.308594 L 16.992188 19.535156 L 18.058594 16.210938 C 14.695312 15.453125 11.734375 13.90625 9.773438 12.84375 C 9.398438 13.050781 9.007812 13.257812 8.597656 13.453125 C 5.402344 15.011719 1.945312 15.160156 1.800781 15.164062 L 0.234375 15.238281 L 0.449219 14.183594 C 0.476562 14.074219 1 11.785156 3 10.074219 C 1 8.371094 0.472656 6.074219 0.449219 5.96875 L 0.234375 4.933594 L 1.800781 4.988281 C 1.945312 4.992188 5.402344 5.144531 8.597656 6.699219 C 9.015625 6.902344 9.410156 7.109375 9.789062 7.320312 C 11.75 6.257812 14.710938 4.71875 18.066406 3.957031 Z M 17.636719 1.171875 L 18.496094 3.820312 L 18.648438 4.289062 L 18.167969 4.398438 C 15.453125 5.011719 13.121094 6.027344 10.003906 7.714844 L 9.789062 7.832031 L 9.570312 7.710938 C 9.199219 7.503906 8.808594 7.300781 8.402344 7.105469 C 7.039062 6.441406 5.527344 5.988281 3.976562 5.703125 C 3.421875 5.605469 2.902344 5.53125 2.429688 5.484375 C 2.136719 5.457031 1.910156 5.441406 1.785156 5.4375 L 0.792969 5.402344 L 0.890625 5.875 C 0.90625 5.953125 0.945312 6.09375 1.003906 6.277344 C 1.101562 6.574219 1.230469 6.894531 1.390625 7.226562 C 1.839844 8.164062 2.464844 9.027344 3.292969 9.734375 L 3.695312 10.074219 L 3.292969 10.417969 C 2.914062 10.738281 2.578125 11.097656 2.277344 11.488281 C 1.8125 12.085938 1.453125 12.730469 1.191406 13.375 C 1.097656 13.605469 1.023438 13.820312 0.960938 14.015625 C 0.941406 14.085938 0.925781 14.148438 0.910156 14.207031 C 0.894531 14.261719 0.902344 14.234375 0.890625 14.28125 L 0.792969 14.761719 L 1.785156 14.714844 C 1.910156 14.710938 2.136719 14.695312 2.429688 14.667969 C 2.902344 14.621094 3.421875 14.550781 3.976562 14.449219 C 5.527344 14.167969 7.039062 13.714844 8.402344 13.050781 C 8.800781 12.855469 9.1875 12.65625 9.554688 12.449219 L 9.769531 12.328125 L 9.988281 12.449219 C 13.105469 14.140625 15.441406 15.160156 18.15625 15.773438 L 18.636719 15.878906 L 18.488281 16.347656 L 17.632812 19.003906 L 18.804688 18.859375 C 21.355469 18.574219 23.808594 17.742188 26.0625 16.582031 L 26.152344 16.535156 L 26.25 16.53125 C 27.28125 16.488281 28.316406 16.414062 29.339844 16.269531 L 29.265625 16.183594 C 27.65625 14.339844 26.804688 12.234375 26.804688 10.085938 C 26.804688 7.9375 27.65625 5.832031 29.257812 3.992188 L 29.335938 3.90625 C 28.324219 3.742188 27.296875 3.695312 26.277344 3.640625 L 26.175781 3.636719 L 26.089844 3.59375 C 23.835938 2.433594 21.367188 1.601562 18.800781 1.3125 Z M 17.636719 1.171875 "/>
</g>
<g clip-path="url(#clip3)" clip-rule="nonzero">
<path style=" stroke:none;fill-rule:nonzero;fill:rgb(100%,100%,100%);fill-opacity:1;" d="M 40.476562 8.246094 C 40.007812 7.714844 39.144531 6.910156 37.722656 6.085938 C 36.246094 5.234375 34.554688 4.5625 32.730469 4.097656 L 31.832031 5.148438 C 29.171875 8.199219 29.167969 11.964844 31.824219 15.015625 L 32.769531 16.066406 C 34.574219 15.609375 36.25 14.945312 37.714844 14.109375 C 40.273438 12.632812 41.476562 10.78125 41.476562 10.085938 C 41.476562 9.425781 40.832031 8.648438 40.476562 8.246094 Z M 33.746094 10.085938 C 33.035156 10.085938 32.457031 9.703125 32.457031 9.226562 C 32.457031 8.753906 33.035156 8.367188 33.746094 8.367188 C 34.457031 8.367188 35.035156 8.753906 35.035156 9.226562 C 35.035156 9.703125 34.457031 10.085938 33.746094 10.085938 Z M 33.746094 10.085938 "/>
<path style=" stroke:none;fill-rule:nonzero;fill:rgb(100%,100%,100%);fill-opacity:1;" d="M 32.730469 4.097656 C 34.554688 4.5625 36.246094 5.234375 37.722656 6.085938 C 39.144531 6.910156 40.007812 7.714844 40.476562 8.246094 C 40.832031 8.648438 41.476562 9.425781 41.476562 10.085938 C 41.476562 10.78125 40.273438 12.632812 37.714844 14.109375 C 36.25 14.945312 34.574219 15.609375 32.769531 16.066406 L 31.824219 15.015625 C 29.167969 11.964844 29.171875 8.199219 31.832031 5.148438 Z M 32.886719 4.605469 L 32.167969 5.441406 C 29.660156 8.324219 29.65625 11.839844 32.15625 14.714844 L 32.917969 15.5625 C 34.519531 15.15625 36.042969 14.507812 37.492188 13.71875 C 38.625 13.066406 39.550781 12.296875 40.210938 11.515625 C 40.734375 10.898438 41.027344 10.332031 41.027344 10.085938 C 40.964844 9.480469 40.523438 8.992188 40.140625 8.546875 C 39.394531 7.699219 38.460938 7.054688 37.5 6.472656 C 36.054688 5.644531 34.492188 5.042969 32.886719 4.605469 Z M 33.746094 7.917969 C 34.675781 7.917969 35.484375 8.457031 35.484375 9.226562 C 35.484375 9.996094 34.675781 10.535156 33.746094 10.535156 C 32.8125 10.535156 32.007812 9.996094 32.007812 9.226562 C 32.007812 8.457031 32.8125 7.917969 33.746094 7.917969 Z M 33.746094 8.367188 C 33.035156 8.367188 32.457031 8.753906 32.457031 9.226562 C 32.457031 9.703125 33.035156 10.085938 33.746094 10.085938 C 34.457031 10.085938 35.035156 9.703125 35.035156 9.226562 C 35.035156 8.753906 34.457031 8.367188 33.746094 8.367188 Z M 33.746094 8.367188 "/>
</g>
<g clip-path="url(#clip4)" clip-rule="nonzero">
<path style=" stroke:none;fill-rule:nonzero;fill:rgb(100%,100%,100%);fill-opacity:1;" d="M 27.257812 34.191406 C 27.253906 32.15625 28.0625 30.15625 29.597656 28.394531 L 30.210938 27.683594 C 28.925781 27.480469 27.613281 27.351562 26.292969 27.300781 C 24.527344 26.390625 21.894531 25.316406 18.855469 24.972656 L 16.992188 24.746094 L 18.066406 28.066406 C 14.710938 28.824219 11.75 30.367188 9.789062 31.425781 C 9.410156 31.214844 9.015625 31.007812 8.597656 30.808594 C 5.402344 29.25 1.945312 29.101562 1.800781 29.09375 L 0.234375 29.039062 L 0.449219 30.074219 C 0.472656 30.183594 1 32.476562 3 34.183594 C 1 35.890625 0.476562 38.183594 0.449219 38.292969 L 0.234375 39.347656 L 1.800781 39.273438 C 1.945312 39.269531 5.402344 39.117188 8.597656 37.5625 C 9.007812 37.363281 9.398438 37.160156 9.773438 36.949219 C 11.734375 38.015625 14.695312 39.558594 18.058594 40.320312 L 16.992188 43.640625 L 18.855469 43.414062 C 21.878906 43.074219 24.5 41.996094 26.269531 41.089844 C 27.605469 41.039062 28.9375 40.90625 30.238281 40.703125 L 29.601562 39.992188 C 28.066406 38.230469 27.257812 36.230469 27.257812 34.191406 Z M 27.257812 34.191406 "/>
<path style=" stroke:none;fill-rule:nonzero;fill:rgb(100%,100%,100%);fill-opacity:1;" d="M 16.992188 24.746094 L 18.855469 24.972656 C 21.894531 25.316406 24.527344 26.390625 26.292969 27.300781 C 27.613281 27.351562 28.925781 27.480469 30.210938 27.683594 L 29.597656 28.394531 C 28.0625 30.15625 27.253906 32.15625 27.257812 34.191406 C 27.257812 36.230469 28.066406 38.230469 29.601562 39.992188 L 30.238281 40.703125 C 28.9375 40.90625 27.605469 41.039062 26.269531 41.089844 C 24.5 41.996094 21.878906 43.074219 18.855469 43.414062 L 16.992188 43.640625 L 18.058594 40.320312 C 14.695312 39.558594 11.734375 38.015625 9.773438 36.949219 C 9.398438 37.160156 9.007812 37.363281 8.597656 37.5625 C 5.402344 39.117188 1.945312 39.269531 1.800781 39.273438 L 0.234375 39.347656 L 0.449219 38.292969 C 0.476562 38.183594 1 35.890625 3 34.183594 C 1 32.476562 0.472656 30.183594 0.449219 30.074219 L 0.234375 29.039062 L 1.800781 29.09375 C 1.945312 29.101562 5.402344 29.25 8.597656 30.808594 C 9.015625 31.007812 9.410156 31.214844 9.789062 31.425781 C 11.75 30.367188 14.710938 28.824219 18.066406 28.066406 Z M 17.636719 25.277344 L 18.496094 27.925781 L 18.648438 28.394531 L 18.167969 28.503906 C 15.453125 29.117188 13.121094 30.136719 10.003906 31.824219 L 9.789062 31.941406 L 9.570312 31.820312 C 9.199219 31.613281 8.808594 31.410156 8.402344 31.210938 C 7.039062 30.546875 5.527344 30.09375 3.976562 29.8125 C 3.421875 29.710938 2.902344 29.640625 2.429688 29.59375 C 2.136719 29.5625 1.910156 29.550781 1.785156 29.542969 L 0.792969 29.511719 L 0.890625 29.980469 C 0.90625 30.058594 0.945312 30.199219 1.003906 30.382812 C 1.101562 30.679688 1.230469 31 1.390625 31.335938 C 1.839844 32.273438 2.464844 33.136719 3.292969 33.839844 L 3.695312 34.183594 L 3.292969 34.527344 C 2.914062 34.847656 2.578125 35.207031 2.277344 35.59375 C 1.8125 36.195312 1.453125 36.839844 1.191406 37.484375 C 1.097656 37.714844 1.023438 37.929688 0.960938 38.125 C 0.941406 38.195312 0.925781 38.257812 0.910156 38.3125 C 0.894531 38.367188 0.902344 38.34375 0.890625 38.390625 L 0.792969 38.871094 L 1.785156 38.824219 C 1.910156 38.820312 2.136719 38.804688 2.429688 38.773438 C 2.902344 38.726562 3.421875 38.65625 3.976562 38.554688 C 5.527344 38.273438 7.039062 37.820312 8.402344 37.15625 C 8.800781 36.960938 9.1875 36.761719 9.554688 36.558594 L 9.769531 36.4375 L 9.988281 36.554688 C 13.105469 38.246094 15.441406 39.265625 18.15625 39.878906 L 18.636719 39.988281 L 18.488281 40.457031 L 17.632812 43.109375 L 18.804688 42.96875 C 21.355469 42.679688 23.808594 41.847656 26.0625 40.6875 L 26.152344 40.644531 L 26.25 40.640625 C 27.28125 40.59375 28.316406 40.523438 29.339844 40.375 L 29.265625 40.289062 C 27.65625 38.449219 26.804688 36.34375 26.804688 34.191406 C 26.804688 32.042969 27.65625 29.9375 29.257812 28.101562 L 29.335938 28.011719 C 28.324219 27.851562 27.296875 27.804688 26.277344 27.75 L 26.175781 27.746094 L 26.089844 27.699219 C 23.835938 26.542969 21.367188 25.710938 18.800781 25.421875 Z M 17.636719 25.277344 "/>
</g>
<g clip-path="url(#clip5)" clip-rule="nonzero">
<path style=" stroke:none;fill-rule:nonzero;fill:rgb(100%,100%,100%);fill-opacity:1;" d="M 40.476562 32.355469 C 40.007812 31.824219 39.144531 31.019531 37.722656 30.191406 C 36.246094 29.34375 34.554688 28.671875 32.730469 28.207031 L 31.832031 29.253906 C 29.171875 32.304688 29.167969 36.074219 31.824219 39.125 L 32.769531 40.175781 C 34.574219 39.714844 36.25 39.054688 37.714844 38.214844 C 40.273438 36.742188 41.476562 34.890625 41.476562 34.191406 C 41.476562 33.53125 40.832031 32.757812 40.476562 32.355469 Z M 33.746094 34.191406 C 33.035156 34.191406 32.457031 33.808594 32.457031 33.335938 C 32.457031 32.859375 33.035156 32.476562 33.746094 32.476562 C 34.457031 32.476562 35.035156 32.859375 35.035156 33.335938 C 35.035156 33.808594 34.457031 34.191406 33.746094 34.191406 Z M 33.746094 34.191406 "/>
<path style=" stroke:none;fill-rule:nonzero;fill:rgb(100%,100%,100%);fill-opacity:1;" d="M 32.730469 28.207031 C 34.554688 28.671875 36.246094 29.34375 37.722656 30.191406 C 39.144531 31.019531 40.007812 31.824219 40.476562 32.355469 C 40.832031 32.757812 41.476562 33.53125 41.476562 34.191406 C 41.476562 34.890625 40.273438 36.742188 37.714844 38.214844 C 36.25 39.054688 34.574219 39.714844 32.769531 40.175781 L 31.824219 39.125 C 29.167969 36.074219 29.171875 32.304688 31.832031 29.253906 Z M 32.886719 28.714844 L 32.167969 29.550781 C 29.660156 32.433594 29.65625 35.945312 32.15625 38.824219 L 32.917969 39.667969 C 34.519531 39.265625 36.042969 38.617188 37.492188 37.828125 C 38.625 37.175781 39.550781 36.402344 40.210938 35.625 C 40.734375 35.007812 41.027344 34.4375 41.027344 34.191406 C 40.964844 33.585938 40.523438 33.097656 40.140625 32.652344 C 39.394531 31.804688 38.460938 31.160156 37.5 30.582031 C 36.054688 29.75 34.492188 29.152344 32.886719 28.714844 Z M 33.746094 32.027344 C 34.675781 32.027344 35.484375 32.5625 35.484375 33.335938 C 35.484375 34.105469 34.675781 34.644531 33.746094 34.644531 C 32.8125 34.644531 32.007812 34.105469 32.007812 33.335938 C 32.007812 32.5625 32.8125 32.027344 33.746094 32.027344 Z M 33.746094 32.476562 C 33.035156 32.476562 32.457031 32.859375 32.457031 33.335938 C 32.457031 33.808594 33.035156 34.191406 33.746094 34.191406 C 34.457031 34.191406 35.035156 33.808594 35.035156 33.335938 C 35.035156 32.859375 34.457031 32.476562 33.746094 32.476562 Z M 33.746094 32.476562 "/>
</g>
<g clip-path="url(#clip6)" clip-rule="nonzero">
<path style=" stroke:none;fill-rule:nonzero;fill:rgb(100%,100%,100%);fill-opacity:1;" d="M 27.257812 58.300781 C 27.253906 56.265625 28.0625 54.265625 29.597656 52.503906 L 30.210938 51.792969 C 28.925781 51.585938 27.613281 51.457031 26.292969 51.40625 C 24.527344 50.5 21.894531 49.421875 18.855469 49.082031 L 16.992188 48.851562 L 18.066406 52.171875 C 14.710938 52.933594 11.75 54.472656 9.789062 55.535156 C 9.410156 55.324219 9.015625 55.117188 8.597656 54.914062 C 5.402344 53.359375 1.945312 53.207031 1.800781 53.203125 L 0.234375 53.148438 L 0.449219 54.183594 C 0.472656 54.292969 1 56.585938 3 58.292969 C 1 60 0.476562 62.292969 0.449219 62.398438 L 0.234375 63.453125 L 1.800781 63.382812 C 1.945312 63.375 5.402344 63.226562 8.597656 61.667969 C 9.007812 61.472656 9.398438 61.265625 9.773438 61.058594 C 11.734375 62.121094 14.695312 63.667969 18.058594 64.425781 L 16.992188 67.75 L 18.855469 67.523438 C 21.878906 67.183594 24.5 66.105469 26.269531 65.195312 C 27.605469 65.144531 28.9375 65.015625 30.238281 64.808594 L 29.601562 64.101562 C 28.066406 62.339844 27.257812 60.339844 27.257812 58.300781 Z M 27.257812 58.300781 "/>
<path style=" stroke:none;fill-rule:nonzero;fill:rgb(100%,100%,100%);fill-opacity:1;" d="M 16.992188 48.851562 L 18.855469 49.082031 C 21.894531 49.421875 24.527344 50.5 26.292969 51.40625 C 27.613281 51.457031 28.925781 51.585938 30.210938 51.792969 L 29.597656 52.503906 C 28.0625 54.265625 27.253906 56.265625 27.257812 58.300781 C 27.257812 60.339844 28.066406 62.339844 29.601562 64.101562 L 30.238281 64.808594 C 28.9375 65.015625 27.605469 65.144531 26.269531 65.195312 C 24.5 66.105469 21.878906 67.183594 18.855469 67.523438 L 16.992188 67.75 L 18.058594 64.425781 C 14.695312 63.667969 11.734375 62.121094 9.773438 61.058594 C 9.398438 61.265625 9.007812 61.472656 8.597656 61.667969 C 5.402344 63.226562 1.945312 63.375 1.800781 63.382812 L 0.234375 63.453125 L 0.449219 62.398438 C 0.476562 62.292969 1 60 3 58.292969 C 1 56.585938 0.472656 54.292969 0.449219 54.183594 L 0.234375 53.148438 L 1.800781 53.203125 C 1.945312 53.207031 5.402344 53.359375 8.597656 54.914062 C 9.015625 55.117188 9.410156 55.324219 9.789062 55.535156 C 11.75 54.472656 14.710938 52.933594 18.066406 52.171875 Z M 17.636719 49.386719 L 18.496094 52.035156 L 18.648438 52.503906 L 18.167969 52.613281 C 15.453125 53.226562 13.121094 54.242188 10.003906 55.929688 L 9.789062 56.046875 L 9.570312 55.929688 C 9.199219 55.722656 8.808594 55.519531 8.402344 55.320312 C 7.039062 54.65625 5.527344 54.203125 3.976562 53.917969 C 3.421875 53.820312 2.902344 53.746094 2.429688 53.699219 C 2.136719 53.671875 1.910156 53.65625 1.785156 53.652344 L 0.792969 53.617188 L 0.890625 54.089844 C 0.90625 54.167969 0.945312 54.308594 1.003906 54.492188 C 1.101562 54.789062 1.230469 55.109375 1.390625 55.445312 C 1.839844 56.382812 2.464844 57.242188 3.292969 57.949219 L 3.695312 58.292969 L 3.292969 58.632812 C 2.914062 58.957031 2.578125 59.3125 2.277344 59.703125 C 1.8125 60.300781 1.453125 60.945312 1.191406 61.589844 C 1.097656 61.820312 1.023438 62.035156 0.960938 62.230469 C 0.941406 62.300781 0.925781 62.363281 0.910156 62.421875 C 0.894531 62.476562 0.902344 62.449219 0.890625 62.496094 L 0.792969 62.976562 L 1.785156 62.933594 C 1.910156 62.925781 2.136719 62.910156 2.429688 62.882812 C 2.902344 62.835938 3.421875 62.765625 3.976562 62.664062 C 5.527344 62.382812 7.039062 61.929688 8.402344 61.265625 C 8.800781 61.070312 9.1875 60.871094 9.554688 60.664062 L 9.769531 60.546875 L 9.988281 60.664062 C 13.105469 62.355469 15.441406 63.375 18.15625 63.988281 L 18.636719 64.097656 L 18.488281 64.5625 L 17.632812 67.21875 L 18.804688 67.074219 C 21.355469 66.789062 23.808594 65.957031 26.0625 64.796875 L 26.152344 64.75 L 26.25 64.746094 C 27.28125 64.703125 28.316406 64.628906 29.339844 64.484375 L 29.265625 64.398438 C 27.65625 62.554688 26.804688 60.453125 26.804688 58.300781 C 26.804688 56.152344 27.65625 54.046875 29.257812 52.210938 L 29.335938 52.121094 C 28.324219 51.957031 27.296875 51.910156 26.277344 51.855469 L 26.175781 51.851562 L 26.089844 51.808594 C 23.835938 50.652344 21.367188 49.816406 18.800781 49.527344 Z M 17.636719 49.386719 "/>
</g>
<g clip-path="url(#clip7)" clip-rule="nonzero">
<path style=" stroke:none;fill-rule:nonzero;fill:rgb(100%,100%,100%);fill-opacity:1;" d="M 40.476562 56.460938 C 40.007812 55.933594 39.144531 55.125 37.722656 54.300781 C 36.246094 53.449219 34.554688 52.777344 32.730469 52.3125 L 31.832031 53.363281 C 29.171875 56.414062 29.167969 60.179688 31.824219 63.234375 L 32.769531 64.285156 C 34.574219 63.824219 36.25 63.160156 37.714844 62.324219 C 40.273438 60.847656 41.476562 59 41.476562 58.300781 C 41.476562 57.640625 40.832031 56.863281 40.476562 56.460938 Z M 33.746094 58.300781 C 33.035156 58.300781 32.457031 57.917969 32.457031 57.441406 C 32.457031 56.96875 33.035156 56.582031 33.746094 56.582031 C 34.457031 56.582031 35.035156 56.96875 35.035156 57.441406 C 35.035156 57.917969 34.457031 58.300781 33.746094 58.300781 Z M 33.746094 58.300781 "/>
<path style=" stroke:none;fill-rule:nonzero;fill:rgb(100%,100%,100%);fill-opacity:1;" d="M 32.730469 52.3125 C 34.554688 52.777344 36.246094 53.449219 37.722656 54.300781 C 39.144531 55.125 40.007812 55.933594 40.476562 56.460938 C 40.832031 56.863281 41.476562 57.640625 41.476562 58.300781 C 41.476562 59 40.273438 60.847656 37.714844 62.324219 C 36.25 63.160156 34.574219 63.824219 32.769531 64.285156 L 31.824219 63.234375 C 29.167969 60.179688 29.171875 56.414062 31.832031 53.363281 Z M 32.886719 52.824219 L 32.167969 53.65625 C 29.660156 56.539062 29.65625 60.054688 32.15625 62.929688 L 32.917969 63.777344 C 34.519531 63.375 36.042969 62.722656 37.492188 61.933594 C 38.625 61.28125 39.550781 60.511719 40.210938 59.730469 C 40.734375 59.117188 41.027344 58.546875 41.027344 58.300781 C 40.964844 57.695312 40.523438 57.207031 40.140625 56.761719 C 39.394531 55.914062 38.460938 55.269531 37.5 54.691406 C 36.054688 53.859375 34.492188 53.257812 32.886719 52.824219 Z M 33.746094 56.132812 C 34.675781 56.132812 35.484375 56.671875 35.484375 57.441406 C 35.484375 58.210938 34.675781 58.75 33.746094 58.75 C 32.8125 58.75 32.007812 58.210938 32.007812 57.441406 C 32.007812 56.671875 32.8125 56.132812 33.746094 56.132812 Z M 33.746094 56.582031 C 33.035156 56.582031 32.457031 56.96875 32.457031 57.441406 C 32.457031 57.917969 33.035156 58.300781 33.746094 58.300781 C 34.457031 58.300781 35.035156 57.917969 35.035156 57.441406 C 35.035156 56.96875 34.457031 56.582031 33.746094 56.582031 Z M 33.746094 56.582031 "/>
</g>
</g>
<clipPath id="clip8">
  <path d="M 74 2 L 225.15625 2 L 225.15625 79 L 74 79 Z M 74 2 "/>
</clipPath>
<mask id="mask1">
  <g filter="url(#alpha)">
<rect x="0" y="0" width="225.156" height="380.633" style="fill:rgb(0%,0%,0%);fill-opacity:0.45;stroke:none;"/>
  </g>
</mask>
<clipPath id="clip10">
  <path d="M 0.234375 0.410156 L 31 0.410156 L 31 20 L 0.234375 20 Z M 0.234375 0.410156 "/>
</clipPath>
<clipPath id="clip11">
  <path d="M 29 3 L 41.476562 3 L 41.476562 16 L 29 16 Z M 29 3 "/>
</clipPath>
<clipPath id="clip12">
  <path d="M 0.234375 24 L 31 24 L 31 43.414062 L 0.234375 43.414062 Z M 0.234375 24 "/>
</clipPath>
<clipPath id="clip13">
  <path d="M 29 27 L 41.476562 27 L 41.476562 40 L 29 40 Z M 29 27 "/>
</clipPath>
<clipPath id="clip9">
  <rect x="0" y="0" width="42" height="44"/>
</clipPath>
<g id="surface8" clip-path="url(#clip9)">
<g clip-path="url(#clip10)" clip-rule="nonzero">
<path style=" stroke:none;fill-rule:nonzero;fill:rgb(100%,100%,100%);fill-opacity:1;" d="M 27.257812 9.859375 C 27.253906 7.824219 28.0625 5.824219 29.597656 4.0625 L 30.210938 3.351562 C 28.925781 3.148438 27.613281 3.019531 26.292969 2.96875 C 24.527344 2.058594 21.894531 0.984375 18.855469 0.640625 L 16.992188 0.410156 L 18.066406 3.734375 C 14.710938 4.492188 11.75 6.035156 9.789062 7.09375 C 9.410156 6.882812 9.015625 6.675781 8.597656 6.472656 C 5.402344 4.917969 1.945312 4.765625 1.800781 4.761719 L 0.234375 4.707031 L 0.449219 5.742188 C 0.472656 5.851562 1 8.144531 3 9.851562 C 1 11.558594 0.476562 13.851562 0.449219 13.960938 L 0.234375 15.015625 L 1.800781 14.941406 C 1.945312 14.933594 5.402344 14.785156 8.597656 13.226562 C 9.007812 13.03125 9.398438 12.828125 9.773438 12.617188 C 11.734375 13.683594 14.695312 15.226562 18.058594 15.984375 L 16.992188 19.308594 L 18.855469 19.082031 C 21.878906 18.742188 24.5 17.664062 26.269531 16.757812 C 27.605469 16.703125 28.9375 16.574219 30.238281 16.367188 L 29.601562 15.660156 C 28.066406 13.898438 27.257812 11.898438 27.257812 9.859375 Z M 27.257812 9.859375 "/>
<path style=" stroke:none;fill-rule:nonzero;fill:rgb(100%,100%,100%);fill-opacity:1;" d="M 16.992188 0.410156 L 18.855469 0.640625 C 21.894531 0.984375 24.527344 2.058594 26.292969 2.96875 C 27.613281 3.019531 28.925781 3.148438 30.210938 3.351562 L 29.597656 4.0625 C 28.0625 5.824219 27.253906 7.824219 27.257812 9.859375 C 27.257812 11.898438 28.066406 13.898438 29.601562 15.660156 L 30.238281 16.367188 C 28.9375 16.574219 27.605469 16.703125 26.269531 16.757812 C 24.5 17.664062 21.878906 18.742188 18.855469 19.082031 L 16.992188 19.308594 L 18.058594 15.984375 C 14.695312 15.226562 11.734375 13.683594 9.773438 12.617188 C 9.398438 12.828125 9.007812 13.03125 8.597656 13.226562 C 5.402344 14.785156 1.945312 14.933594 1.800781 14.941406 L 0.234375 15.015625 L 0.449219 13.960938 C 0.476562 13.851562 1 11.558594 3 9.851562 C 1 8.144531 0.472656 5.851562 0.449219 5.742188 L 0.234375 4.707031 L 1.800781 4.761719 C 1.945312 4.765625 5.402344 4.917969 8.597656 6.472656 C 9.015625 6.675781 9.410156 6.882812 9.789062 7.09375 C 11.75 6.035156 14.710938 4.492188 18.066406 3.734375 Z M 17.636719 0.945312 L 18.496094 3.59375 L 18.648438 4.0625 L 18.167969 4.171875 C 15.453125 4.785156 13.121094 5.804688 10.003906 7.492188 L 9.789062 7.609375 L 9.570312 7.488281 C 9.199219 7.28125 8.808594 7.078125 8.402344 6.878906 C 7.039062 6.214844 5.527344 5.761719 3.976562 5.480469 C 3.421875 5.378906 2.902344 5.308594 2.429688 5.261719 C 2.136719 5.230469 1.910156 5.214844 1.785156 5.210938 L 0.792969 5.175781 L 0.890625 5.648438 C 0.90625 5.726562 0.945312 5.867188 1.003906 6.050781 C 1.101562 6.347656 1.230469 6.667969 1.390625 7.003906 C 1.839844 7.941406 2.464844 8.804688 3.292969 9.507812 L 3.695312 9.851562 L 3.292969 10.195312 C 2.914062 10.515625 2.578125 10.875 2.277344 11.261719 C 1.8125 11.863281 1.453125 12.503906 1.191406 13.152344 C 1.097656 13.382812 1.023438 13.597656 0.960938 13.792969 C 0.941406 13.859375 0.925781 13.921875 0.910156 13.980469 C 0.894531 14.035156 0.902344 14.011719 0.890625 14.058594 L 0.792969 14.539062 L 1.785156 14.492188 C 1.910156 14.488281 2.136719 14.472656 2.429688 14.441406 C 2.902344 14.394531 3.421875 14.324219 3.976562 14.222656 C 5.527344 13.941406 7.039062 13.488281 8.402344 12.824219 C 8.800781 12.628906 9.1875 12.429688 9.554688 12.222656 L 9.769531 12.105469 L 9.988281 12.222656 C 13.105469 13.914062 15.441406 14.933594 18.15625 15.546875 L 18.636719 15.65625 L 18.488281 16.125 L 17.632812 18.777344 L 18.804688 18.636719 C 21.355469 18.347656 23.808594 17.515625 26.0625 16.355469 L 26.152344 16.308594 L 26.25 16.304688 C 27.28125 16.261719 28.316406 16.1875 29.339844 16.042969 L 29.265625 15.957031 C 27.65625 14.117188 26.804688 12.011719 26.804688 9.859375 C 26.804688 7.710938 27.65625 5.605469 29.257812 3.769531 L 29.335938 3.679688 C 28.324219 3.515625 27.296875 3.472656 26.277344 3.417969 L 26.175781 3.414062 L 26.089844 3.367188 C 23.835938 2.210938 21.367188 1.375 18.800781 1.085938 Z M 17.636719 0.945312 "/>
</g>
<g clip-path="url(#clip11)" clip-rule="nonzero">
<path style=" stroke:none;fill-rule:nonzero;fill:rgb(100%,100%,100%);fill-opacity:1;" d="M 40.476562 8.023438 C 40.007812 7.492188 39.144531 6.683594 37.722656 5.859375 C 36.246094 5.007812 34.554688 4.339844 32.730469 3.875 L 31.832031 4.921875 C 29.171875 7.972656 29.167969 11.738281 31.824219 14.792969 L 32.769531 15.84375 C 34.574219 15.382812 36.25 14.722656 37.714844 13.882812 C 40.273438 12.40625 41.476562 10.558594 41.476562 9.859375 C 41.476562 9.199219 40.832031 8.425781 40.476562 8.023438 Z M 33.746094 9.859375 C 33.035156 9.859375 32.457031 9.476562 32.457031 9 C 32.457031 8.527344 33.035156 8.140625 33.746094 8.140625 C 34.457031 8.140625 35.035156 8.527344 35.035156 9 C 35.035156 9.476562 34.457031 9.859375 33.746094 9.859375 Z M 33.746094 9.859375 "/>
<path style=" stroke:none;fill-rule:nonzero;fill:rgb(100%,100%,100%);fill-opacity:1;" d="M 32.730469 3.875 C 34.554688 4.339844 36.246094 5.007812 37.722656 5.859375 C 39.144531 6.683594 40.007812 7.492188 40.476562 8.023438 C 40.832031 8.425781 41.476562 9.199219 41.476562 9.859375 C 41.476562 10.558594 40.273438 12.40625 37.714844 13.882812 C 36.25 14.722656 34.574219 15.382812 32.769531 15.84375 L 31.824219 14.792969 C 29.167969 11.738281 29.171875 7.972656 31.832031 4.921875 Z M 32.886719 4.382812 L 32.167969 5.214844 C 29.660156 8.097656 29.65625 11.613281 32.15625 14.492188 L 32.917969 15.335938 C 34.519531 14.933594 36.042969 14.285156 37.492188 13.492188 C 38.625 12.839844 39.550781 12.070312 40.210938 11.289062 C 40.734375 10.675781 41.027344 10.105469 41.027344 9.859375 C 40.964844 9.253906 40.523438 8.765625 40.140625 8.320312 C 39.394531 7.472656 38.460938 6.828125 37.5 6.25 C 36.054688 5.417969 34.492188 4.816406 32.886719 4.382812 Z M 33.746094 7.691406 C 34.675781 7.691406 35.484375 8.230469 35.484375 9 C 35.484375 9.773438 34.675781 10.308594 33.746094 10.308594 C 32.8125 10.308594 32.007812 9.773438 32.007812 9 C 32.007812 8.230469 32.8125 7.691406 33.746094 7.691406 Z M 33.746094 8.140625 C 33.035156 8.140625 32.457031 8.527344 32.457031 9 C 32.457031 9.476562 33.035156 9.859375 33.746094 9.859375 C 34.457031 9.859375 35.035156 9.476562 35.035156 9 C 35.035156 8.527344 34.457031 8.140625 33.746094 8.140625 Z M 33.746094 8.140625 "/>
</g>
<g clip-path="url(#clip12)" clip-rule="nonzero">
<path style=" stroke:none;fill-rule:nonzero;fill:rgb(100%,100%,100%);fill-opacity:1;" d="M 27.257812 33.96875 C 27.253906 31.929688 28.0625 29.929688 29.597656 28.167969 L 30.210938 27.457031 C 28.925781 27.253906 27.613281 27.125 26.292969 27.074219 C 24.527344 26.167969 21.894531 25.089844 18.855469 24.75 L 16.992188 24.519531 L 18.066406 27.839844 C 14.710938 28.597656 11.75 30.140625 9.789062 31.203125 C 9.410156 30.992188 9.015625 30.785156 8.597656 30.582031 C 5.402344 29.023438 1.945312 28.875 1.800781 28.871094 L 0.234375 28.8125 L 0.449219 29.851562 C 0.472656 29.957031 1 32.253906 3 33.957031 C 1 35.667969 0.476562 37.957031 0.449219 38.066406 L 0.234375 39.121094 L 1.800781 39.046875 C 1.945312 39.042969 5.402344 38.894531 8.597656 37.335938 C 9.007812 37.136719 9.398438 36.933594 9.773438 36.726562 C 11.734375 37.789062 14.695312 39.335938 18.058594 40.09375 L 16.992188 43.414062 L 18.855469 43.191406 C 21.878906 42.847656 24.5 41.773438 26.269531 40.863281 C 27.605469 40.8125 28.9375 40.683594 30.238281 40.476562 L 29.601562 39.769531 C 28.066406 38.007812 27.257812 36.003906 27.257812 33.96875 Z M 27.257812 33.96875 "/>
<path style=" stroke:none;fill-rule:nonzero;fill:rgb(100%,100%,100%);fill-opacity:1;" d="M 16.992188 24.519531 L 18.855469 24.75 C 21.894531 25.089844 24.527344 26.167969 26.292969 27.074219 C 27.613281 27.125 28.925781 27.253906 30.210938 27.457031 L 29.597656 28.167969 C 28.0625 29.929688 27.253906 31.929688 27.257812 33.96875 C 27.257812 36.003906 28.066406 38.007812 29.601562 39.769531 L 30.238281 40.476562 C 28.9375 40.683594 27.605469 40.8125 26.269531 40.863281 C 24.5 41.773438 21.878906 42.847656 18.855469 43.191406 L 16.992188 43.414062 L 18.058594 40.09375 C 14.695312 39.335938 11.734375 37.789062 9.773438 36.726562 C 9.398438 36.933594 9.007812 37.136719 8.597656 37.335938 C 5.402344 38.894531 1.945312 39.042969 1.800781 39.046875 L 0.234375 39.121094 L 0.449219 38.066406 C 0.476562 37.957031 1 35.667969 3 33.957031 C 1 32.253906 0.472656 29.957031 0.449219 29.851562 L 0.234375 28.8125 L 1.800781 28.871094 C 1.945312 28.875 5.402344 29.023438 8.597656 30.582031 C 9.015625 30.785156 9.410156 30.992188 9.789062 31.203125 C 11.75 30.140625 14.710938 28.597656 18.066406 27.839844 Z M 17.636719 25.050781 L 18.496094 27.703125 L 18.648438 28.171875 L 18.167969 28.277344 C 15.453125 28.894531 13.121094 29.910156 10.003906 31.597656 L 9.789062 31.714844 L 9.570312 31.59375 C 9.199219 31.386719 8.808594 31.183594 8.402344 30.988281 C 7.039062 30.324219 5.527344 29.867188 3.976562 29.585938 C 3.421875 29.488281 2.902344 29.414062 2.429688 29.367188 C 2.136719 29.339844 1.910156 29.324219 1.785156 29.320312 L 0.792969 29.285156 L 0.890625 29.753906 C 0.90625 29.835938 0.945312 29.976562 1.003906 30.160156 C 1.101562 30.457031 1.230469 30.777344 1.390625 31.109375 C 1.839844 32.046875 2.464844 32.910156 3.292969 33.617188 L 3.695312 33.957031 L 3.292969 34.300781 C 2.914062 34.621094 2.578125 34.980469 2.277344 35.367188 C 1.8125 35.96875 1.453125 36.613281 1.191406 37.257812 C 1.097656 37.488281 1.023438 37.703125 0.960938 37.898438 C 0.941406 37.96875 0.925781 38.03125 0.910156 38.085938 C 0.894531 38.144531 0.902344 38.117188 0.890625 38.164062 L 0.792969 38.644531 L 1.785156 38.597656 C 1.910156 38.59375 2.136719 38.578125 2.429688 38.550781 C 2.902344 38.503906 3.421875 38.433594 3.976562 38.332031 C 5.527344 38.050781 7.039062 37.59375 8.402344 36.929688 C 8.800781 36.738281 9.1875 36.539062 9.554688 36.332031 L 9.769531 36.210938 L 9.988281 36.328125 C 13.105469 38.019531 15.441406 39.042969 18.15625 39.65625 L 18.636719 39.761719 L 18.488281 40.230469 L 17.632812 42.886719 L 18.804688 42.742188 C 21.355469 42.457031 23.808594 41.625 26.0625 40.464844 L 26.152344 40.417969 L 26.25 40.414062 C 27.28125 40.371094 28.316406 40.296875 29.339844 40.148438 L 29.265625 40.0625 C 27.65625 38.222656 26.804688 36.117188 26.804688 33.96875 C 26.804688 31.816406 27.65625 29.714844 29.257812 27.875 L 29.335938 27.785156 C 28.324219 27.625 27.296875 27.578125 26.277344 27.523438 L 26.175781 27.519531 L 26.089844 27.476562 C 23.835938 26.316406 21.367188 25.484375 18.800781 25.195312 Z M 17.636719 25.050781 "/>
</g>
<g clip-path="url(#clip13)" clip-rule="nonzero">
<path style=" stroke:none;fill-rule:nonzero;fill:rgb(100%,100%,100%);fill-opacity:1;" d="M 40.476562 32.128906 C 40.007812 31.597656 39.144531 30.792969 37.722656 29.96875 C 36.246094 29.117188 34.554688 28.445312 32.730469 27.980469 L 31.832031 29.027344 C 29.171875 32.078125 29.167969 35.847656 31.824219 38.898438 L 32.769531 39.949219 C 34.574219 39.492188 36.25 38.828125 37.714844 37.992188 C 40.273438 36.515625 41.476562 34.667969 41.476562 33.96875 C 41.476562 33.308594 40.832031 32.53125 40.476562 32.128906 Z M 33.746094 33.96875 C 33.035156 33.96875 32.457031 33.582031 32.457031 33.109375 C 32.457031 32.632812 33.035156 32.25 33.746094 32.25 C 34.457031 32.25 35.035156 32.632812 35.035156 33.109375 C 35.035156 33.582031 34.457031 33.96875 33.746094 33.96875 Z M 33.746094 33.96875 "/>
<path style=" stroke:none;fill-rule:nonzero;fill:rgb(100%,100%,100%);fill-opacity:1;" d="M 32.730469 27.980469 C 34.554688 28.445312 36.246094 29.117188 37.722656 29.96875 C 39.144531 30.792969 40.007812 31.597656 40.476562 32.128906 C 40.832031 32.53125 41.476562 33.308594 41.476562 33.96875 C 41.476562 34.667969 40.273438 36.515625 37.714844 37.992188 C 36.25 38.828125 34.574219 39.492188 32.769531 39.949219 L 31.824219 38.898438 C 29.167969 35.847656 29.171875 32.078125 31.832031 29.027344 Z M 32.886719 28.488281 L 32.167969 29.324219 C 29.660156 32.207031 29.65625 35.71875 32.15625 38.597656 L 32.917969 39.441406 C 34.519531 39.039062 36.042969 38.390625 37.492188 37.601562 C 38.625 36.949219 39.550781 36.179688 40.210938 35.398438 C 40.734375 34.78125 41.027344 34.214844 41.027344 33.96875 C 40.964844 33.359375 40.523438 32.871094 40.140625 32.425781 C 39.394531 31.582031 38.460938 30.9375 37.5 30.355469 C 36.054688 29.527344 34.492188 28.925781 32.886719 28.488281 Z M 33.746094 31.800781 C 34.675781 31.800781 35.484375 32.339844 35.484375 33.109375 C 35.484375 33.878906 34.675781 34.417969 33.746094 34.417969 C 32.8125 34.417969 32.007812 33.878906 32.007812 33.109375 C 32.007812 32.339844 32.8125 31.800781 33.746094 31.800781 Z M 33.746094 32.25 C 33.035156 32.25 32.457031 32.632812 32.457031 33.109375 C 32.457031 33.582031 33.035156 33.96875 33.746094 33.96875 C 34.457031 33.96875 35.035156 33.582031 35.035156 33.109375 C 35.035156 32.632812 34.457031 32.25 33.746094 32.25 Z M 33.746094 32.25 "/>
</g>
</g>
<clipPath id="clip14">
  <path d="M 74 77 L 225.15625 77 L 225.15625 153 L 74 153 Z M 74 77 "/>
</clipPath>
<mask id="mask2">
  <g filter="url(#alpha)">
<rect x="0" y="0" width="225.156" height="380.633" style="fill:rgb(0%,0%,0%);fill-opacity:0.45;stroke:none;"/>
  </g>
</mask>
<clipPath id="clip16">
  <path d="M 0.234375 0.1875 L 31 0.1875 L 31 19.082031 L 0.234375 19.082031 Z M 0.234375 0.1875 "/>
</clipPath>
<clipPath id="clip17">
  <path d="M 29 3 L 41.476562 3 L 41.476562 16 L 29 16 Z M 29 3 "/>
</clipPath>
<clipPath id="clip15">
  <rect x="0" y="0" width="42" height="20"/>
</clipPath>
<g id="surface11" clip-path="url(#clip15)">
<g clip-path="url(#clip16)" clip-rule="nonzero">
<path style=" stroke:none;fill-rule:nonzero;fill:rgb(0%,0%,0%);fill-opacity:1;" d="M 27.257812 9.632812 C 27.253906 7.597656 28.0625 5.597656 29.597656 3.835938 L 30.210938 3.125 C 28.925781 2.921875 27.613281 2.792969 26.292969 2.742188 C 24.527344 1.832031 21.894531 0.757812 18.855469 0.414062 L 16.992188 0.1875 L 18.066406 3.507812 C 14.710938 4.265625 11.75 5.808594 9.789062 6.867188 C 9.410156 6.65625 9.015625 6.449219 8.597656 6.246094 C 5.402344 4.691406 1.945312 4.542969 1.800781 4.535156 L 0.234375 4.480469 L 0.449219 5.515625 C 0.472656 5.625 1 7.917969 3 9.625 C 1 11.332031 0.476562 13.625 0.449219 13.734375 L 0.234375 14.789062 L 1.800781 14.714844 C 1.945312 14.707031 5.402344 14.558594 8.597656 13.003906 C 9.007812 12.804688 9.398438 12.601562 9.773438 12.390625 C 11.734375 13.457031 14.695312 15 18.058594 15.757812 L 16.992188 19.082031 L 18.855469 18.855469 C 21.878906 18.515625 24.5 17.4375 26.269531 16.53125 C 27.605469 16.480469 28.9375 16.347656 30.238281 16.140625 L 29.601562 15.433594 C 28.066406 13.671875 27.257812 11.671875 27.257812 9.632812 Z M 27.257812 9.632812 "/>
</g>
<g clip-path="url(#clip17)" clip-rule="nonzero">
<path style=" stroke:none;fill-rule:nonzero;fill:rgb(0%,0%,0%);fill-opacity:1;" d="M 40.476562 7.796875 C 40.007812 7.265625 39.144531 6.457031 37.722656 5.632812 C 36.246094 4.785156 34.554688 4.113281 32.730469 3.648438 L 31.832031 4.695312 C 29.171875 7.746094 29.167969 11.511719 31.824219 14.566406 L 32.769531 15.617188 C 34.574219 15.15625 36.25 14.496094 37.714844 13.65625 C 40.273438 12.183594 41.476562 10.332031 41.476562 9.632812 C 41.476562 8.972656 40.832031 8.199219 40.476562 7.796875 Z M 33.746094 9.632812 C 33.035156 9.632812 32.457031 9.25 32.457031 8.773438 C 32.457031 8.300781 33.035156 7.917969 33.746094 7.917969 C 34.457031 7.917969 35.035156 8.300781 35.035156 8.773438 C 35.035156 9.25 34.457031 9.632812 33.746094 9.632812 Z M 33.746094 9.632812 "/>
</g>
</g>
<clipPath id="clip18">
  <path d="M 74 151 L 225.15625 151 L 225.15625 228 L 74 228 Z M 74 151 "/>
</clipPath>
<mask id="mask3">
  <g filter="url(#alpha)">
<rect x="0" y="0" width="225.156" height="380.633" style="fill:rgb(0%,0%,0%);fill-opacity:0.45;stroke:none;"/>
  </g>
</mask>
<clipPath id="clip20">
  <path d="M 0.234375 26 L 41.472656 26 L 41.472656 44.257812 L 0.234375 44.257812 Z M 0.234375 26 "/>
</clipPath>
<clipPath id="clip21">
  <path d="M 0.234375 0.453125 L 41.472656 0.453125 L 41.472656 19 L 0.234375 19 Z M 0.234375 0.453125 "/>
</clipPath>
<clipPath id="clip19">
  <rect x="0" y="0" width="42" height="45"/>
</clipPath>
<g id="surface14" clip-path="url(#clip19)">
<g clip-path="url(#clip20)" clip-rule="nonzero">
<path style=" stroke:none;fill-rule:nonzero;fill:rgb(100%,100%,100%);fill-opacity:1;" d="M 41.328125 37.171875 L 36.957031 37.171875 C 36.730469 37.171875 36.582031 36.929688 36.582031 36.605469 C 36.582031 36.359375 36.664062 36.214844 36.808594 36.066406 L 40.773438 33.257812 C 40.855469 33.207031 40.90625 33.078125 40.90625 32.933594 C 40.90625 32.835938 40.871094 32.738281 40.824219 32.65625 C 40.824219 32.65625 36.304688 26.742188 26.640625 26.480469 L 26.640625 34.65625 L 24.394531 34.65625 L 24.394531 27.164062 L 23.0625 27.164062 L 23.0625 34.671875 L 20.820312 34.671875 L 20.820312 28.53125 L 19.488281 28.53125 L 19.488281 34.6875 L 17.246094 34.6875 L 17.246094 29.878906 L 15.914062 29.878906 L 15.914062 34.671875 L 13.671875 34.671875 L 13.671875 31.242188 L 12.339844 31.242188 L 12.339844 34.671875 L 10.308594 34.671875 L 0.234375 27.503906 L 4.429688 35.386719 L 0.234375 43.316406 L 10.375 36.101562 L 12.324219 36.101562 L 12.324219 39.5625 L 13.65625 39.5625 L 13.65625 36.101562 L 15.898438 36.101562 L 15.898438 40.894531 L 17.230469 40.894531 L 17.230469 36.101562 L 19.472656 36.101562 L 19.472656 42.257812 L 20.804688 42.257812 L 20.804688 36.101562 L 23.046875 36.101562 L 23.046875 43.605469 L 24.378906 43.605469 L 24.378906 36.101562 L 26.621094 36.101562 L 26.621094 44.257812 C 31.871094 44.175781 37.25 42.484375 41.441406 37.515625 C 41.472656 37.480469 41.472656 37.417969 41.472656 37.367188 C 41.472656 37.253906 41.394531 37.171875 41.328125 37.171875 Z M 33.835938 34.542969 C 32.78125 34.542969 31.886719 33.628906 31.886719 32.492188 C 31.886719 31.390625 32.796875 30.445312 33.835938 30.445312 C 34.894531 30.445312 35.785156 31.355469 35.785156 32.492188 C 35.804688 33.597656 34.894531 34.542969 33.835938 34.542969 Z M 33.835938 34.542969 "/>
<path style=" stroke:none;fill-rule:nonzero;fill:rgb(100%,100%,100%);fill-opacity:1;" d="M 26.640625 26.480469 C 36.304688 26.742188 40.824219 32.65625 40.824219 32.65625 C 40.871094 32.738281 40.90625 32.835938 40.90625 32.933594 C 40.90625 33.078125 40.855469 33.207031 40.773438 33.257812 L 36.808594 36.066406 C 36.664062 36.214844 36.582031 36.359375 36.582031 36.605469 C 36.582031 36.929688 36.730469 37.171875 36.957031 37.171875 L 41.328125 37.171875 C 41.394531 37.171875 41.472656 37.253906 41.472656 37.367188 C 41.472656 37.417969 41.472656 37.480469 41.441406 37.515625 C 37.25 42.484375 31.871094 44.175781 26.621094 44.257812 L 26.621094 36.101562 L 24.378906 36.101562 L 24.378906 43.605469 L 23.046875 43.605469 L 23.046875 36.101562 L 20.804688 36.101562 L 20.804688 42.257812 L 19.472656 42.257812 L 19.472656 36.101562 L 17.230469 36.101562 L 17.230469 40.894531 L 15.898438 40.894531 L 15.898438 36.101562 L 13.65625 36.101562 L 13.65625 39.5625 L 12.324219 39.5625 L 12.324219 36.101562 L 10.375 36.101562 L 0.234375 43.316406 L 4.429688 35.386719 L 0.234375 27.503906 L 10.308594 34.671875 L 12.339844 34.671875 L 12.339844 31.242188 L 13.671875 31.242188 L 13.671875 34.671875 L 15.914062 34.671875 L 15.914062 29.878906 L 17.246094 29.878906 L 17.246094 34.6875 L 19.488281 34.6875 L 19.488281 28.53125 L 20.820312 28.53125 L 20.820312 34.671875 L 23.0625 34.671875 L 23.0625 27.164062 L 24.394531 27.164062 L 24.394531 34.65625 L 26.640625 34.65625 Z M 27.125 26.988281 L 27.125 35.140625 L 23.910156 35.140625 L 23.910156 27.652344 L 23.550781 27.652344 L 23.550781 35.15625 L 20.335938 35.15625 L 20.335938 29.015625 L 19.976562 29.015625 L 19.976562 35.175781 L 16.761719 35.175781 L 16.761719 30.363281 L 16.402344 30.363281 L 16.402344 35.15625 L 13.183594 35.15625 L 13.183594 31.730469 L 12.828125 31.730469 L 12.828125 35.15625 L 10.152344 35.15625 L 10.027344 35.066406 L 1.636719 29.097656 L 4.859375 35.15625 L 4.980469 35.382812 L 4.859375 35.613281 L 1.628906 41.726562 L 10.09375 35.703125 L 10.21875 35.613281 L 12.8125 35.613281 L 12.8125 39.074219 L 13.167969 39.074219 L 13.167969 35.613281 L 16.386719 35.613281 L 16.386719 40.40625 L 16.742188 40.40625 L 16.742188 35.613281 L 19.960938 35.613281 L 19.960938 41.773438 L 20.316406 41.773438 L 20.316406 35.613281 L 23.535156 35.613281 L 23.535156 43.121094 L 23.894531 43.121094 L 23.894531 35.613281 L 27.109375 35.613281 L 27.109375 43.75 C 32.558594 43.617188 36.988281 41.578125 40.664062 37.660156 L 36.957031 37.660156 C 36.40625 37.660156 36.09375 37.171875 36.09375 36.605469 C 36.09375 36.242188 36.21875 35.972656 36.464844 35.722656 L 36.496094 35.695312 L 36.527344 35.671875 L 40.410156 32.917969 L 40.390625 32.894531 C 40.347656 32.84375 40.296875 32.78125 40.234375 32.710938 C 40.058594 32.511719 39.84375 32.285156 39.589844 32.039062 C 38.863281 31.339844 37.976562 30.632812 36.9375 29.976562 C 34 28.128906 30.585938 27.136719 27.125 26.988281 Z M 33.835938 29.957031 C 35.175781 29.957031 36.273438 31.101562 36.273438 32.484375 C 36.292969 33.855469 35.171875 35.027344 33.835938 35.027344 C 32.496094 35.027344 31.398438 33.886719 31.398438 32.492188 C 31.398438 31.128906 32.519531 29.957031 33.835938 29.957031 Z M 33.835938 30.445312 C 32.796875 30.445312 31.886719 31.390625 31.886719 32.492188 C 31.886719 33.628906 32.78125 34.542969 33.835938 34.542969 C 34.894531 34.542969 35.804688 33.597656 35.785156 32.492188 C 35.785156 31.355469 34.894531 30.445312 33.835938 30.445312 Z M 33.835938 30.445312 "/>
</g>
<g clip-path="url(#clip21)" clip-rule="nonzero">
<path style=" stroke:none;fill-rule:nonzero;fill:rgb(100%,100%,100%);fill-opacity:1;" d="M 41.328125 11.144531 L 36.957031 11.144531 C 36.730469 11.144531 36.582031 10.898438 36.582031 10.574219 C 36.582031 10.332031 36.664062 10.183594 36.808594 10.039062 L 40.773438 7.226562 C 40.855469 7.179688 40.90625 7.050781 40.90625 6.902344 C 40.90625 6.804688 40.871094 6.707031 40.824219 6.625 C 40.824219 6.625 36.304688 0.710938 26.640625 0.453125 L 26.640625 8.625 L 24.394531 8.625 L 24.394531 1.132812 L 23.0625 1.132812 L 23.0625 8.640625 L 20.820312 8.640625 L 20.820312 2.5 L 19.488281 2.5 L 19.488281 8.65625 L 17.246094 8.65625 L 17.246094 3.847656 L 15.914062 3.847656 L 15.914062 8.640625 L 13.671875 8.640625 L 13.671875 5.214844 L 12.339844 5.214844 L 12.339844 8.640625 L 10.308594 8.640625 L 0.234375 1.476562 L 4.429688 9.355469 L 0.234375 17.285156 L 10.375 10.070312 L 12.324219 10.070312 L 12.324219 13.53125 L 13.65625 13.53125 L 13.65625 10.070312 L 15.898438 10.070312 L 15.898438 14.863281 L 17.230469 14.863281 L 17.230469 10.070312 L 19.472656 10.070312 L 19.472656 16.230469 L 20.804688 16.230469 L 20.804688 10.070312 L 23.046875 10.070312 L 23.046875 17.578125 L 24.378906 17.578125 L 24.378906 10.070312 L 26.621094 10.070312 L 26.621094 18.226562 C 31.871094 18.148438 37.25 16.457031 41.441406 11.484375 C 41.472656 11.453125 41.472656 11.386719 41.472656 11.339844 C 41.472656 11.226562 41.394531 11.144531 41.328125 11.144531 Z M 33.835938 8.511719 C 32.78125 8.511719 31.886719 7.601562 31.886719 6.464844 C 31.886719 5.359375 32.796875 4.417969 33.835938 4.417969 C 34.894531 4.417969 35.785156 5.328125 35.785156 6.464844 C 35.804688 7.570312 34.894531 8.511719 33.835938 8.511719 Z M 33.835938 8.511719 "/>
<path style=" stroke:none;fill-rule:nonzero;fill:rgb(100%,100%,100%);fill-opacity:1;" d="M 26.640625 0.453125 C 36.304688 0.710938 40.824219 6.625 40.824219 6.625 C 40.871094 6.707031 40.90625 6.804688 40.90625 6.902344 C 40.90625 7.050781 40.855469 7.179688 40.773438 7.226562 L 36.808594 10.039062 C 36.664062 10.183594 36.582031 10.332031 36.582031 10.574219 C 36.582031 10.898438 36.730469 11.144531 36.957031 11.144531 L 41.328125 11.144531 C 41.394531 11.144531 41.472656 11.226562 41.472656 11.339844 C 41.472656 11.386719 41.472656 11.453125 41.441406 11.484375 C 37.25 16.457031 31.871094 18.148438 26.621094 18.226562 L 26.621094 10.070312 L 24.378906 10.070312 L 24.378906 17.578125 L 23.046875 17.578125 L 23.046875 10.070312 L 20.804688 10.070312 L 20.804688 16.230469 L 19.472656 16.230469 L 19.472656 10.070312 L 17.230469 10.070312 L 17.230469 14.863281 L 15.898438 14.863281 L 15.898438 10.070312 L 13.65625 10.070312 L 13.65625 13.53125 L 12.324219 13.53125 L 12.324219 10.070312 L 10.375 10.070312 L 0.234375 17.285156 L 4.429688 9.355469 L 0.234375 1.476562 L 10.308594 8.640625 L 12.339844 8.640625 L 12.339844 5.214844 L 13.671875 5.214844 L 13.671875 8.640625 L 15.914062 8.640625 L 15.914062 3.847656 L 17.246094 3.847656 L 17.246094 8.65625 L 19.488281 8.65625 L 19.488281 2.5 L 20.820312 2.5 L 20.820312 8.640625 L 23.0625 8.640625 L 23.0625 1.132812 L 24.394531 1.132812 L 24.394531 8.625 L 26.640625 8.625 Z M 27.125 0.960938 L 27.125 9.113281 L 23.910156 9.113281 L 23.910156 1.621094 L 23.550781 1.621094 L 23.550781 9.128906 L 20.335938 9.128906 L 20.335938 2.988281 L 19.976562 2.988281 L 19.976562 9.144531 L 16.761719 9.144531 L 16.761719 4.335938 L 16.402344 4.335938 L 16.402344 9.128906 L 13.183594 9.128906 L 13.183594 5.699219 L 12.828125 5.699219 L 12.828125 9.128906 L 10.152344 9.128906 L 10.027344 9.039062 L 1.636719 3.070312 L 4.859375 9.128906 L 4.980469 9.355469 L 4.859375 9.585938 L 1.628906 15.699219 L 10.09375 9.675781 L 10.21875 9.582031 L 12.8125 9.582031 L 12.8125 13.042969 L 13.167969 13.042969 L 13.167969 9.582031 L 16.386719 9.582031 L 16.386719 14.375 L 16.742188 14.375 L 16.742188 9.582031 L 19.960938 9.582031 L 19.960938 15.742188 L 20.316406 15.742188 L 20.316406 9.582031 L 23.535156 9.582031 L 23.535156 17.089844 L 23.894531 17.089844 L 23.894531 9.582031 L 27.109375 9.582031 L 27.109375 17.722656 C 32.558594 17.589844 36.988281 15.546875 40.664062 11.632812 L 36.957031 11.632812 C 36.40625 11.632812 36.09375 11.144531 36.09375 10.574219 C 36.09375 10.210938 36.21875 9.941406 36.464844 9.695312 L 36.496094 9.664062 L 36.527344 9.640625 L 40.410156 6.890625 L 40.390625 6.867188 C 40.347656 6.8125 40.296875 6.753906 40.234375 6.683594 C 40.058594 6.480469 39.84375 6.253906 39.589844 6.011719 C 38.863281 5.308594 37.976562 4.605469 36.9375 3.949219 C 34 2.097656 30.585938 1.109375 27.125 0.960938 Z M 33.835938 3.929688 C 35.175781 3.929688 36.273438 5.070312 36.273438 6.457031 C 36.292969 7.828125 35.171875 9 33.835938 9 C 32.496094 9 31.398438 7.855469 31.398438 6.464844 C 31.398438 5.097656 32.519531 3.929688 33.835938 3.929688 Z M 33.835938 4.417969 C 32.796875 4.417969 31.886719 5.359375 31.886719 6.464844 C 31.886719 7.601562 32.78125 8.511719 33.835938 8.511719 C 34.894531 8.511719 35.804688 7.570312 35.785156 6.464844 C 35.785156 5.328125 34.894531 4.417969 33.835938 4.417969 Z M 33.835938 4.417969 "/>
</g>
</g>
<clipPath id="clip22">
  <path d="M 74 226 L 225.15625 226 L 225.15625 303 L 74 303 Z M 74 226 "/>
</clipPath>
<mask id="mask4">
  <g filter="url(#alpha)">
<rect x="0" y="0" width="225.156" height="380.633" style="fill:rgb(0%,0%,0%);fill-opacity:0.45;stroke:none;"/>
  </g>
</mask>
<clipPath id="clip24">
  <path d="M 0.234375 26 L 41.472656 26 L 41.472656 44 L 0.234375 44 Z M 0.234375 26 "/>
</clipPath>
<clipPath id="clip25">
  <path d="M 0.234375 0.15625 L 41.472656 0.15625 L 41.472656 18 L 0.234375 18 Z M 0.234375 0.15625 "/>
</clipPath>
<clipPath id="clip26">
  <path d="M 0.234375 52 L 41.472656 52 L 41.472656 69.992188 L 0.234375 69.992188 Z M 0.234375 52 "/>
</clipPath>
<clipPath id="clip23">
  <rect x="0" y="0" width="42" height="70"/>
</clipPath>
<g id="surface17" clip-path="url(#clip23)">
<g clip-path="url(#clip24)" clip-rule="nonzero">
<path style=" stroke:none;fill-rule:nonzero;fill:rgb(100%,100%,100%);fill-opacity:1;" d="M 41.328125 36.878906 L 36.957031 36.878906 C 36.730469 36.878906 36.582031 36.636719 36.582031 36.308594 C 36.582031 36.066406 36.664062 35.917969 36.808594 35.773438 L 40.773438 32.964844 C 40.855469 32.914062 40.90625 32.785156 40.90625 32.636719 C 40.90625 32.539062 40.871094 32.441406 40.824219 32.359375 C 40.824219 32.359375 36.304688 26.449219 26.640625 26.1875 L 26.640625 34.359375 L 24.394531 34.359375 L 24.394531 26.871094 L 23.0625 26.871094 L 23.0625 34.375 L 20.820312 34.375 L 20.820312 28.234375 L 19.488281 28.234375 L 19.488281 34.390625 L 17.246094 34.390625 L 17.246094 29.582031 L 15.914062 29.582031 L 15.914062 34.375 L 13.671875 34.375 L 13.671875 30.949219 L 12.339844 30.949219 L 12.339844 34.375 L 10.308594 34.375 L 0.234375 27.210938 L 4.429688 35.089844 L 0.234375 43.019531 L 10.375 35.804688 L 12.324219 35.804688 L 12.324219 39.265625 L 13.65625 39.265625 L 13.65625 35.804688 L 15.898438 35.804688 L 15.898438 40.597656 L 17.230469 40.597656 L 17.230469 35.804688 L 19.472656 35.804688 L 19.472656 41.964844 L 20.804688 41.964844 L 20.804688 35.804688 L 23.046875 35.804688 L 23.046875 43.3125 L 24.378906 43.3125 L 24.378906 35.804688 L 26.621094 35.804688 L 26.621094 43.960938 C 31.871094 43.882812 37.25 42.191406 41.441406 37.21875 C 41.472656 37.1875 41.472656 37.121094 41.472656 37.074219 C 41.472656 36.960938 41.394531 36.878906 41.328125 36.878906 Z M 33.835938 34.246094 C 32.78125 34.246094 31.886719 33.335938 31.886719 32.199219 C 31.886719 31.09375 32.796875 30.152344 33.835938 30.152344 C 34.894531 30.152344 35.785156 31.0625 35.785156 32.199219 C 35.804688 33.304688 34.894531 34.246094 33.835938 34.246094 Z M 33.835938 34.246094 "/>
<path style=" stroke:none;fill-rule:nonzero;fill:rgb(100%,100%,100%);fill-opacity:1;" d="M 26.640625 26.1875 C 36.304688 26.449219 40.824219 32.359375 40.824219 32.359375 C 40.871094 32.441406 40.90625 32.539062 40.90625 32.636719 C 40.90625 32.785156 40.855469 32.914062 40.773438 32.964844 L 36.808594 35.773438 C 36.664062 35.917969 36.582031 36.066406 36.582031 36.308594 C 36.582031 36.636719 36.730469 36.878906 36.957031 36.878906 L 41.328125 36.878906 C 41.394531 36.878906 41.472656 36.960938 41.472656 37.074219 C 41.472656 37.121094 41.472656 37.1875 41.441406 37.21875 C 37.25 42.191406 31.871094 43.882812 26.621094 43.960938 L 26.621094 35.804688 L 24.378906 35.804688 L 24.378906 43.3125 L 23.046875 43.3125 L 23.046875 35.804688 L 20.804688 35.804688 L 20.804688 41.964844 L 19.472656 41.964844 L 19.472656 35.804688 L 17.230469 35.804688 L 17.230469 40.597656 L 15.898438 40.597656 L 15.898438 35.804688 L 13.65625 35.804688 L 13.65625 39.265625 L 12.324219 39.265625 L 12.324219 35.804688 L 10.375 35.804688 L 0.234375 43.019531 L 4.429688 35.089844 L 0.234375 27.210938 L 10.308594 34.375 L 12.339844 34.375 L 12.339844 30.949219 L 13.671875 30.949219 L 13.671875 34.375 L 15.914062 34.375 L 15.914062 29.582031 L 17.246094 29.582031 L 17.246094 34.390625 L 19.488281 34.390625 L 19.488281 28.234375 L 20.820312 28.234375 L 20.820312 34.375 L 23.0625 34.375 L 23.0625 26.871094 L 24.394531 26.871094 L 24.394531 34.359375 L 26.640625 34.359375 Z M 27.125 26.695312 L 27.125 34.847656 L 23.910156 34.847656 L 23.910156 27.359375 L 23.550781 27.359375 L 23.550781 34.863281 L 20.335938 34.863281 L 20.335938 28.722656 L 19.976562 28.722656 L 19.976562 34.878906 L 16.761719 34.878906 L 16.761719 30.070312 L 16.402344 30.070312 L 16.402344 34.863281 L 13.183594 34.863281 L 13.183594 31.433594 L 12.828125 31.433594 L 12.828125 34.863281 L 10.152344 34.863281 L 10.027344 34.773438 L 1.636719 28.804688 L 4.859375 34.863281 L 4.980469 35.089844 L 4.859375 35.320312 L 1.628906 41.433594 L 10.09375 35.410156 L 10.21875 35.320312 L 12.8125 35.320312 L 12.8125 38.777344 L 13.167969 38.777344 L 13.167969 35.320312 L 16.386719 35.320312 L 16.386719 40.113281 L 16.742188 40.113281 L 16.742188 35.320312 L 19.960938 35.320312 L 19.960938 41.476562 L 20.316406 41.476562 L 20.316406 35.320312 L 23.535156 35.320312 L 23.535156 42.824219 L 23.894531 42.824219 L 23.894531 35.320312 L 27.109375 35.320312 L 27.109375 43.457031 C 32.558594 43.324219 36.988281 41.285156 40.664062 37.367188 L 36.957031 37.367188 C 36.40625 37.367188 36.09375 36.878906 36.09375 36.308594 C 36.09375 35.949219 36.21875 35.675781 36.464844 35.429688 L 36.496094 35.398438 L 36.527344 35.375 L 40.410156 32.625 L 40.390625 32.601562 C 40.347656 32.550781 40.296875 32.488281 40.234375 32.417969 C 40.058594 32.214844 39.84375 31.992188 39.589844 31.746094 C 38.863281 31.042969 37.976562 30.339844 36.9375 29.683594 C 34 27.832031 30.585938 26.84375 27.125 26.695312 Z M 33.835938 29.664062 C 35.175781 29.664062 36.273438 30.808594 36.273438 32.191406 C 36.292969 33.5625 35.171875 34.734375 33.835938 34.734375 C 32.496094 34.734375 31.398438 33.589844 31.398438 32.199219 C 31.398438 30.835938 32.519531 29.664062 33.835938 29.664062 Z M 33.835938 30.152344 C 32.796875 30.152344 31.886719 31.09375 31.886719 32.199219 C 31.886719 33.335938 32.78125 34.246094 33.835938 34.246094 C 34.894531 34.246094 35.804688 33.304688 35.785156 32.199219 C 35.785156 31.0625 34.894531 30.152344 33.835938 30.152344 Z M 33.835938 30.152344 "/>
</g>
<g clip-path="url(#clip25)" clip-rule="nonzero">
<path style=" stroke:none;fill-rule:nonzero;fill:rgb(100%,100%,100%);fill-opacity:1;" d="M 41.328125 10.851562 L 36.957031 10.851562 C 36.730469 10.851562 36.582031 10.605469 36.582031 10.28125 C 36.582031 10.039062 36.664062 9.890625 36.808594 9.746094 L 40.773438 6.933594 C 40.855469 6.886719 40.90625 6.753906 40.90625 6.609375 C 40.90625 6.511719 40.871094 6.414062 40.824219 6.332031 C 40.824219 6.332031 36.304688 0.417969 26.640625 0.15625 L 26.640625 8.332031 L 24.394531 8.332031 L 24.394531 0.839844 L 23.0625 0.839844 L 23.0625 8.347656 L 20.820312 8.347656 L 20.820312 2.207031 L 19.488281 2.207031 L 19.488281 8.363281 L 17.246094 8.363281 L 17.246094 3.554688 L 15.914062 3.554688 L 15.914062 8.347656 L 13.671875 8.347656 L 13.671875 4.917969 L 12.339844 4.917969 L 12.339844 8.347656 L 10.308594 8.347656 L 0.234375 1.183594 L 4.429688 9.0625 L 0.234375 16.992188 L 10.375 9.777344 L 12.324219 9.777344 L 12.324219 13.238281 L 13.65625 13.238281 L 13.65625 9.777344 L 15.898438 9.777344 L 15.898438 14.570312 L 17.230469 14.570312 L 17.230469 9.777344 L 19.472656 9.777344 L 19.472656 15.933594 L 20.804688 15.933594 L 20.804688 9.777344 L 23.046875 9.777344 L 23.046875 17.285156 L 24.378906 17.285156 L 24.378906 9.777344 L 26.621094 9.777344 L 26.621094 17.933594 C 31.871094 17.851562 37.25 16.164062 41.441406 11.191406 C 41.472656 11.15625 41.472656 11.09375 41.472656 11.042969 C 41.472656 10.929688 41.394531 10.851562 41.328125 10.851562 Z M 33.835938 8.21875 C 32.78125 8.21875 31.886719 7.308594 31.886719 6.167969 C 31.886719 5.066406 32.796875 4.121094 33.835938 4.121094 C 34.894531 4.121094 35.785156 5.03125 35.785156 6.167969 C 35.804688 7.273438 34.894531 8.21875 33.835938 8.21875 Z M 33.835938 8.21875 "/>
<path style=" stroke:none;fill-rule:nonzero;fill:rgb(100%,100%,100%);fill-opacity:1;" d="M 26.640625 0.15625 C 36.304688 0.417969 40.824219 6.332031 40.824219 6.332031 C 40.871094 6.414062 40.90625 6.511719 40.90625 6.609375 C 40.90625 6.753906 40.855469 6.886719 40.773438 6.933594 L 36.808594 9.746094 C 36.664062 9.890625 36.582031 10.039062 36.582031 10.28125 C 36.582031 10.605469 36.730469 10.851562 36.957031 10.851562 L 41.328125 10.851562 C 41.394531 10.851562 41.472656 10.929688 41.472656 11.042969 C 41.472656 11.09375 41.472656 11.15625 41.441406 11.191406 C 37.25 16.164062 31.871094 17.851562 26.621094 17.933594 L 26.621094 9.777344 L 24.378906 9.777344 L 24.378906 17.285156 L 23.046875 17.285156 L 23.046875 9.777344 L 20.804688 9.777344 L 20.804688 15.933594 L 19.472656 15.933594 L 19.472656 9.777344 L 17.230469 9.777344 L 17.230469 14.570312 L 15.898438 14.570312 L 15.898438 9.777344 L 13.65625 9.777344 L 13.65625 13.238281 L 12.324219 13.238281 L 12.324219 9.777344 L 10.375 9.777344 L 0.234375 16.992188 L 4.429688 9.0625 L 0.234375 1.183594 L 10.308594 8.347656 L 12.339844 8.347656 L 12.339844 4.917969 L 13.671875 4.917969 L 13.671875 8.347656 L 15.914062 8.347656 L 15.914062 3.554688 L 17.246094 3.554688 L 17.246094 8.363281 L 19.488281 8.363281 L 19.488281 2.207031 L 20.820312 2.207031 L 20.820312 8.347656 L 23.0625 8.347656 L 23.0625 0.839844 L 24.394531 0.839844 L 24.394531 8.332031 L 26.640625 8.332031 Z M 27.125 0.667969 L 27.125 8.820312 L 23.910156 8.820312 L 23.910156 1.328125 L 23.550781 1.328125 L 23.550781 8.835938 L 20.335938 8.835938 L 20.335938 2.691406 L 19.976562 2.691406 L 19.976562 8.851562 L 16.761719 8.851562 L 16.761719 4.042969 L 16.402344 4.042969 L 16.402344 8.835938 L 13.183594 8.835938 L 13.183594 5.40625 L 12.828125 5.40625 L 12.828125 8.835938 L 10.152344 8.835938 L 10.027344 8.746094 L 1.636719 2.777344 L 4.859375 8.832031 L 4.980469 9.0625 L 4.859375 9.289062 L 1.628906 15.402344 L 10.09375 9.378906 L 10.21875 9.289062 L 12.8125 9.289062 L 12.8125 12.75 L 13.167969 12.75 L 13.167969 9.289062 L 16.386719 9.289062 L 16.386719 14.082031 L 16.742188 14.082031 L 16.742188 9.289062 L 19.960938 9.289062 L 19.960938 15.445312 L 20.316406 15.445312 L 20.316406 9.289062 L 23.535156 9.289062 L 23.535156 16.796875 L 23.894531 16.796875 L 23.894531 9.289062 L 27.109375 9.289062 L 27.109375 17.425781 C 32.558594 17.292969 36.988281 15.253906 40.664062 11.335938 L 36.957031 11.335938 C 36.40625 11.335938 36.09375 10.847656 36.09375 10.28125 C 36.09375 9.917969 36.21875 9.648438 36.464844 9.398438 L 36.496094 9.371094 L 36.527344 9.347656 L 40.410156 6.59375 L 40.390625 6.570312 C 40.347656 6.519531 40.296875 6.457031 40.234375 6.390625 C 40.058594 6.1875 39.84375 5.960938 39.589844 5.71875 C 38.863281 5.015625 37.976562 4.3125 36.9375 3.652344 C 34 1.804688 30.585938 0.8125 27.125 0.667969 Z M 33.835938 3.636719 C 35.175781 3.636719 36.273438 4.777344 36.273438 6.164062 C 36.292969 7.53125 35.171875 8.703125 33.835938 8.703125 C 32.496094 8.703125 31.398438 7.5625 31.398438 6.167969 C 31.398438 4.804688 32.519531 3.636719 33.835938 3.636719 Z M 33.835938 4.121094 C 32.796875 4.121094 31.886719 5.066406 31.886719 6.167969 C 31.886719 7.308594 32.78125 8.21875 33.835938 8.21875 C 34.894531 8.21875 35.804688 7.273438 35.785156 6.167969 C 35.785156 5.03125 34.894531 4.121094 33.835938 4.121094 Z M 33.835938 4.121094 "/>
</g>
<g clip-path="url(#clip26)" clip-rule="nonzero">
<path style=" stroke:none;fill-rule:nonzero;fill:rgb(100%,100%,100%);fill-opacity:1;" d="M 41.328125 62.90625 L 36.957031 62.90625 C 36.730469 62.90625 36.582031 62.664062 36.582031 62.339844 C 36.582031 62.09375 36.664062 61.949219 36.808594 61.804688 L 40.773438 58.992188 C 40.855469 58.945312 40.90625 58.8125 40.90625 58.667969 C 40.90625 58.570312 40.871094 58.472656 40.824219 58.390625 C 40.824219 58.390625 36.304688 52.476562 26.640625 52.21875 L 26.640625 60.390625 L 24.394531 60.390625 L 24.394531 52.898438 L 23.0625 52.898438 L 23.0625 60.40625 L 20.820312 60.40625 L 20.820312 54.265625 L 19.488281 54.265625 L 19.488281 60.421875 L 17.246094 60.421875 L 17.246094 55.613281 L 15.914062 55.613281 L 15.914062 60.40625 L 13.671875 60.40625 L 13.671875 56.976562 L 12.339844 56.976562 L 12.339844 60.40625 L 10.308594 60.40625 L 0.234375 53.238281 L 4.429688 61.121094 L 0.234375 69.050781 L 10.375 61.835938 L 12.324219 61.835938 L 12.324219 65.296875 L 13.65625 65.296875 L 13.65625 61.835938 L 15.898438 61.835938 L 15.898438 66.628906 L 17.230469 66.628906 L 17.230469 61.835938 L 19.472656 61.835938 L 19.472656 67.992188 L 20.804688 67.992188 L 20.804688 61.835938 L 23.046875 61.835938 L 23.046875 69.34375 L 24.378906 69.34375 L 24.378906 61.835938 L 26.621094 61.835938 L 26.621094 69.992188 C 31.871094 69.910156 37.25 68.222656 41.441406 63.25 C 41.472656 63.214844 41.472656 63.152344 41.472656 63.101562 C 41.472656 62.988281 41.394531 62.90625 41.328125 62.90625 Z M 33.835938 60.277344 C 32.78125 60.277344 31.886719 59.367188 31.886719 58.230469 C 31.886719 57.125 32.796875 56.179688 33.835938 56.179688 C 34.894531 56.179688 35.785156 57.089844 35.785156 58.230469 C 35.804688 59.332031 34.894531 60.277344 33.835938 60.277344 Z M 33.835938 60.277344 "/>
<path style=" stroke:none;fill-rule:nonzero;fill:rgb(100%,100%,100%);fill-opacity:1;" d="M 26.640625 52.21875 C 36.304688 52.476562 40.824219 58.390625 40.824219 58.390625 C 40.871094 58.472656 40.90625 58.570312 40.90625 58.667969 C 40.90625 58.8125 40.855469 58.945312 40.773438 58.992188 L 36.808594 61.804688 C 36.664062 61.949219 36.582031 62.09375 36.582031 62.339844 C 36.582031 62.664062 36.730469 62.90625 36.957031 62.90625 L 41.328125 62.90625 C 41.394531 62.90625 41.472656 62.988281 41.472656 63.101562 C 41.472656 63.152344 41.472656 63.214844 41.441406 63.25 C 37.25 68.222656 31.871094 69.910156 26.621094 69.992188 L 26.621094 61.835938 L 24.378906 61.835938 L 24.378906 69.34375 L 23.046875 69.34375 L 23.046875 61.835938 L 20.804688 61.835938 L 20.804688 67.992188 L 19.472656 67.992188 L 19.472656 61.835938 L 17.230469 61.835938 L 17.230469 66.628906 L 15.898438 66.628906 L 15.898438 61.835938 L 13.65625 61.835938 L 13.65625 65.296875 L 12.324219 65.296875 L 12.324219 61.835938 L 10.375 61.835938 L 0.234375 69.050781 L 4.429688 61.121094 L 0.234375 53.238281 L 10.308594 60.40625 L 12.339844 60.40625 L 12.339844 56.976562 L 13.671875 56.976562 L 13.671875 60.40625 L 15.914062 60.40625 L 15.914062 55.613281 L 17.246094 55.613281 L 17.246094 60.421875 L 19.488281 60.421875 L 19.488281 54.265625 L 20.820312 54.265625 L 20.820312 60.40625 L 23.0625 60.40625 L 23.0625 52.898438 L 24.394531 52.898438 L 24.394531 60.390625 L 26.640625 60.390625 Z M 27.125 52.726562 L 27.125 60.875 L 23.910156 60.875 L 23.910156 53.386719 L 23.550781 53.386719 L 23.550781 60.894531 L 20.335938 60.894531 L 20.335938 54.75 L 19.976562 54.75 L 19.976562 60.910156 L 16.761719 60.910156 L 16.761719 56.101562 L 16.402344 56.101562 L 16.402344 60.894531 L 13.183594 60.894531 L 13.183594 57.464844 L 12.828125 57.464844 L 12.828125 60.894531 L 10.152344 60.894531 L 10.027344 60.804688 L 1.636719 54.835938 L 4.859375 60.890625 L 4.980469 61.121094 L 4.859375 61.347656 L 1.628906 67.460938 L 10.09375 61.4375 L 10.21875 61.347656 L 12.8125 61.347656 L 12.8125 64.808594 L 13.167969 64.808594 L 13.167969 61.347656 L 16.386719 61.347656 L 16.386719 66.140625 L 16.742188 66.140625 L 16.742188 61.347656 L 19.960938 61.347656 L 19.960938 67.507812 L 20.316406 67.507812 L 20.316406 61.347656 L 23.535156 61.347656 L 23.535156 68.855469 L 23.894531 68.855469 L 23.894531 61.347656 L 27.109375 61.347656 L 27.109375 69.488281 C 32.558594 69.351562 36.988281 67.3125 40.664062 63.394531 L 36.957031 63.394531 C 36.40625 63.394531 36.09375 62.90625 36.09375 62.339844 C 36.09375 61.976562 36.21875 61.707031 36.464844 61.457031 L 36.496094 61.429688 L 36.527344 61.40625 L 40.410156 58.652344 L 40.390625 58.628906 C 40.347656 58.578125 40.296875 58.515625 40.234375 58.445312 C 40.058594 58.246094 39.84375 58.019531 39.589844 57.777344 C 38.863281 57.074219 37.976562 56.371094 36.9375 55.710938 C 34 53.863281 30.585938 52.871094 27.125 52.726562 Z M 33.835938 55.695312 C 35.175781 55.695312 36.273438 56.835938 36.273438 58.222656 C 36.292969 59.589844 35.171875 60.761719 33.835938 60.761719 C 32.496094 60.761719 31.398438 59.621094 31.398438 58.230469 C 31.398438 56.863281 32.519531 55.695312 33.835938 55.695312 Z M 33.835938 56.179688 C 32.796875 56.179688 31.886719 57.125 31.886719 58.230469 C 31.886719 59.367188 32.78125 60.277344 33.835938 60.277344 C 34.894531 60.277344 35.804688 59.332031 35.785156 58.230469 C 35.785156 57.089844 34.894531 56.179688 33.835938 56.179688 Z M 33.835938 56.179688 "/>
</g>
</g>
<clipPath id="clip27">
  <path d="M 74 301 L 225.15625 301 L 225.15625 377 L 74 377 Z M 74 301 "/>
</clipPath>
</defs>
<g id="surface1">
<path style="fill-rule:nonzero;fill:rgb(14.901733%,47.059631%,69.802856%);fill-opacity:0.45;stroke-width:0.99628;stroke-linecap:butt;stroke-linejoin:miter;stroke:rgb(100%,100%,100%);stroke-opacity:1;stroke-miterlimit:10;" d="M -0.00190625 -0.0009375 L -0.00190625 -74.719687 L 74.72075 -74.719687 L 74.72075 -0.0009375 Z M -0.00190625 -0.0009375 " transform="matrix(1,0,0,-1,0.498,2.835)"/>
<use xlink:href="#surface5" transform="matrix(1,0,0,1,17,6)" mask="url(#mask0)"/>
<path style=" stroke:none;fill-rule:nonzero;fill:rgb(14.901733%,47.059631%,69.802856%);fill-opacity:0.45;" d="M 75.21875 2.835938 L 75.21875 77.554688 L 224.660156 77.554688 L 224.660156 2.835938 Z M 75.21875 2.835938 "/>
<g clip-path="url(#clip8)" clip-rule="nonzero">
<path style="fill:none;stroke-width:0.99628;stroke-linecap:butt;stroke-linejoin:miter;stroke:rgb(100%,100%,100%);stroke-opacity:1;stroke-miterlimit:10;" d="M 74.72075 -0.0009375 L 74.72075 -74.719687 L 224.162156 -74.719687 L 224.162156 -0.0009375 Z M 74.72075 -0.0009375 " transform="matrix(1,0,0,-1,0.498,2.835)"/>
</g>
<g style="fill:rgb(100%,100%,100%);fill-opacity:0.45;">
  <use xlink:href="#glyph0-1" x="128.297" y="45.176"/>
  <use xlink:href="#glyph0-2" x="141.02721" y="45.176"/>
  <use xlink:href="#glyph0-3" x="147.391319" y="45.176"/>
  <use xlink:href="#glyph0-1" x="158.848309" y="45.176"/>
</g>
<path style="fill-rule:nonzero;fill:rgb(19.607544%,62.353516%,19.999695%);fill-opacity:0.45;stroke-width:0.99628;stroke-linecap:butt;stroke-linejoin:miter;stroke:rgb(100%,100%,100%);stroke-opacity:1;stroke-miterlimit:10;" d="M -0.00190625 -74.719687 L -0.00190625 -149.442344 L 74.72075 -149.442344 L 74.72075 -74.719687 Z M -0.00190625 -74.719687 " transform="matrix(1,0,0,-1,0.498,2.835)"/>
<use xlink:href="#surface8" transform="matrix(1,0,0,1,17,93)" mask="url(#mask1)"/>
<path style=" stroke:none;fill-rule:nonzero;fill:rgb(19.607544%,62.353516%,19.999695%);fill-opacity:0.45;" d="M 75.21875 77.554688 L 75.21875 152.277344 L 224.660156 152.277344 L 224.660156 77.554688 Z M 75.21875 77.554688 "/>
<g clip-path="url(#clip14)" clip-rule="nonzero">
<path style="fill:none;stroke-width:0.99628;stroke-linecap:butt;stroke-linejoin:miter;stroke:rgb(100%,100%,100%);stroke-opacity:1;stroke-miterlimit:10;" d="M 74.72075 -74.719687 L 74.72075 -149.442344 L 224.162156 -149.442344 L 224.162156 -74.719687 Z M 74.72075 -74.719687 " transform="matrix(1,0,0,-1,0.498,2.835)"/>
</g>
<g style="fill:rgb(100%,100%,100%);fill-opacity:0.45;">
  <use xlink:href="#glyph0-3" x="125.751" y="119.896"/>
  <use xlink:href="#glyph0-4" x="137.20799" y="119.896"/>
</g>
<g style="fill:rgb(100%,100%,100%);fill-opacity:0.45;">
  <use xlink:href="#glyph0-4" x="149.302586" y="119.896"/>
</g>
<g style="fill:rgb(100%,100%,100%);fill-opacity:0.45;">
  <use xlink:href="#glyph0-5" x="161.397183" y="119.896"/>
</g>
<path style="fill-rule:nonzero;fill:rgb(86.66687%,87.449646%,4.31366%);fill-opacity:0.45;stroke-width:0.99628;stroke-linecap:butt;stroke-linejoin:miter;stroke:rgb(100%,100%,100%);stroke-opacity:1;stroke-miterlimit:10;" d="M -0.00190625 -149.442344 L -0.00190625 -224.161094 L 74.72075 -224.161094 L 74.72075 -149.442344 Z M -0.00190625 -149.442344 " transform="matrix(1,0,0,-1,0.498,2.835)"/>
<use xlink:href="#surface11" transform="matrix(1,0,0,1,17,180)" mask="url(#mask2)"/>
<path style=" stroke:none;fill-rule:nonzero;fill:rgb(86.66687%,87.449646%,4.31366%);fill-opacity:0.45;" d="M 75.21875 152.277344 L 75.21875 226.996094 L 224.660156 226.996094 L 224.660156 152.277344 Z M 75.21875 152.277344 "/>
<g clip-path="url(#clip18)" clip-rule="nonzero">
<path style="fill:none;stroke-width:0.99628;stroke-linecap:butt;stroke-linejoin:miter;stroke:rgb(100%,100%,100%);stroke-opacity:1;stroke-miterlimit:10;" d="M 74.72075 -149.442344 L 74.72075 -224.161094 L 224.162156 -224.161094 L 224.162156 -149.442344 Z M 74.72075 -149.442344 " transform="matrix(1,0,0,-1,0.498,2.835)"/>
</g>
<g style="fill:rgb(0%,0%,0%);fill-opacity:0.45;">
  <use xlink:href="#glyph0-6" x="102.733" y="196.553"/>
  <use xlink:href="#glyph0-4" x="121.827319" y="196.553"/>
</g>
<g style="fill:rgb(0%,0%,0%);fill-opacity:0.45;">
  <use xlink:href="#glyph0-5" x="133.921916" y="196.553"/>
  <use xlink:href="#glyph0-7" x="146.652126" y="196.553"/>
  <use xlink:href="#glyph0-8" x="157.154699" y="196.553"/>
  <use xlink:href="#glyph0-9" x="166.591273" y="196.553"/>
  <use xlink:href="#glyph0-10" x="177.72946" y="196.553"/>
  <use xlink:href="#glyph0-7" x="186.64001" y="196.553"/>
</g>
<path style="fill-rule:nonzero;fill:rgb(99.215698%,49.804688%,15.684509%);fill-opacity:0.45;stroke-width:0.99628;stroke-linecap:butt;stroke-linejoin:miter;stroke:rgb(100%,100%,100%);stroke-opacity:1;stroke-miterlimit:10;" d="M -0.00190625 -224.161094 L -0.00190625 -298.88375 L 74.72075 -298.88375 L 74.72075 -224.161094 Z M -0.00190625 -224.161094 " transform="matrix(1,0,0,-1,0.498,2.835)"/>
<use xlink:href="#surface14" transform="matrix(1,0,0,1,17,242)" mask="url(#mask3)"/>
<path style=" stroke:none;fill-rule:nonzero;fill:rgb(99.215698%,49.804688%,15.684509%);fill-opacity:0.45;" d="M 75.21875 226.996094 L 75.21875 301.71875 L 224.660156 301.71875 L 224.660156 226.996094 Z M 75.21875 226.996094 "/>
<g clip-path="url(#clip22)" clip-rule="nonzero">
<path style="fill:none;stroke-width:0.99628;stroke-linecap:butt;stroke-linejoin:miter;stroke:rgb(100%,100%,100%);stroke-opacity:1;stroke-miterlimit:10;" d="M 74.72075 -224.161094 L 74.72075 -298.88375 L 224.162156 -298.88375 L 224.162156 -224.161094 Z M 74.72075 -224.161094 " transform="matrix(1,0,0,-1,0.498,2.835)"/>
</g>
<g style="fill:rgb(100%,100%,100%);fill-opacity:0.45;">
  <use xlink:href="#glyph0-11" x="126.761" y="266.845"/>
</g>
<g style="fill:rgb(100%,100%,100%);fill-opacity:0.45;">
  <use xlink:href="#glyph0-4" x="140.128817" y="266.845"/>
</g>
<g style="fill:rgb(100%,100%,100%);fill-opacity:0.45;">
  <use xlink:href="#glyph0-4" x="152.223413" y="266.845"/>
  <use xlink:href="#glyph0-8" x="163.680403" y="266.845"/>
</g>
<path style="fill-rule:nonzero;fill:rgb(83.137512%,16.471863%,18.429565%);fill-opacity:0.45;stroke-width:0.99628;stroke-linecap:butt;stroke-linejoin:miter;stroke:rgb(100%,100%,100%);stroke-opacity:1;stroke-miterlimit:10;" d="M -0.00190625 -298.88375 L -0.00190625 -373.6025 L 74.72075 -373.6025 L 74.72075 -298.88375 Z M -0.00190625 -298.88375 " transform="matrix(1,0,0,-1,0.498,2.835)"/>
<use xlink:href="#surface17" transform="matrix(1,0,0,1,17,304)" mask="url(#mask4)"/>
<path style=" stroke:none;fill-rule:nonzero;fill:rgb(83.137512%,16.471863%,18.429565%);fill-opacity:0.45;" d="M 75.21875 301.71875 L 75.21875 376.4375 L 224.660156 376.4375 L 224.660156 301.71875 Z M 75.21875 301.71875 "/>
<g clip-path="url(#clip27)" clip-rule="nonzero">
<path style="fill:none;stroke-width:0.99628;stroke-linecap:butt;stroke-linejoin:miter;stroke:rgb(100%,100%,100%);stroke-opacity:1;stroke-miterlimit:10;" d="M 74.72075 -298.88375 L 74.72075 -373.6025 L 224.162156 -373.6025 L 224.162156 -298.88375 Z M 74.72075 -298.88375 " transform="matrix(1,0,0,-1,0.498,2.835)"/>
</g>
<g style="fill:rgb(100%,100%,100%);fill-opacity:0.45;">
  <use xlink:href="#glyph0-12" x="131.638" y="345.993"/>
  <use xlink:href="#glyph0-9" x="144.36821" y="345.993"/>
  <use xlink:href="#glyph0-5" x="155.506397" y="345.993"/>
</g>
</g>
</svg>
