<?xml version="1.0" encoding="UTF-8"?>
<svg xmlns="http://www.w3.org/2000/svg" xmlns:xlink="http://www.w3.org/1999/xlink" width="226.15pt" height="380.63pt" viewBox="0 0 226.15 380.63" version="1.2">
<defs>
<g>
<symbol overflow="visible" id="glyph0-0">
<path style="stroke:none;" d=""/>
</symbol>
<symbol overflow="visible" id="glyph0-1">
<path style="stroke:none;" d="M 12.203125 0 L 12.203125 -0.9375 L 10.828125 -0.9375 L 10.828125 -6.078125 C 10.828125 -8.15625 9.765625 -8.9375 7.78125 -8.9375 C 5.875 -8.9375 4.859375 -7.78125 4.421875 -7.03125 L 4.40625 -7.03125 L 4.40625 -13.765625 L 0.890625 -13.609375 L 0.890625 -12.6875 C 2.125 -12.6875 2.265625 -12.6875 2.265625 -11.90625 L 2.265625 -0.9375 L 0.890625 -0.9375 L 0.890625 0 L 3.390625 -0.0625 L 5.890625 0 L 5.890625 -0.9375 L 4.53125 -0.9375 L 4.53125 -5.078125 C 4.53125 -7.25 6.234375 -8.21875 7.484375 -8.21875 C 8.15625 -8.21875 8.578125 -7.796875 8.578125 -6.296875 L 8.578125 -0.9375 L 7.203125 -0.9375 L 7.203125 0 L 9.703125 -0.0625 Z M 12.203125 0 "/>
</symbol>
<symbol overflow="visible" id="glyph0-2">
<path style="stroke:none;" d="M 5.671875 0 L 5.671875 -0.9375 L 4.4375 -0.9375 L 4.4375 -8.9375 L 1 -8.765625 L 1 -7.84375 C 2.15625 -7.84375 2.296875 -7.84375 2.296875 -7.0625 L 2.296875 -0.9375 L 0.9375 -0.9375 L 0.9375 0 L 3.359375 -0.0625 Z M 4.71875 -12.046875 C 4.71875 -12.90625 4.03125 -13.59375 3.171875 -13.59375 C 2.328125 -13.59375 1.625 -12.90625 1.625 -12.046875 C 1.625 -11.1875 2.328125 -10.5 3.171875 -10.5 C 4.03125 -10.5 4.71875 -11.1875 4.71875 -12.046875 Z M 4.71875 -12.046875 "/>
</symbol>
<symbol overflow="visible" id="glyph0-3">
<path style="stroke:none;" d="M 11.078125 -7.875 C 11.078125 -8.328125 10.734375 -9.03125 9.828125 -9.03125 C 9.53125 -9.03125 8.59375 -8.96875 7.71875 -8.28125 C 7.359375 -8.515625 6.53125 -8.9375 5.0625 -8.9375 C 2.203125 -8.9375 1.109375 -7.375 1.109375 -6 C 1.109375 -5.171875 1.515625 -4.359375 2.140625 -3.90625 C 1.59375 -3.21875 1.46875 -2.5625 1.46875 -2.140625 C 1.46875 -1.84375 1.546875 -0.875 2.34375 -0.234375 C 2.078125 -0.171875 0.640625 0.234375 0.640625 1.484375 C 0.640625 2.5 1.71875 3.984375 5.6875 3.984375 C 9.203125 3.984375 10.75 2.8125 10.75 1.421875 C 10.75 0.828125 10.59375 -0.421875 9.265625 -1.09375 C 8.15625 -1.640625 6.96875 -1.640625 5.0625 -1.640625 C 4.546875 -1.640625 3.625 -1.640625 3.53125 -1.671875 C 2.65625 -1.8125 2.4375 -2.5625 2.4375 -2.921875 C 2.4375 -3.109375 2.515625 -3.40625 2.640625 -3.578125 C 3.546875 -3.09375 4.5625 -3.0625 5.0625 -3.0625 C 7.921875 -3.0625 9.015625 -4.609375 9.015625 -6 C 9.015625 -6.921875 8.515625 -7.578125 8.21875 -7.890625 C 8.8125 -8.21875 9.234375 -8.25 9.453125 -8.28125 C 9.40625 -8.171875 9.359375 -8 9.359375 -7.875 C 9.359375 -7.375 9.703125 -7.03125 10.21875 -7.03125 C 10.734375 -7.03125 11.078125 -7.40625 11.078125 -7.875 Z M 6.8125 -6 C 6.8125 -5.09375 6.8125 -3.765625 5.0625 -3.765625 C 3.3125 -3.765625 3.3125 -5.09375 3.3125 -6 C 3.3125 -6.890625 3.3125 -8.21875 5.0625 -8.21875 C 6.8125 -8.21875 6.8125 -6.890625 6.8125 -6 Z M 9.046875 1.484375 C 9.046875 2.203125 8.28125 3.28125 5.6875 3.28125 C 3.3125 3.28125 2.34375 2.359375 2.34375 1.453125 C 2.34375 0.265625 3.59375 0.265625 3.875 0.265625 L 6.1875 0.265625 C 6.8125 0.265625 9.046875 0.265625 9.046875 1.484375 Z M 9.046875 1.484375 "/>
</symbol>
<symbol overflow="visible" id="glyph0-4">
<path style="stroke:none;" d="M 10.75 -4.328125 C 10.75 -6.984375 8.9375 -8.984375 5.6875 -8.984375 C 2.4375 -8.984375 0.640625 -6.96875 0.640625 -4.328125 C 0.640625 -1.859375 2.375 0.125 5.6875 0.125 C 9.03125 0.125 10.75 -1.890625 10.75 -4.328125 Z M 8.21875 -4.546875 C 8.21875 -2.8125 8.21875 -0.671875 5.6875 -0.671875 C 3.171875 -0.671875 3.171875 -2.8125 3.171875 -4.546875 C 3.171875 -5.4375 3.171875 -6.453125 3.515625 -7.125 C 3.890625 -7.859375 4.71875 -8.28125 5.6875 -8.28125 C 6.53125 -8.28125 7.359375 -7.953125 7.796875 -7.265625 C 8.21875 -6.59375 8.21875 -5.5 8.21875 -4.546875 Z M 8.21875 -4.546875 "/>
</symbol>
<symbol overflow="visible" id="glyph0-5">
<path style="stroke:none;" d="M 11.921875 0 L 11.921875 -0.9375 C 10.703125 -0.9375 10.5625 -0.9375 10.5625 -1.703125 L 10.5625 -13.765625 L 7.046875 -13.609375 L 7.046875 -12.6875 C 8.28125 -12.6875 8.40625 -12.6875 8.40625 -11.90625 L 8.40625 -8.03125 C 7.421875 -8.8125 6.390625 -8.9375 5.734375 -8.9375 C 2.84375 -8.9375 0.75 -7.1875 0.75 -4.390625 C 0.75 -1.765625 2.578125 0.125 5.515625 0.125 C 6.734375 0.125 7.671875 -0.359375 8.296875 -0.859375 L 8.296875 0.125 Z M 8.296875 -2.046875 C 8.03125 -1.6875 7.21875 -0.59375 5.71875 -0.59375 C 3.296875 -0.59375 3.296875 -3 3.296875 -4.390625 C 3.296875 -5.34375 3.296875 -6.40625 3.8125 -7.1875 C 4.390625 -8.015625 5.3125 -8.21875 5.9375 -8.21875 C 7.0625 -8.21875 7.859375 -7.578125 8.296875 -7 Z M 8.296875 -2.046875 "/>
</symbol>
<symbol overflow="visible" id="glyph0-6">
<path style="stroke:none;" d="M 18.546875 0 L 18.546875 -0.9375 L 17.1875 -0.9375 L 17.1875 -6.078125 C 17.1875 -8.109375 16.171875 -8.9375 14.125 -8.9375 C 12.328125 -8.9375 11.296875 -7.9375 10.78125 -7.03125 C 10.375 -8.875 8.546875 -8.9375 7.796875 -8.9375 C 6.078125 -8.9375 4.9375 -8.03125 4.3125 -6.78125 L 4.3125 -8.9375 L 0.890625 -8.765625 L 0.890625 -7.84375 C 2.125 -7.84375 2.265625 -7.84375 2.265625 -7.0625 L 2.265625 -0.9375 L 0.890625 -0.9375 L 0.890625 0 L 3.390625 -0.0625 L 5.890625 0 L 5.890625 -0.9375 L 4.53125 -0.9375 L 4.53125 -5.078125 C 4.53125 -7.25 6.25 -8.21875 7.484375 -8.21875 C 8.15625 -8.21875 8.59375 -7.8125 8.59375 -6.296875 L 8.59375 -0.9375 L 7.21875 -0.9375 L 7.21875 0 L 9.71875 -0.0625 L 12.21875 0 L 12.21875 -0.9375 L 10.859375 -0.9375 L 10.859375 -5.078125 C 10.859375 -7.25 12.578125 -8.21875 13.8125 -8.21875 C 14.484375 -8.21875 14.921875 -7.8125 14.921875 -6.296875 L 14.921875 -0.9375 L 13.546875 -0.9375 L 13.546875 0 L 16.046875 -0.0625 Z M 18.546875 0 "/>
</symbol>
<symbol overflow="visible" id="glyph0-7">
<path style="stroke:none;" d="M 9.796875 -2.328125 C 9.796875 -2.671875 9.421875 -2.671875 9.328125 -2.671875 C 8.984375 -2.671875 8.953125 -2.578125 8.828125 -2.265625 C 8.40625 -1.3125 7.28125 -0.671875 6 -0.671875 C 3.1875 -0.671875 3.171875 -3.3125 3.171875 -4.328125 L 9.171875 -4.328125 C 9.609375 -4.328125 9.796875 -4.328125 9.796875 -4.859375 C 9.796875 -5.484375 9.6875 -6.921875 8.6875 -7.921875 C 7.953125 -8.625 6.90625 -8.984375 5.53125 -8.984375 C 2.359375 -8.984375 0.640625 -6.953125 0.640625 -4.46875 C 0.640625 -1.8125 2.625 0.125 5.8125 0.125 C 8.953125 0.125 9.796875 -1.984375 9.796875 -2.328125 Z M 7.921875 -4.984375 L 3.171875 -4.984375 C 3.21875 -5.75 3.234375 -6.59375 3.65625 -7.25 C 4.171875 -8.03125 4.96875 -8.28125 5.53125 -8.28125 C 7.859375 -8.28125 7.890625 -5.671875 7.921875 -4.984375 Z M 7.921875 -4.984375 "/>
</symbol>
<symbol overflow="visible" id="glyph0-8">
<path style="stroke:none;" d="M 8.765625 -7.296875 C 8.765625 -8.359375 7.703125 -8.9375 6.671875 -8.9375 C 5.28125 -8.9375 4.484375 -7.9375 4.03125 -6.6875 L 4.03125 -8.9375 L 0.734375 -8.765625 L 0.734375 -7.84375 C 1.96875 -7.84375 2.109375 -7.84375 2.109375 -7.0625 L 2.109375 -0.9375 L 0.734375 -0.9375 L 0.734375 0 L 3.234375 -0.0625 C 3.984375 -0.0625 5.265625 -0.0625 5.96875 0 L 5.96875 -0.9375 L 4.25 -0.9375 L 4.25 -4.40625 C 4.25 -5.796875 4.75 -8.21875 6.734375 -8.21875 C 6.734375 -8.21875 6.34375 -7.875 6.34375 -7.296875 C 6.34375 -6.484375 6.984375 -6.09375 7.5625 -6.09375 C 8.140625 -6.09375 8.765625 -6.515625 8.765625 -7.296875 Z M 8.765625 -7.296875 "/>
</symbol>
<symbol overflow="visible" id="glyph0-9">
<path style="stroke:none;" d="M 10.96875 -0.46875 C 10.96875 -0.9375 10.71875 -0.9375 10.453125 -0.9375 C 9.25 -0.953125 9.25 -1.203125 9.25 -1.671875 L 9.25 -5.9375 C 9.25 -7.703125 7.84375 -8.984375 4.875 -8.984375 C 3.75 -8.984375 1.328125 -8.90625 1.328125 -7.15625 C 1.328125 -6.296875 2.03125 -5.90625 2.5625 -5.90625 C 3.171875 -5.90625 3.8125 -6.328125 3.8125 -7.15625 C 3.8125 -7.765625 3.4375 -8.09375 3.375 -8.140625 C 3.921875 -8.25 4.5625 -8.28125 4.796875 -8.28125 C 6.296875 -8.28125 6.984375 -7.4375 6.984375 -5.9375 L 6.984375 -5.265625 C 5.578125 -5.203125 0.53125 -5.015625 0.53125 -2.140625 C 0.53125 -0.234375 3 0.125 4.359375 0.125 C 5.953125 0.125 6.890625 -0.6875 7.328125 -1.53125 C 7.328125 -0.90625 7.328125 0 9.390625 0 L 10.34375 0 C 10.734375 0 10.96875 0 10.96875 -0.46875 Z M 6.984375 -2.765625 C 6.984375 -0.859375 5.15625 -0.59375 4.65625 -0.59375 C 3.65625 -0.59375 2.859375 -1.296875 2.859375 -2.15625 C 2.859375 -4.3125 6 -4.578125 6.984375 -4.640625 Z M 6.984375 -2.765625 "/>
</symbol>
<symbol overflow="visible" id="glyph0-10">
<path style="stroke:none;" d="M 7.578125 -2.453125 L 7.578125 -3.515625 L 6.640625 -3.515625 L 6.640625 -2.5 C 6.640625 -1.15625 6.015625 -0.671875 5.453125 -0.671875 C 4.3125 -0.671875 4.3125 -1.9375 4.3125 -2.40625 L 4.3125 -7.875 L 7.203125 -7.875 L 7.203125 -8.8125 L 4.3125 -8.8125 L 4.3125 -12.59375 L 3.375 -12.59375 C 3.359375 -10.609375 2.375 -8.65625 0.421875 -8.59375 L 0.421875 -7.875 L 2.046875 -7.875 L 2.046875 -2.4375 C 2.046875 -0.3125 3.765625 0.125 5.171875 0.125 C 6.6875 0.125 7.578125 -1.015625 7.578125 -2.453125 Z M 7.578125 -2.453125 "/>
</symbol>
<symbol overflow="visible" id="glyph0-11">
<path style="stroke:none;" d="M 11.90625 -4.421875 C 11.90625 -7.0625 10.09375 -8.9375 7.25 -8.9375 C 5.75 -8.9375 4.703125 -8.3125 4.25 -7.953125 L 4.25 -8.9375 L 0.734375 -8.765625 L 0.734375 -7.84375 C 1.96875 -7.84375 2.109375 -7.84375 2.109375 -7.078125 L 2.109375 2.921875 L 0.734375 2.921875 L 0.734375 3.84375 L 3.234375 3.796875 L 5.734375 3.84375 L 5.734375 2.921875 L 4.359375 2.921875 L 4.359375 -0.78125 C 5.21875 -0.078125 6.09375 0.125 6.90625 0.125 C 9.875 0.125 11.90625 -1.671875 11.90625 -4.421875 Z M 9.359375 -4.421875 C 9.359375 -1.625 7.984375 -0.59375 6.6875 -0.59375 C 6.40625 -0.59375 5.484375 -0.59375 4.578125 -1.671875 C 4.359375 -1.921875 4.359375 -1.9375 4.359375 -2.328125 L 4.359375 -6.53125 C 4.359375 -6.90625 4.390625 -6.921875 4.65625 -7.203125 C 5.453125 -8.015625 6.484375 -8.140625 6.921875 -8.140625 C 8.25 -8.140625 9.359375 -6.921875 9.359375 -4.421875 Z M 9.359375 -4.421875 "/>
</symbol>
<symbol overflow="visible" id="glyph0-12">
<path style="stroke:none;" d="M 11.90625 -4.421875 C 11.90625 -7.0625 10.046875 -8.9375 7.15625 -8.9375 C 5.71875 -8.9375 4.71875 -8.359375 4.25 -7.953125 L 4.25 -13.765625 L 0.734375 -13.609375 L 0.734375 -12.6875 C 1.96875 -12.6875 2.109375 -12.6875 2.109375 -11.90625 L 2.109375 0 L 3.03125 0 C 3.359375 -0.375 3.6875 -0.734375 4.015625 -1.109375 C 4.171875 -0.953125 5.140625 0.125 6.90625 0.125 C 9.859375 0.125 11.90625 -1.671875 11.90625 -4.421875 Z M 9.359375 -4.421875 C 9.359375 -3.5 9.359375 -2.40625 8.84375 -1.625 C 8.28125 -0.8125 7.359375 -0.59375 6.734375 -0.59375 C 5.34375 -0.59375 4.5625 -1.671875 4.359375 -1.96875 L 4.359375 -6.953125 C 4.90625 -7.640625 5.859375 -8.21875 6.953125 -8.21875 C 9.359375 -8.21875 9.359375 -5.8125 9.359375 -4.421875 Z M 9.359375 -4.421875 "/>
</symbol>
</g>
<clipPath id="clip1">
  <path d="M 17.667969 7.140625 L 48 7.140625 L 48 26 L 17.667969 26 Z M 17.667969 7.140625 "/>
</clipPath>
<clipPath id="clip2">
  <path d="M 47 10 L 58.753906 10 L 58.753906 23 L 47 23 Z M 47 10 "/>
</clipPath>
<clipPath id="clip3">
  <path d="M 17.667969 31 L 48 31 L 48 50 L 17.667969 50 Z M 17.667969 31 "/>
</clipPath>
<clipPath id="clip4">
  <path d="M 47 34 L 58.753906 34 L 58.753906 47 L 47 47 Z M 47 34 "/>
</clipPath>
<clipPath id="clip5">
  <path d="M 17.667969 55 L 48 55 L 48 74 L 17.667969 74 Z M 17.667969 55 "/>
</clipPath>
<clipPath id="clip6">
  <path d="M 47 58 L 58.753906 58 L 58.753906 71 L 47 71 Z M 47 58 "/>
</clipPath>
<clipPath id="clip7">
  <path d="M 17.667969 93.589844 L 48 93.589844 L 48 113 L 17.667969 113 Z M 17.667969 93.589844 "/>
</clipPath>
<clipPath id="clip8">
  <path d="M 47 97 L 58.753906 97 L 58.753906 109 L 47 109 Z M 47 97 "/>
</clipPath>
<clipPath id="clip9">
  <path d="M 17.667969 117 L 48 117 L 48 136.429688 L 17.667969 136.429688 Z M 17.667969 117 "/>
</clipPath>
<clipPath id="clip10">
  <path d="M 47 121 L 58.753906 121 L 58.753906 133 L 47 133 Z M 47 121 "/>
</clipPath>
<clipPath id="clip11">
  <path d="M 17.667969 180.039062 L 48 180.039062 L 48 198.863281 L 17.667969 198.863281 Z M 17.667969 180.039062 "/>
</clipPath>
<clipPath id="clip12">
  <path d="M 47 183 L 58.753906 183 L 58.753906 196 L 47 196 Z M 47 183 "/>
</clipPath>
<clipPath id="clip13">
  <path d="M 17.667969 268 L 58.75 268 L 58.75 285.714844 L 17.667969 285.714844 Z M 17.667969 268 "/>
</clipPath>
<clipPath id="clip14">
  <path d="M 17.667969 242.074219 L 58.75 242.074219 L 58.75 260 L 17.667969 260 Z M 17.667969 242.074219 "/>
</clipPath>
<clipPath id="clip15">
  <path d="M 17.667969 329 L 58.75 329 L 58.75 348 L 17.667969 348 Z M 17.667969 329 "/>
</clipPath>
<clipPath id="clip16">
  <path d="M 17.667969 303.546875 L 58.75 303.546875 L 58.75 322 L 17.667969 322 Z M 17.667969 303.546875 "/>
</clipPath>
<clipPath id="clip17">
  <path d="M 17.667969 355 L 58.75 355 L 58.75 373.121094 L 17.667969 373.121094 Z M 17.667969 355 "/>
</clipPath>
<clipPath id="clip18">
  <path d="M 0 151 L 225.304688 151 L 225.304688 228 L 0 228 Z M 0 151 "/>
</clipPath>
</defs>
<g id="surface1">
<path style="fill-rule:nonzero;fill:rgb(14.901733%,47.059631%,69.802856%);fill-opacity:0.45;stroke-width:0.99628;stroke-linecap:butt;stroke-linejoin:miter;stroke:rgb(100%,100%,100%);stroke-opacity:1;stroke-miterlimit:10;" d="M -0.0000832965 -0.00184783 L -0.0000832965 -74.719126 L 74.721116 -74.719126 L 74.721116 -0.00184783 Z M -0.0000832965 -0.00184783 " transform="matrix(0.996256,0,0,-0.996256,0.99227,3.349722)"/>
<g clip-path="url(#clip1)" clip-rule="nonzero">
<path style=" stroke:none;fill-rule:nonzero;fill:rgb(100%,100%,100%);fill-opacity:1;" d="M 44.585938 16.550781 C 44.585938 14.523438 45.390625 12.53125 46.921875 10.773438 L 47.53125 10.066406 C 46.25 9.863281 44.945312 9.734375 43.628906 9.683594 C 41.867188 8.78125 39.242188 7.707031 36.21875 7.367188 L 34.359375 7.140625 L 35.433594 10.445312 C 32.089844 11.203125 29.136719 12.738281 27.1875 13.796875 C 26.808594 13.585938 26.414062 13.378906 26 13.179688 C 22.8125 11.628906 19.371094 11.476562 19.226562 11.472656 L 17.667969 11.417969 L 17.882812 12.449219 C 17.90625 12.558594 18.425781 14.84375 20.421875 16.542969 C 18.425781 18.242188 17.90625 20.527344 17.882812 20.636719 L 17.667969 21.6875 L 19.226562 21.613281 C 19.371094 21.605469 22.8125 21.457031 26 19.90625 C 26.40625 19.710938 26.792969 19.507812 27.167969 19.296875 C 29.125 20.359375 32.074219 21.898438 35.421875 22.652344 L 34.359375 25.964844 L 36.21875 25.738281 C 39.226562 25.398438 41.84375 24.324219 43.601562 23.421875 C 44.933594 23.371094 46.261719 23.242188 47.558594 23.035156 L 46.925781 22.332031 C 45.394531 20.574219 44.585938 18.582031 44.585938 16.550781 Z M 44.585938 16.550781 "/>
<path style=" stroke:none;fill-rule:nonzero;fill:rgb(100%,100%,100%);fill-opacity:1;" d="M 34.359375 7.140625 L 36.21875 7.367188 C 39.242188 7.707031 41.867188 8.78125 43.628906 9.683594 C 44.945312 9.734375 46.25 9.863281 47.53125 10.066406 L 46.921875 10.773438 C 45.390625 12.53125 44.585938 14.523438 44.585938 16.550781 C 44.585938 18.582031 45.394531 20.574219 46.925781 22.332031 L 47.558594 23.035156 C 46.261719 23.242188 44.933594 23.371094 43.601562 23.421875 C 41.84375 24.324219 39.226562 25.398438 36.21875 25.738281 L 34.359375 25.964844 L 35.421875 22.652344 C 32.074219 21.898438 29.125 20.359375 27.167969 19.296875 C 26.792969 19.507812 26.40625 19.710938 26 19.90625 C 22.8125 21.457031 19.371094 21.605469 19.226562 21.613281 L 17.667969 21.6875 L 17.882812 20.636719 C 17.90625 20.527344 18.425781 18.242188 20.421875 16.542969 C 18.425781 14.84375 17.90625 12.558594 17.882812 12.449219 L 17.667969 11.417969 L 19.226562 11.472656 C 19.371094 11.476562 22.8125 11.628906 26 13.179688 C 26.414062 13.378906 26.808594 13.585938 27.1875 13.796875 C 29.136719 12.738281 32.089844 11.203125 35.433594 10.445312 Z M 35.003906 7.667969 L 35.859375 10.308594 L 36.011719 10.777344 L 35.53125 10.882812 C 32.828125 11.496094 30.503906 12.507812 27.398438 14.191406 L 27.183594 14.308594 L 26.96875 14.1875 C 26.597656 13.980469 26.210938 13.777344 25.804688 13.582031 C 24.445312 12.921875 22.9375 12.46875 21.394531 12.1875 C 20.84375 12.085938 20.324219 12.015625 19.855469 11.96875 C 19.558594 11.941406 19.335938 11.925781 19.210938 11.921875 L 18.222656 11.886719 L 18.320312 12.355469 C 18.335938 12.433594 18.375 12.574219 18.433594 12.757812 C 18.53125 13.054688 18.65625 13.371094 18.816406 13.703125 C 19.265625 14.636719 19.886719 15.5 20.710938 16.203125 L 21.113281 16.542969 L 20.710938 16.882812 C 20.335938 17.203125 20 17.5625 19.699219 17.949219 C 19.238281 18.546875 18.878906 19.1875 18.617188 19.828125 C 18.523438 20.058594 18.449219 20.273438 18.390625 20.46875 C 18.371094 20.539062 18.351562 20.597656 18.339844 20.65625 C 18.324219 20.710938 18.332031 20.6875 18.320312 20.734375 L 18.222656 21.210938 L 19.210938 21.164062 C 19.335938 21.160156 19.558594 21.144531 19.855469 21.117188 C 20.324219 21.070312 20.84375 21 21.394531 20.898438 C 22.9375 20.617188 24.445312 20.164062 25.804688 19.503906 C 26.203125 19.308594 26.582031 19.113281 26.949219 18.90625 L 27.164062 18.789062 L 27.382812 18.90625 C 30.488281 20.589844 32.816406 21.605469 35.519531 22.21875 L 36 22.324219 L 35.851562 22.792969 L 35 25.433594 L 36.167969 25.292969 C 38.707031 25.007812 41.152344 24.179688 43.394531 23.023438 L 43.484375 22.976562 L 43.585938 22.972656 C 44.613281 22.929688 45.644531 22.855469 46.664062 22.710938 L 46.585938 22.625 C 44.988281 20.789062 44.136719 18.695312 44.136719 16.550781 C 44.136719 14.410156 44.984375 12.3125 46.582031 10.484375 L 46.660156 10.394531 C 45.648438 10.230469 44.628906 10.1875 43.613281 10.132812 L 43.511719 10.128906 L 43.425781 10.082031 C 41.179688 8.929688 38.722656 8.101562 36.164062 7.8125 Z M 35.003906 7.667969 "/>
</g>
<g clip-path="url(#clip2)" clip-rule="nonzero">
<path style=" stroke:none;fill-rule:nonzero;fill:rgb(100%,100%,100%);fill-opacity:1;" d="M 57.757812 14.71875 C 57.289062 14.191406 56.433594 13.386719 55.015625 12.566406 C 53.542969 11.71875 51.855469 11.050781 50.039062 10.585938 L 49.144531 11.632812 C 46.496094 14.671875 46.492188 18.421875 49.136719 21.464844 L 50.078125 22.511719 C 51.878906 22.054688 53.546875 21.394531 55.007812 20.558594 C 57.554688 19.089844 58.753906 17.246094 58.753906 16.550781 C 58.753906 15.894531 58.113281 15.121094 57.757812 14.71875 Z M 51.050781 16.550781 C 50.34375 16.550781 49.765625 16.167969 49.765625 15.695312 C 49.765625 15.222656 50.34375 14.839844 51.050781 14.839844 C 51.761719 14.839844 52.335938 15.222656 52.335938 15.695312 C 52.335938 16.167969 51.761719 16.550781 51.050781 16.550781 Z M 51.050781 16.550781 "/>
<path style=" stroke:none;fill-rule:nonzero;fill:rgb(100%,100%,100%);fill-opacity:1;" d="M 50.039062 10.585938 C 51.855469 11.050781 53.542969 11.71875 55.015625 12.566406 C 56.433594 13.386719 57.289062 14.191406 57.757812 14.71875 C 58.113281 15.121094 58.753906 15.894531 58.753906 16.550781 C 58.753906 17.246094 57.554688 19.089844 55.007812 20.558594 C 53.546875 21.394531 51.878906 22.054688 50.078125 22.511719 L 49.136719 21.464844 C 46.492188 18.421875 46.496094 14.671875 49.144531 11.632812 Z M 50.195312 11.09375 L 49.480469 11.925781 C 46.980469 14.796875 46.976562 18.296875 49.46875 21.164062 L 50.226562 22.007812 C 51.824219 21.605469 53.34375 20.957031 54.785156 20.171875 C 55.910156 19.519531 56.835938 18.753906 57.496094 17.976562 C 58.011719 17.363281 58.308594 16.796875 58.308594 16.550781 C 58.242188 15.945312 57.800781 15.460938 57.421875 15.015625 C 56.679688 14.171875 55.75 13.53125 54.792969 12.953125 C 53.351562 12.125 51.792969 11.527344 50.195312 11.09375 Z M 51.050781 14.390625 C 51.980469 14.390625 52.78125 14.929688 52.78125 15.695312 C 52.78125 16.464844 51.980469 17 51.050781 17 C 50.125 17 49.320312 16.464844 49.320312 15.695312 C 49.320312 14.929688 50.125 14.390625 51.050781 14.390625 Z M 51.050781 14.839844 C 50.34375 14.839844 49.765625 15.222656 49.765625 15.695312 C 49.765625 16.167969 50.34375 16.550781 51.050781 16.550781 C 51.761719 16.550781 52.335938 16.167969 52.335938 15.695312 C 52.335938 15.222656 51.761719 14.839844 51.050781 14.839844 Z M 51.050781 14.839844 "/>
</g>
<g clip-path="url(#clip3)" clip-rule="nonzero">
<path style=" stroke:none;fill-rule:nonzero;fill:rgb(100%,100%,100%);fill-opacity:1;" d="M 44.585938 40.570312 C 44.585938 38.539062 45.390625 36.546875 46.921875 34.792969 L 47.53125 34.082031 C 46.25 33.878906 44.945312 33.753906 43.628906 33.703125 C 41.867188 32.796875 39.242188 31.726562 36.21875 31.382812 L 34.359375 31.15625 L 35.433594 34.464844 C 32.089844 35.21875 29.136719 36.757812 27.1875 37.8125 C 26.808594 37.601562 26.414062 37.398438 26 37.195312 C 22.8125 35.644531 19.371094 35.496094 19.226562 35.488281 L 17.667969 35.433594 L 17.882812 36.46875 C 17.90625 36.574219 18.425781 38.859375 20.421875 40.558594 C 18.425781 42.261719 17.90625 44.542969 17.882812 44.652344 L 17.667969 45.703125 L 19.226562 45.628906 C 19.371094 45.625 22.8125 45.476562 26 43.925781 C 26.40625 43.726562 26.792969 43.523438 27.167969 43.316406 C 29.125 44.378906 32.074219 45.914062 35.421875 46.671875 L 34.359375 49.980469 L 36.21875 49.757812 C 39.226562 49.417969 41.84375 48.34375 43.601562 47.4375 C 44.933594 47.386719 46.261719 47.257812 47.558594 47.050781 L 46.925781 46.347656 C 45.394531 44.59375 44.585938 42.597656 44.585938 40.570312 Z M 44.585938 40.570312 "/>
<path style=" stroke:none;fill-rule:nonzero;fill:rgb(100%,100%,100%);fill-opacity:1;" d="M 34.359375 31.15625 L 36.21875 31.382812 C 39.242188 31.726562 41.867188 32.796875 43.628906 33.703125 C 44.945312 33.753906 46.25 33.878906 47.53125 34.082031 L 46.921875 34.792969 C 45.390625 36.546875 44.585938 38.539062 44.585938 40.570312 C 44.585938 42.597656 45.394531 44.59375 46.925781 46.347656 L 47.558594 47.050781 C 46.261719 47.257812 44.933594 47.386719 43.601562 47.4375 C 41.84375 48.34375 39.226562 49.417969 36.21875 49.757812 L 34.359375 49.980469 L 35.421875 46.671875 C 32.074219 45.914062 29.125 44.378906 27.167969 43.316406 C 26.792969 43.523438 26.40625 43.726562 26 43.925781 C 22.8125 45.476562 19.371094 45.625 19.226562 45.628906 L 17.667969 45.703125 L 17.882812 44.652344 C 17.90625 44.542969 18.425781 42.261719 20.421875 40.558594 C 18.425781 38.859375 17.90625 36.574219 17.882812 36.46875 L 17.667969 35.433594 L 19.226562 35.488281 C 19.371094 35.496094 22.8125 35.644531 26 37.195312 C 26.414062 37.398438 26.808594 37.601562 27.1875 37.8125 C 29.136719 36.757812 32.089844 35.21875 35.433594 34.464844 Z M 35.003906 31.6875 L 35.859375 34.328125 L 36.011719 34.792969 L 35.53125 34.902344 C 32.828125 35.511719 30.503906 36.527344 27.398438 38.207031 L 27.183594 38.324219 L 26.96875 38.203125 C 26.597656 38 26.210938 37.796875 25.804688 37.597656 C 24.445312 36.9375 22.9375 36.484375 21.394531 36.203125 C 20.84375 36.105469 20.324219 36.03125 19.855469 35.984375 C 19.558594 35.957031 19.335938 35.941406 19.210938 35.9375 L 18.222656 35.902344 L 18.320312 36.371094 C 18.335938 36.449219 18.375 36.589844 18.433594 36.773438 C 18.53125 37.070312 18.65625 37.390625 18.816406 37.722656 C 19.265625 38.65625 19.886719 39.515625 20.710938 40.21875 L 21.113281 40.558594 L 20.710938 40.902344 C 20.335938 41.222656 20 41.578125 19.699219 41.964844 C 19.238281 42.5625 18.878906 43.203125 18.617188 43.847656 C 18.523438 44.078125 18.449219 44.289062 18.390625 44.484375 C 18.371094 44.554688 18.351562 44.617188 18.339844 44.671875 C 18.324219 44.730469 18.332031 44.703125 18.320312 44.75 L 18.222656 45.226562 L 19.210938 45.183594 C 19.335938 45.179688 19.558594 45.164062 19.855469 45.132812 C 20.324219 45.085938 20.84375 45.015625 21.394531 44.914062 C 22.9375 44.636719 24.445312 44.183594 25.804688 43.519531 C 26.203125 43.328125 26.582031 43.128906 26.949219 42.925781 L 27.164062 42.804688 L 27.382812 42.921875 C 30.488281 44.605469 32.816406 45.625 35.519531 46.234375 L 36 46.34375 L 35.851562 46.808594 L 35 49.453125 L 36.167969 49.3125 C 38.707031 49.023438 41.152344 48.195312 43.394531 47.039062 L 43.484375 46.996094 L 43.585938 46.992188 C 44.613281 46.945312 45.644531 46.875 46.664062 46.726562 L 46.585938 46.640625 C 44.988281 44.808594 44.136719 42.710938 44.136719 40.570312 C 44.136719 38.425781 44.984375 36.332031 46.582031 34.5 L 46.660156 34.410156 C 45.648438 34.25 44.628906 34.203125 43.613281 34.148438 L 43.511719 34.144531 L 43.425781 34.101562 C 41.179688 32.949219 38.722656 32.117188 36.164062 31.828125 Z M 35.003906 31.6875 "/>
</g>
<g clip-path="url(#clip4)" clip-rule="nonzero">
<path style=" stroke:none;fill-rule:nonzero;fill:rgb(100%,100%,100%);fill-opacity:1;" d="M 57.757812 38.738281 C 57.289062 38.207031 56.433594 37.40625 55.015625 36.582031 C 53.542969 35.738281 51.855469 35.066406 50.039062 34.605469 L 49.144531 35.648438 C 46.496094 38.6875 46.492188 42.441406 49.136719 45.480469 L 50.078125 46.527344 C 51.878906 46.070312 53.546875 45.410156 55.007812 44.578125 C 57.554688 43.105469 58.753906 41.265625 58.753906 40.570312 C 58.753906 39.910156 58.113281 39.136719 57.757812 38.738281 Z M 51.050781 40.570312 C 50.34375 40.570312 49.765625 40.1875 49.765625 39.714844 C 49.765625 39.242188 50.34375 38.859375 51.050781 38.859375 C 51.761719 38.859375 52.335938 39.242188 52.335938 39.714844 C 52.335938 40.1875 51.761719 40.570312 51.050781 40.570312 Z M 51.050781 40.570312 "/>
<path style=" stroke:none;fill-rule:nonzero;fill:rgb(100%,100%,100%);fill-opacity:1;" d="M 50.039062 34.605469 C 51.855469 35.066406 53.542969 35.738281 55.015625 36.582031 C 56.433594 37.40625 57.289062 38.207031 57.757812 38.738281 C 58.113281 39.136719 58.753906 39.910156 58.753906 40.570312 C 58.753906 41.265625 57.554688 43.105469 55.007812 44.578125 C 53.546875 45.410156 51.878906 46.070312 50.078125 46.527344 L 49.136719 45.480469 C 46.492188 42.441406 46.496094 38.6875 49.144531 35.648438 Z M 50.195312 35.109375 L 49.480469 35.941406 C 46.980469 38.8125 46.976562 42.316406 49.46875 45.183594 L 50.226562 46.023438 C 51.824219 45.621094 53.34375 44.976562 54.785156 44.1875 C 55.910156 43.539062 56.835938 42.769531 57.496094 41.992188 C 58.011719 41.378906 58.308594 40.8125 58.308594 40.570312 C 58.242188 39.964844 57.800781 39.476562 57.421875 39.035156 C 56.679688 38.191406 55.75 37.546875 54.792969 36.972656 C 53.351562 36.144531 51.792969 35.546875 50.195312 35.109375 Z M 51.050781 38.410156 C 51.980469 38.410156 52.78125 38.945312 52.78125 39.714844 C 52.78125 40.480469 51.980469 41.015625 51.050781 41.015625 C 50.125 41.015625 49.320312 40.480469 49.320312 39.714844 C 49.320312 38.945312 50.125 38.410156 51.050781 38.410156 Z M 51.050781 38.859375 C 50.34375 38.859375 49.765625 39.242188 49.765625 39.714844 C 49.765625 40.1875 50.34375 40.570312 51.050781 40.570312 C 51.761719 40.570312 52.335938 40.1875 52.335938 39.714844 C 52.335938 39.242188 51.761719 38.859375 51.050781 38.859375 Z M 51.050781 38.859375 "/>
</g>
<g clip-path="url(#clip5)" clip-rule="nonzero">
<path style=" stroke:none;fill-rule:nonzero;fill:rgb(100%,100%,100%);fill-opacity:1;" d="M 44.585938 64.585938 C 44.585938 62.558594 45.390625 60.566406 46.921875 58.808594 L 47.53125 58.101562 C 46.25 57.898438 44.945312 57.769531 43.628906 57.71875 C 41.867188 56.816406 39.242188 55.742188 36.21875 55.402344 L 34.359375 55.171875 L 35.433594 58.480469 C 32.089844 59.238281 29.136719 60.773438 27.1875 61.832031 C 26.808594 61.621094 26.414062 61.414062 26 61.210938 C 22.8125 59.660156 19.371094 59.511719 19.226562 59.507812 L 17.667969 59.453125 L 17.882812 60.484375 C 17.90625 60.59375 18.425781 62.878906 20.421875 64.578125 C 18.425781 66.277344 17.90625 68.5625 17.882812 68.671875 L 17.667969 69.71875 L 19.226562 69.648438 C 19.371094 69.640625 22.8125 69.492188 26 67.941406 C 26.40625 67.746094 26.792969 67.542969 27.167969 67.332031 C 29.125 68.394531 32.074219 69.933594 35.421875 70.6875 L 34.359375 74 L 36.21875 73.773438 C 39.226562 73.433594 41.84375 72.359375 43.601562 71.457031 C 44.933594 71.40625 46.261719 71.273438 47.558594 71.070312 L 46.925781 70.363281 C 45.394531 68.609375 44.585938 66.617188 44.585938 64.585938 Z M 44.585938 64.585938 "/>
<path style=" stroke:none;fill-rule:nonzero;fill:rgb(100%,100%,100%);fill-opacity:1;" d="M 34.359375 55.171875 L 36.21875 55.402344 C 39.242188 55.742188 41.867188 56.816406 43.628906 57.71875 C 44.945312 57.769531 46.25 57.898438 47.53125 58.101562 L 46.921875 58.808594 C 45.390625 60.566406 44.585938 62.558594 44.585938 64.585938 C 44.585938 66.617188 45.394531 68.609375 46.925781 70.363281 L 47.558594 71.070312 C 46.261719 71.273438 44.933594 71.40625 43.601562 71.457031 C 41.84375 72.359375 39.226562 73.433594 36.21875 73.773438 L 34.359375 74 L 35.421875 70.6875 C 32.074219 69.933594 29.125 68.394531 27.167969 67.332031 C 26.792969 67.542969 26.40625 67.746094 26 67.941406 C 22.8125 69.492188 19.371094 69.640625 19.226562 69.648438 L 17.667969 69.71875 L 17.882812 68.671875 C 17.90625 68.5625 18.425781 66.277344 20.421875 64.578125 C 18.425781 62.878906 17.90625 60.59375 17.882812 60.484375 L 17.667969 59.453125 L 19.226562 59.507812 C 19.371094 59.511719 22.8125 59.660156 26 61.210938 C 26.414062 61.414062 26.808594 61.621094 27.1875 61.832031 C 29.136719 60.773438 32.089844 59.238281 35.433594 58.480469 Z M 35.003906 55.703125 L 35.859375 58.34375 L 36.011719 58.8125 L 35.53125 58.917969 C 32.828125 59.53125 30.503906 60.542969 27.398438 62.226562 L 27.183594 62.34375 L 26.96875 62.222656 C 26.597656 62.015625 26.210938 61.8125 25.804688 61.617188 C 24.445312 60.957031 22.9375 60.503906 21.394531 60.222656 C 20.84375 60.121094 20.324219 60.050781 19.855469 60.003906 C 19.558594 59.976562 19.335938 59.960938 19.210938 59.957031 L 18.222656 59.921875 L 18.320312 60.390625 C 18.335938 60.46875 18.375 60.609375 18.433594 60.792969 C 18.53125 61.085938 18.65625 61.40625 18.816406 61.738281 C 19.265625 62.671875 19.886719 63.535156 20.710938 64.234375 L 21.113281 64.578125 L 20.710938 64.917969 C 20.335938 65.238281 20 65.59375 19.699219 65.980469 C 19.238281 66.578125 18.878906 67.222656 18.617188 67.863281 C 18.523438 68.09375 18.449219 68.308594 18.390625 68.503906 C 18.371094 68.570312 18.351562 68.632812 18.339844 68.691406 C 18.324219 68.746094 18.332031 68.71875 18.320312 68.765625 L 18.222656 69.246094 L 19.210938 69.199219 C 19.335938 69.195312 19.558594 69.179688 19.855469 69.152344 C 20.324219 69.105469 20.84375 69.035156 21.394531 68.933594 C 22.9375 68.652344 24.445312 68.199219 25.804688 67.539062 C 26.203125 67.34375 26.582031 67.144531 26.949219 66.941406 L 27.164062 66.820312 L 27.382812 66.941406 C 30.488281 68.625 32.816406 69.640625 35.519531 70.253906 L 36 70.359375 L 35.851562 70.828125 L 35 73.46875 L 36.167969 73.328125 C 38.707031 73.042969 41.152344 72.214844 43.394531 71.058594 L 43.484375 71.011719 L 43.585938 71.007812 C 44.613281 70.964844 45.644531 70.890625 46.664062 70.746094 L 46.585938 70.660156 C 44.988281 68.824219 44.136719 66.730469 44.136719 64.585938 C 44.136719 62.445312 44.984375 60.347656 46.582031 58.515625 L 46.660156 58.429688 C 45.648438 58.265625 44.628906 58.222656 43.613281 58.167969 L 43.511719 58.164062 L 43.425781 58.117188 C 41.179688 56.964844 38.722656 56.132812 36.164062 55.847656 Z M 35.003906 55.703125 "/>
</g>
<g clip-path="url(#clip6)" clip-rule="nonzero">
<path style=" stroke:none;fill-rule:nonzero;fill:rgb(100%,100%,100%);fill-opacity:1;" d="M 57.757812 62.753906 C 57.289062 62.226562 56.433594 61.421875 55.015625 60.601562 C 53.542969 59.753906 51.855469 59.085938 50.039062 58.621094 L 49.144531 59.664062 C 46.496094 62.707031 46.492188 66.457031 49.136719 69.5 L 50.078125 70.546875 C 51.878906 70.089844 53.546875 69.429688 55.007812 68.59375 C 57.554688 67.125 58.753906 65.28125 58.753906 64.585938 C 58.753906 63.929688 58.113281 63.15625 57.757812 62.753906 Z M 51.050781 64.585938 C 50.34375 64.585938 49.765625 64.203125 49.765625 63.730469 C 49.765625 63.257812 50.34375 62.875 51.050781 62.875 C 51.761719 62.875 52.335938 63.257812 52.335938 63.730469 C 52.335938 64.203125 51.761719 64.585938 51.050781 64.585938 Z M 51.050781 64.585938 "/>
<path style=" stroke:none;fill-rule:nonzero;fill:rgb(100%,100%,100%);fill-opacity:1;" d="M 50.039062 58.621094 C 51.855469 59.085938 53.542969 59.753906 55.015625 60.601562 C 56.433594 61.421875 57.289062 62.226562 57.757812 62.753906 C 58.113281 63.15625 58.753906 63.929688 58.753906 64.585938 C 58.753906 65.28125 57.554688 67.125 55.007812 68.59375 C 53.546875 69.429688 51.878906 70.089844 50.078125 70.546875 L 49.136719 69.5 C 46.492188 66.457031 46.496094 62.707031 49.144531 59.664062 Z M 50.195312 59.128906 L 49.480469 59.960938 C 46.980469 62.832031 46.976562 66.332031 49.46875 69.199219 L 50.226562 70.042969 C 51.824219 69.640625 53.34375 68.992188 54.785156 68.207031 C 55.910156 67.554688 56.835938 66.789062 57.496094 66.011719 C 58.011719 65.398438 58.308594 64.832031 58.308594 64.585938 C 58.242188 63.980469 57.800781 63.496094 57.421875 63.050781 C 56.679688 62.207031 55.75 61.566406 54.792969 60.988281 C 53.351562 60.160156 51.792969 59.5625 50.195312 59.128906 Z M 51.050781 62.425781 C 51.980469 62.425781 52.78125 62.964844 52.78125 63.730469 C 52.78125 64.5 51.980469 65.035156 51.050781 65.035156 C 50.125 65.035156 49.320312 64.5 49.320312 63.730469 C 49.320312 62.964844 50.125 62.425781 51.050781 62.425781 Z M 51.050781 62.875 C 50.34375 62.875 49.765625 63.257812 49.765625 63.730469 C 49.765625 64.203125 50.34375 64.585938 51.050781 64.585938 C 51.761719 64.585938 52.335938 64.203125 52.335938 63.730469 C 52.335938 63.257812 51.761719 62.875 51.050781 62.875 Z M 51.050781 62.875 "/>
</g>
<path style="fill-rule:nonzero;fill:rgb(14.901733%,47.059631%,69.802856%);fill-opacity:0.45;stroke-width:0.99628;stroke-linecap:butt;stroke-linejoin:miter;stroke:rgb(100%,100%,100%);stroke-opacity:1;stroke-miterlimit:10;" d="M 74.721116 -0.00184783 L 74.721116 -74.719126 L 224.163515 -74.719126 L 224.163515 -0.00184783 Z M 74.721116 -0.00184783 " transform="matrix(0.996256,0,0,-0.996256,0.99227,3.349722)"/>
<g style="fill:rgb(100%,100%,100%);fill-opacity:0.45;">
  <use xlink:href="#glyph0-1" x="128.315717" y="45.463434"/>
  <use xlink:href="#glyph0-2" x="141.000244" y="45.463434"/>
  <use xlink:href="#glyph0-3" x="147.332582" y="45.463434"/>
  <use xlink:href="#glyph0-1" x="158.746672" y="45.463434"/>
</g>
<path style="fill-rule:nonzero;fill:rgb(19.607544%,62.353516%,19.999695%);fill-opacity:0.45;stroke-width:0.99628;stroke-linecap:butt;stroke-linejoin:miter;stroke:rgb(100%,100%,100%);stroke-opacity:1;stroke-miterlimit:10;" d="M -0.0000832965 -74.719126 L -0.0000832965 -149.440325 L 74.721116 -149.440325 L 74.721116 -74.719126 Z M -0.0000832965 -74.719126 " transform="matrix(0.996256,0,0,-0.996256,0.99227,3.349722)"/>
<g clip-path="url(#clip7)" clip-rule="nonzero">
<path style=" stroke:none;fill-rule:nonzero;fill:rgb(100%,100%,100%);fill-opacity:1;" d="M 44.585938 103 C 44.585938 100.972656 45.390625 98.980469 46.921875 97.226562 L 47.53125 96.515625 C 46.25 96.3125 44.945312 96.183594 43.628906 96.132812 C 41.867188 95.230469 39.242188 94.15625 36.21875 93.816406 L 34.359375 93.589844 L 35.433594 96.894531 C 32.089844 97.652344 29.136719 99.1875 27.1875 100.246094 C 26.808594 100.035156 26.414062 99.828125 26 99.628906 C 22.8125 98.078125 19.371094 97.925781 19.226562 97.921875 L 17.667969 97.867188 L 17.882812 98.898438 C 17.90625 99.007812 18.425781 101.292969 20.421875 102.992188 C 18.425781 104.691406 17.90625 106.976562 17.882812 107.085938 L 17.667969 108.136719 L 19.226562 108.0625 C 19.371094 108.058594 22.8125 107.910156 26 106.355469 C 26.40625 106.160156 26.792969 105.957031 27.167969 105.75 C 29.125 106.808594 32.074219 108.347656 35.421875 109.105469 L 34.359375 112.414062 L 36.21875 112.1875 C 39.226562 111.847656 41.84375 110.777344 43.601562 109.871094 C 44.933594 109.820312 46.261719 109.691406 47.558594 109.484375 L 46.925781 108.78125 C 45.394531 107.023438 44.585938 105.03125 44.585938 103 Z M 44.585938 103 "/>
<path style=" stroke:none;fill-rule:nonzero;fill:rgb(100%,100%,100%);fill-opacity:1;" d="M 34.359375 93.589844 L 36.21875 93.816406 C 39.242188 94.15625 41.867188 95.230469 43.628906 96.132812 C 44.945312 96.183594 46.25 96.3125 47.53125 96.515625 L 46.921875 97.226562 C 45.390625 98.980469 44.585938 100.972656 44.585938 103 C 44.585938 105.03125 45.394531 107.023438 46.925781 108.78125 L 47.558594 109.484375 C 46.261719 109.691406 44.933594 109.820312 43.601562 109.871094 C 41.84375 110.777344 39.226562 111.847656 36.21875 112.1875 L 34.359375 112.414062 L 35.421875 109.105469 C 32.074219 108.347656 29.125 106.808594 27.167969 105.75 C 26.792969 105.957031 26.40625 106.160156 26 106.355469 C 22.8125 107.910156 19.371094 108.058594 19.226562 108.0625 L 17.667969 108.136719 L 17.882812 107.085938 C 17.90625 106.976562 18.425781 104.691406 20.421875 102.992188 C 18.425781 101.292969 17.90625 99.007812 17.882812 98.898438 L 17.667969 97.867188 L 19.226562 97.921875 C 19.371094 97.925781 22.8125 98.078125 26 99.628906 C 26.414062 99.828125 26.808594 100.035156 27.1875 100.246094 C 29.136719 99.1875 32.089844 97.652344 35.433594 96.894531 Z M 35.003906 94.117188 L 35.859375 96.757812 L 36.011719 97.226562 L 35.53125 97.332031 C 32.828125 97.945312 30.503906 98.960938 27.398438 100.640625 L 27.183594 100.757812 L 26.96875 100.636719 C 26.597656 100.429688 26.210938 100.230469 25.804688 100.03125 C 24.445312 99.371094 22.9375 98.917969 21.394531 98.636719 C 20.84375 98.535156 20.324219 98.464844 19.855469 98.417969 C 19.558594 98.390625 19.335938 98.375 19.210938 98.371094 L 18.222656 98.335938 L 18.320312 98.804688 C 18.335938 98.882812 18.375 99.023438 18.433594 99.207031 C 18.53125 99.503906 18.65625 99.820312 18.816406 100.15625 C 19.265625 101.089844 19.886719 101.949219 20.710938 102.652344 L 21.113281 102.992188 L 20.710938 103.332031 C 20.335938 103.652344 20 104.011719 19.699219 104.398438 C 19.238281 104.996094 18.878906 105.636719 18.617188 106.28125 C 18.523438 106.507812 18.449219 106.722656 18.390625 106.917969 C 18.371094 106.988281 18.351562 107.050781 18.339844 107.105469 C 18.324219 107.160156 18.332031 107.136719 18.320312 107.183594 L 18.222656 107.660156 L 19.210938 107.613281 C 19.335938 107.609375 19.558594 107.59375 19.855469 107.566406 C 20.324219 107.519531 20.84375 107.449219 21.394531 107.347656 C 22.9375 107.066406 24.445312 106.613281 25.804688 105.953125 C 26.203125 105.761719 26.582031 105.5625 26.949219 105.355469 L 27.164062 105.238281 L 27.382812 105.355469 C 30.488281 107.039062 32.816406 108.054688 35.519531 108.667969 L 36 108.773438 L 35.851562 109.242188 L 35 111.886719 L 36.167969 111.742188 C 38.707031 111.457031 41.152344 110.628906 43.394531 109.472656 L 43.484375 109.425781 L 43.585938 109.421875 C 44.613281 109.378906 45.644531 109.304688 46.664062 109.160156 L 46.585938 109.074219 C 44.988281 107.242188 44.136719 105.144531 44.136719 103 C 44.136719 100.859375 44.984375 98.761719 46.582031 96.933594 L 46.660156 96.84375 C 45.648438 96.679688 44.628906 96.636719 43.613281 96.582031 L 43.511719 96.578125 L 43.425781 96.53125 C 41.179688 95.378906 38.722656 94.550781 36.164062 94.261719 Z M 35.003906 94.117188 "/>
</g>
<g clip-path="url(#clip8)" clip-rule="nonzero">
<path style=" stroke:none;fill-rule:nonzero;fill:rgb(100%,100%,100%);fill-opacity:1;" d="M 57.757812 101.167969 C 57.289062 100.640625 56.433594 99.835938 55.015625 99.015625 C 53.542969 98.167969 51.855469 97.5 50.039062 97.035156 L 49.144531 98.082031 C 46.496094 101.121094 46.492188 104.875 49.136719 107.914062 L 50.078125 108.960938 C 51.878906 108.503906 53.546875 107.84375 55.007812 107.007812 C 57.554688 105.539062 58.753906 103.695312 58.753906 103 C 58.753906 102.34375 58.113281 101.570312 57.757812 101.167969 Z M 51.050781 103 C 50.34375 103 49.765625 102.617188 49.765625 102.144531 C 49.765625 101.671875 50.34375 101.289062 51.050781 101.289062 C 51.761719 101.289062 52.335938 101.671875 52.335938 102.144531 C 52.335938 102.617188 51.761719 103 51.050781 103 Z M 51.050781 103 "/>
<path style=" stroke:none;fill-rule:nonzero;fill:rgb(100%,100%,100%);fill-opacity:1;" d="M 50.039062 97.035156 C 51.855469 97.5 53.542969 98.167969 55.015625 99.015625 C 56.433594 99.835938 57.289062 100.640625 57.757812 101.167969 C 58.113281 101.570312 58.753906 102.34375 58.753906 103 C 58.753906 103.695312 57.554688 105.539062 55.007812 107.007812 C 53.546875 107.84375 51.878906 108.503906 50.078125 108.960938 L 49.136719 107.914062 C 46.492188 104.875 46.496094 101.121094 49.144531 98.082031 Z M 50.195312 97.542969 L 49.480469 98.375 C 46.980469 101.246094 46.976562 104.746094 49.46875 107.613281 L 50.226562 108.457031 C 51.824219 108.054688 53.34375 107.40625 54.785156 106.621094 C 55.910156 105.96875 56.835938 105.203125 57.496094 104.425781 C 58.011719 103.8125 58.308594 103.246094 58.308594 103 C 58.242188 102.398438 57.800781 101.910156 57.421875 101.464844 C 56.679688 100.621094 55.75 99.980469 54.792969 99.402344 C 53.351562 98.574219 51.792969 97.976562 50.195312 97.542969 Z M 51.050781 100.839844 C 51.980469 100.839844 52.78125 101.378906 52.78125 102.144531 C 52.78125 102.914062 51.980469 103.449219 51.050781 103.449219 C 50.125 103.449219 49.320312 102.914062 49.320312 102.144531 C 49.320312 101.378906 50.125 100.839844 51.050781 100.839844 Z M 51.050781 101.289062 C 50.34375 101.289062 49.765625 101.671875 49.765625 102.144531 C 49.765625 102.617188 50.34375 103 51.050781 103 C 51.761719 103 52.335938 102.617188 52.335938 102.144531 C 52.335938 101.671875 51.761719 101.289062 51.050781 101.289062 Z M 51.050781 101.289062 "/>
</g>
<g clip-path="url(#clip9)" clip-rule="nonzero">
<path style=" stroke:none;fill-rule:nonzero;fill:rgb(100%,100%,100%);fill-opacity:1;" d="M 44.585938 127.019531 C 44.585938 124.988281 45.390625 122.996094 46.921875 121.242188 L 47.53125 120.535156 C 46.25 120.332031 44.945312 120.203125 43.628906 120.152344 C 41.867188 119.246094 39.242188 118.175781 36.21875 117.832031 L 34.359375 117.605469 L 35.433594 120.914062 C 32.089844 121.671875 29.136719 123.207031 27.1875 124.261719 C 26.808594 124.050781 26.414062 123.847656 26 123.644531 C 22.8125 122.09375 19.371094 121.945312 19.226562 121.9375 L 17.667969 121.882812 L 17.882812 122.917969 C 17.90625 123.023438 18.425781 125.308594 20.421875 127.007812 C 18.425781 128.710938 17.90625 130.996094 17.882812 131.101562 L 17.667969 132.152344 L 19.226562 132.078125 C 19.371094 132.074219 22.8125 131.925781 26 130.375 C 26.40625 130.175781 26.792969 129.972656 27.167969 129.765625 C 29.125 130.828125 32.074219 132.367188 35.421875 133.121094 L 34.359375 136.429688 L 36.21875 136.207031 C 39.226562 135.867188 41.84375 134.792969 43.601562 133.890625 C 44.933594 133.835938 46.261719 133.707031 47.558594 133.503906 L 46.925781 132.796875 C 45.394531 131.042969 44.585938 129.046875 44.585938 127.019531 Z M 44.585938 127.019531 "/>
<path style=" stroke:none;fill-rule:nonzero;fill:rgb(100%,100%,100%);fill-opacity:1;" d="M 34.359375 117.605469 L 36.21875 117.832031 C 39.242188 118.175781 41.867188 119.246094 43.628906 120.152344 C 44.945312 120.203125 46.25 120.332031 47.53125 120.535156 L 46.921875 121.242188 C 45.390625 122.996094 44.585938 124.988281 44.585938 127.019531 C 44.585938 129.046875 45.394531 131.042969 46.925781 132.796875 L 47.558594 133.503906 C 46.261719 133.707031 44.933594 133.835938 43.601562 133.890625 C 41.84375 134.792969 39.226562 135.867188 36.21875 136.207031 L 34.359375 136.429688 L 35.421875 133.121094 C 32.074219 132.367188 29.125 130.828125 27.167969 129.765625 C 26.792969 129.972656 26.40625 130.175781 26 130.375 C 22.8125 131.925781 19.371094 132.074219 19.226562 132.078125 L 17.667969 132.152344 L 17.882812 131.101562 C 17.90625 130.996094 18.425781 128.710938 20.421875 127.007812 C 18.425781 125.308594 17.90625 123.023438 17.882812 122.917969 L 17.667969 121.882812 L 19.226562 121.9375 C 19.371094 121.945312 22.8125 122.09375 26 123.644531 C 26.414062 123.847656 26.808594 124.050781 27.1875 124.261719 C 29.136719 123.207031 32.089844 121.671875 35.433594 120.914062 Z M 35.003906 118.136719 L 35.859375 120.777344 L 36.011719 121.242188 L 35.53125 121.351562 C 32.828125 121.960938 30.503906 122.976562 27.398438 124.65625 L 27.183594 124.773438 L 26.96875 124.65625 C 26.597656 124.449219 26.210938 124.246094 25.804688 124.046875 C 24.445312 123.386719 22.9375 122.933594 21.394531 122.652344 C 20.84375 122.554688 20.324219 122.484375 19.855469 122.4375 C 19.558594 122.40625 19.335938 122.390625 19.210938 122.386719 L 18.222656 122.351562 L 18.320312 122.820312 C 18.335938 122.902344 18.375 123.039062 18.433594 123.222656 C 18.53125 123.519531 18.65625 123.839844 18.816406 124.171875 C 19.265625 125.105469 19.886719 125.964844 20.710938 126.667969 L 21.113281 127.007812 L 20.710938 127.351562 C 20.335938 127.671875 20 128.027344 19.699219 128.414062 C 19.238281 129.011719 18.878906 129.652344 18.617188 130.296875 C 18.523438 130.527344 18.449219 130.742188 18.390625 130.933594 C 18.371094 131.003906 18.351562 131.066406 18.339844 131.121094 C 18.324219 131.179688 18.332031 131.152344 18.320312 131.199219 L 18.222656 131.679688 L 19.210938 131.632812 C 19.335938 131.628906 19.558594 131.613281 19.855469 131.582031 C 20.324219 131.535156 20.84375 131.464844 21.394531 131.367188 C 22.9375 131.085938 24.445312 130.632812 25.804688 129.972656 C 26.203125 129.777344 26.582031 129.578125 26.949219 129.375 L 27.164062 129.253906 L 27.382812 129.371094 C 30.488281 131.054688 32.816406 132.074219 35.519531 132.683594 L 36 132.792969 L 35.851562 133.257812 L 35 135.902344 L 36.167969 135.761719 C 38.707031 135.472656 41.152344 134.644531 43.394531 133.488281 L 43.484375 133.445312 L 43.585938 133.441406 C 44.613281 133.394531 45.644531 133.324219 46.664062 133.175781 L 46.585938 133.09375 C 44.988281 131.257812 44.136719 129.160156 44.136719 127.019531 C 44.136719 124.875 44.984375 122.78125 46.582031 120.949219 L 46.660156 120.859375 C 45.648438 120.699219 44.628906 120.652344 43.613281 120.597656 L 43.511719 120.59375 L 43.425781 120.550781 C 41.179688 119.398438 38.722656 118.566406 36.164062 118.277344 Z M 35.003906 118.136719 "/>
</g>
<g clip-path="url(#clip10)" clip-rule="nonzero">
<path style=" stroke:none;fill-rule:nonzero;fill:rgb(100%,100%,100%);fill-opacity:1;" d="M 57.757812 125.1875 C 57.289062 124.660156 56.433594 123.855469 55.015625 123.03125 C 53.542969 122.1875 51.855469 121.515625 50.039062 121.054688 L 49.144531 122.097656 C 46.496094 125.136719 46.492188 128.890625 49.136719 131.933594 L 50.078125 132.976562 C 51.878906 132.519531 53.546875 131.859375 55.007812 131.027344 C 57.554688 129.558594 58.753906 127.714844 58.753906 127.019531 C 58.753906 126.359375 58.113281 125.589844 57.757812 125.1875 Z M 51.050781 127.019531 C 50.34375 127.019531 49.765625 126.636719 49.765625 126.164062 C 49.765625 125.691406 50.34375 125.308594 51.050781 125.308594 C 51.761719 125.308594 52.335938 125.691406 52.335938 126.164062 C 52.335938 126.636719 51.761719 127.019531 51.050781 127.019531 Z M 51.050781 127.019531 "/>
<path style=" stroke:none;fill-rule:nonzero;fill:rgb(100%,100%,100%);fill-opacity:1;" d="M 50.039062 121.054688 C 51.855469 121.515625 53.542969 122.1875 55.015625 123.03125 C 56.433594 123.855469 57.289062 124.660156 57.757812 125.1875 C 58.113281 125.589844 58.753906 126.359375 58.753906 127.019531 C 58.753906 127.714844 57.554688 129.558594 55.007812 131.027344 C 53.546875 131.859375 51.878906 132.519531 50.078125 132.976562 L 49.136719 131.933594 C 46.492188 128.890625 46.496094 125.136719 49.144531 122.097656 Z M 50.195312 121.558594 L 49.480469 122.390625 C 46.980469 125.265625 46.976562 128.765625 49.46875 131.632812 L 50.226562 132.472656 C 51.824219 132.070312 53.34375 131.425781 54.785156 130.636719 C 55.910156 129.988281 56.835938 129.222656 57.496094 128.445312 C 58.011719 127.832031 58.308594 127.261719 58.308594 127.019531 C 58.242188 126.414062 57.800781 125.925781 57.421875 125.484375 C 56.679688 124.640625 55.75 124 54.792969 123.421875 C 53.351562 122.59375 51.792969 121.996094 50.195312 121.558594 Z M 51.050781 124.859375 C 51.980469 124.859375 52.78125 125.394531 52.78125 126.164062 C 52.78125 126.929688 51.980469 127.464844 51.050781 127.464844 C 50.125 127.464844 49.320312 126.929688 49.320312 126.164062 C 49.320312 125.394531 50.125 124.859375 51.050781 124.859375 Z M 51.050781 125.308594 C 50.34375 125.308594 49.765625 125.691406 49.765625 126.164062 C 49.765625 126.636719 50.34375 127.019531 51.050781 127.019531 C 51.761719 127.019531 52.335938 126.636719 52.335938 126.164062 C 52.335938 125.691406 51.761719 125.308594 51.050781 125.308594 Z M 51.050781 125.308594 "/>
</g>
<path style="fill-rule:nonzero;fill:rgb(19.607544%,62.353516%,19.999695%);fill-opacity:0.45;stroke-width:0.99628;stroke-linecap:butt;stroke-linejoin:miter;stroke:rgb(100%,100%,100%);stroke-opacity:1;stroke-miterlimit:10;" d="M 74.721116 -74.719126 L 74.721116 -149.440325 L 224.163515 -149.440325 L 224.163515 -74.719126 Z M 74.721116 -74.719126 " transform="matrix(0.996256,0,0,-0.996256,0.99227,3.349722)"/>
<g style="fill:rgb(100%,100%,100%);fill-opacity:0.45;">
  <use xlink:href="#glyph0-3" x="125.775265" y="119.903646"/>
  <use xlink:href="#glyph0-4" x="137.189355" y="119.903646"/>
</g>
<g style="fill:rgb(100%,100%,100%);fill-opacity:0.45;">
  <use xlink:href="#glyph0-4" x="149.238663" y="119.903646"/>
</g>
<g style="fill:rgb(100%,100%,100%);fill-opacity:0.45;">
  <use xlink:href="#glyph0-5" x="161.287971" y="119.903646"/>
</g>
<path style="fill-rule:nonzero;fill:rgb(86.66687%,87.449646%,4.31366%);fill-opacity:1;stroke-width:0.99628;stroke-linecap:butt;stroke-linejoin:miter;stroke:rgb(100%,100%,100%);stroke-opacity:1;stroke-miterlimit:10;" d="M -0.0000832965 -149.440325 L -0.0000832965 -224.161525 L 74.721116 -224.161525 L 74.721116 -149.440325 Z M -0.0000832965 -149.440325 " transform="matrix(0.996256,0,0,-0.996256,0.99227,3.349722)"/>
<g clip-path="url(#clip11)" clip-rule="nonzero">
<path style=" stroke:none;fill-rule:nonzero;fill:rgb(0%,0%,0%);fill-opacity:1;" d="M 44.585938 189.449219 C 44.585938 187.421875 45.390625 185.429688 46.921875 183.675781 L 47.53125 182.964844 C 46.25 182.761719 44.945312 182.632812 43.628906 182.582031 C 41.867188 181.679688 39.242188 180.605469 36.21875 180.265625 L 34.359375 180.039062 L 35.433594 183.347656 C 32.089844 184.101562 29.136719 185.636719 27.1875 186.695312 C 26.808594 186.484375 26.414062 186.277344 26 186.078125 C 22.8125 184.527344 19.371094 184.378906 19.226562 184.371094 L 17.667969 184.316406 L 17.882812 185.347656 C 17.90625 185.457031 18.425781 187.742188 20.421875 189.441406 C 18.425781 191.144531 17.90625 193.425781 17.882812 193.535156 L 17.667969 194.585938 L 19.226562 194.511719 C 19.371094 194.507812 22.8125 194.359375 26 192.804688 C 26.40625 192.609375 26.792969 192.40625 27.167969 192.199219 C 29.125 193.257812 32.074219 194.796875 35.421875 195.554688 L 34.359375 198.863281 L 36.21875 198.636719 C 39.226562 198.296875 41.84375 197.226562 43.601562 196.320312 C 44.933594 196.269531 46.261719 196.140625 47.558594 195.933594 L 46.925781 195.230469 C 45.394531 193.476562 44.585938 191.480469 44.585938 189.449219 Z M 44.585938 189.449219 "/>
</g>
<g clip-path="url(#clip12)" clip-rule="nonzero">
<path style=" stroke:none;fill-rule:nonzero;fill:rgb(0%,0%,0%);fill-opacity:1;" d="M 57.757812 187.621094 C 57.289062 187.089844 56.433594 186.289062 55.015625 185.464844 C 53.542969 184.617188 51.855469 183.949219 50.039062 183.484375 L 49.144531 184.53125 C 46.496094 187.570312 46.492188 191.324219 49.136719 194.363281 L 50.078125 195.410156 C 51.878906 194.953125 53.546875 194.292969 55.007812 193.460938 C 57.554688 191.988281 58.753906 190.148438 58.753906 189.449219 C 58.753906 188.792969 58.113281 188.019531 57.757812 187.621094 Z M 51.050781 189.449219 C 50.34375 189.449219 49.765625 189.066406 49.765625 188.59375 C 49.765625 188.121094 50.34375 187.738281 51.050781 187.738281 C 51.761719 187.738281 52.335938 188.121094 52.335938 188.59375 C 52.335938 189.066406 51.761719 189.449219 51.050781 189.449219 Z M 51.050781 189.449219 "/>
</g>
<path style="fill-rule:nonzero;fill:rgb(86.66687%,87.449646%,4.31366%);fill-opacity:1;stroke-width:0.99628;stroke-linecap:butt;stroke-linejoin:miter;stroke:rgb(100%,100%,100%);stroke-opacity:1;stroke-miterlimit:10;" d="M 74.721116 -149.440325 L 74.721116 -224.161525 L 224.163515 -224.161525 L 224.163515 -149.440325 Z M 74.721116 -149.440325 " transform="matrix(0.996256,0,0,-0.996256,0.99227,3.349722)"/>
<g style="fill:rgb(0%,0%,0%);fill-opacity:1;">
  <use xlink:href="#glyph0-6" x="102.847441" y="196.280578"/>
  <use xlink:href="#glyph0-4" x="121.864306" y="196.280578"/>
</g>
<g style="fill:rgb(0%,0%,0%);fill-opacity:1;">
  <use xlink:href="#glyph0-5" x="133.913615" y="196.280578"/>
  <use xlink:href="#glyph0-7" x="146.598142" y="196.280578"/>
  <use xlink:href="#glyph0-8" x="157.059403" y="196.280578"/>
  <use xlink:href="#glyph0-9" x="166.468583" y="196.280578"/>
  <use xlink:href="#glyph0-10" x="177.565063" y="196.280578"/>
  <use xlink:href="#glyph0-7" x="186.438276" y="196.280578"/>
</g>
<path style="fill-rule:nonzero;fill:rgb(99.215698%,49.804688%,15.684509%);fill-opacity:0.45;stroke-width:0.99628;stroke-linecap:butt;stroke-linejoin:miter;stroke:rgb(100%,100%,100%);stroke-opacity:1;stroke-miterlimit:10;" d="M -0.0000832965 -224.161525 L -0.0000832965 -298.882724 L 74.721116 -298.882724 L 74.721116 -224.161525 Z M -0.0000832965 -224.161525 " transform="matrix(0.996256,0,0,-0.996256,0.99227,3.349722)"/>
<g clip-path="url(#clip13)" clip-rule="nonzero">
<path style=" stroke:none;fill-rule:nonzero;fill:rgb(100%,100%,100%);fill-opacity:1;" d="M 58.605469 278.65625 L 54.25 278.65625 C 54.023438 278.65625 53.878906 278.414062 53.878906 278.089844 C 53.878906 277.847656 53.957031 277.699219 54.105469 277.554688 L 58.054688 274.753906 C 58.136719 274.707031 58.183594 274.578125 58.183594 274.429688 C 58.183594 274.335938 58.152344 274.238281 58.101562 274.15625 C 58.101562 274.15625 53.601562 268.265625 43.972656 268.003906 L 43.972656 276.148438 L 41.738281 276.148438 L 41.738281 268.683594 L 40.410156 268.683594 L 40.410156 276.164062 L 38.175781 276.164062 L 38.175781 270.042969 L 36.847656 270.042969 L 36.847656 276.179688 L 34.613281 276.179688 L 34.613281 271.386719 L 33.289062 271.386719 L 33.289062 276.164062 L 31.054688 276.164062 L 31.054688 272.746094 L 29.726562 272.746094 L 29.726562 276.164062 L 27.703125 276.164062 L 17.667969 269.023438 L 21.84375 276.875 L 17.667969 284.773438 L 27.769531 277.585938 L 29.710938 277.585938 L 29.710938 281.035156 L 31.039062 281.035156 L 31.039062 277.585938 L 33.273438 277.585938 L 33.273438 282.363281 L 34.597656 282.363281 L 34.597656 277.585938 L 36.832031 277.585938 L 36.832031 283.722656 L 38.160156 283.722656 L 38.160156 277.585938 L 40.394531 277.585938 L 40.394531 285.066406 L 41.722656 285.066406 L 41.722656 277.585938 L 43.957031 277.585938 L 43.957031 285.714844 C 49.183594 285.632812 54.542969 283.949219 58.71875 278.996094 C 58.75 278.964844 58.75 278.898438 58.75 278.851562 C 58.75 278.738281 58.667969 278.65625 58.605469 278.65625 Z M 51.144531 276.035156 C 50.089844 276.035156 49.199219 275.125 49.199219 273.992188 C 49.199219 272.894531 50.105469 271.953125 51.144531 271.953125 C 52.195312 271.953125 53.085938 272.859375 53.085938 273.992188 C 53.101562 275.09375 52.195312 276.035156 51.144531 276.035156 Z M 51.144531 276.035156 "/>
<path style=" stroke:none;fill-rule:nonzero;fill:rgb(100%,100%,100%);fill-opacity:1;" d="M 43.972656 268.003906 C 53.601562 268.265625 58.101562 274.15625 58.101562 274.15625 C 58.152344 274.238281 58.183594 274.335938 58.183594 274.429688 C 58.183594 274.578125 58.136719 274.707031 58.054688 274.753906 L 54.105469 277.554688 C 53.957031 277.699219 53.878906 277.847656 53.878906 278.089844 C 53.878906 278.414062 54.023438 278.65625 54.25 278.65625 L 58.605469 278.65625 C 58.667969 278.65625 58.75 278.738281 58.75 278.851562 C 58.75 278.898438 58.75 278.964844 58.71875 278.996094 C 54.542969 283.949219 49.183594 285.632812 43.957031 285.714844 L 43.957031 277.585938 L 41.722656 277.585938 L 41.722656 285.066406 L 40.394531 285.066406 L 40.394531 277.585938 L 38.160156 277.585938 L 38.160156 283.722656 L 36.832031 283.722656 L 36.832031 277.585938 L 34.597656 277.585938 L 34.597656 282.363281 L 33.273438 282.363281 L 33.273438 277.585938 L 31.039062 277.585938 L 31.039062 281.035156 L 29.710938 281.035156 L 29.710938 277.585938 L 27.769531 277.585938 L 17.667969 284.773438 L 21.84375 276.875 L 17.667969 269.023438 L 27.703125 276.164062 L 29.726562 276.164062 L 29.726562 272.746094 L 31.054688 272.746094 L 31.054688 276.164062 L 33.289062 276.164062 L 33.289062 271.386719 L 34.613281 271.386719 L 34.613281 276.179688 L 36.847656 276.179688 L 36.847656 270.042969 L 38.175781 270.042969 L 38.175781 276.164062 L 40.410156 276.164062 L 40.410156 268.683594 L 41.738281 268.683594 L 41.738281 276.148438 L 43.972656 276.148438 Z M 44.457031 268.511719 L 44.457031 276.632812 L 41.25 276.632812 L 41.25 269.171875 L 40.894531 269.171875 L 40.894531 276.648438 L 37.691406 276.648438 L 37.691406 270.53125 L 37.335938 270.53125 L 37.335938 276.664062 L 34.128906 276.664062 L 34.128906 271.875 L 33.773438 271.875 L 33.773438 276.648438 L 30.566406 276.648438 L 30.566406 273.234375 L 30.210938 273.234375 L 30.210938 276.648438 L 27.546875 276.648438 L 27.421875 276.558594 L 19.0625 270.613281 L 22.273438 276.648438 L 22.394531 276.875 L 22.273438 277.101562 L 19.054688 283.191406 L 27.488281 277.191406 L 27.613281 277.101562 L 30.195312 277.101562 L 30.195312 280.550781 L 30.550781 280.550781 L 30.550781 277.101562 L 33.757812 277.101562 L 33.757812 281.878906 L 34.113281 281.878906 L 34.113281 277.101562 L 37.320312 277.101562 L 37.320312 283.238281 L 37.675781 283.238281 L 37.675781 277.101562 L 40.878906 277.101562 L 40.878906 284.582031 L 41.234375 284.582031 L 41.234375 277.101562 L 44.441406 277.101562 L 44.441406 285.210938 C 49.867188 285.078125 54.28125 283.042969 57.945312 279.140625 L 54.25 279.140625 C 53.703125 279.140625 53.390625 278.65625 53.390625 278.089844 C 53.390625 277.726562 53.515625 277.457031 53.761719 277.210938 L 53.789062 277.183594 L 53.824219 277.160156 L 57.691406 274.417969 L 57.671875 274.394531 C 57.628906 274.34375 57.578125 274.28125 57.515625 274.210938 C 57.339844 274.011719 57.125 273.785156 56.871094 273.542969 C 56.148438 272.84375 55.269531 272.140625 54.230469 271.484375 C 51.304688 269.644531 47.90625 268.660156 44.457031 268.511719 Z M 51.144531 271.46875 C 52.476562 271.46875 53.570312 272.605469 53.570312 273.988281 C 53.589844 275.351562 52.472656 276.519531 51.144531 276.519531 C 49.808594 276.519531 48.714844 275.382812 48.714844 273.992188 C 48.714844 272.632812 49.828125 271.46875 51.144531 271.46875 Z M 51.144531 271.953125 C 50.105469 271.953125 49.199219 272.894531 49.199219 273.992188 C 49.199219 275.125 50.089844 276.035156 51.144531 276.035156 C 52.195312 276.035156 53.101562 275.09375 53.085938 273.992188 C 53.085938 272.859375 52.195312 271.953125 51.144531 271.953125 Z M 51.144531 271.953125 "/>
</g>
<g clip-path="url(#clip14)" clip-rule="nonzero">
<path style=" stroke:none;fill-rule:nonzero;fill:rgb(100%,100%,100%);fill-opacity:1;" d="M 58.605469 252.722656 L 54.25 252.722656 C 54.023438 252.722656 53.878906 252.480469 53.878906 252.15625 C 53.878906 251.914062 53.957031 251.769531 54.105469 251.625 L 58.054688 248.824219 C 58.136719 248.773438 58.183594 248.644531 58.183594 248.5 C 58.183594 248.402344 58.152344 248.304688 58.101562 248.222656 C 58.101562 248.222656 53.601562 242.332031 43.972656 242.074219 L 43.972656 250.214844 L 41.738281 250.214844 L 41.738281 242.753906 L 40.410156 242.753906 L 40.410156 250.230469 L 38.175781 250.230469 L 38.175781 244.113281 L 36.847656 244.113281 L 36.847656 250.246094 L 34.613281 250.246094 L 34.613281 245.457031 L 33.289062 245.457031 L 33.289062 250.230469 L 31.054688 250.230469 L 31.054688 246.816406 L 29.726562 246.816406 L 29.726562 250.230469 L 27.703125 250.230469 L 17.667969 243.09375 L 21.84375 250.945312 L 17.667969 258.84375 L 27.769531 251.65625 L 29.710938 251.65625 L 29.710938 255.105469 L 31.039062 255.105469 L 31.039062 251.65625 L 33.273438 251.65625 L 33.273438 256.429688 L 34.597656 256.429688 L 34.597656 251.65625 L 36.832031 251.65625 L 36.832031 257.789062 L 38.160156 257.789062 L 38.160156 251.65625 L 40.394531 251.65625 L 40.394531 259.132812 L 41.722656 259.132812 L 41.722656 251.65625 L 43.957031 251.65625 L 43.957031 259.78125 C 49.183594 259.699219 54.542969 258.015625 58.71875 253.0625 C 58.75 253.03125 58.75 252.96875 58.75 252.917969 C 58.75 252.804688 58.667969 252.722656 58.605469 252.722656 Z M 51.144531 250.101562 C 50.089844 250.101562 49.199219 249.195312 49.199219 248.0625 C 49.199219 246.960938 50.105469 246.023438 51.144531 246.023438 C 52.195312 246.023438 53.085938 246.929688 53.085938 248.0625 C 53.101562 249.164062 52.195312 250.101562 51.144531 250.101562 Z M 51.144531 250.101562 "/>
<path style=" stroke:none;fill-rule:nonzero;fill:rgb(100%,100%,100%);fill-opacity:1;" d="M 43.972656 242.074219 C 53.601562 242.332031 58.101562 248.222656 58.101562 248.222656 C 58.152344 248.304688 58.183594 248.402344 58.183594 248.5 C 58.183594 248.644531 58.136719 248.773438 58.054688 248.824219 L 54.105469 251.625 C 53.957031 251.769531 53.878906 251.914062 53.878906 252.15625 C 53.878906 252.480469 54.023438 252.722656 54.25 252.722656 L 58.605469 252.722656 C 58.667969 252.722656 58.75 252.804688 58.75 252.917969 C 58.75 252.96875 58.75 253.03125 58.71875 253.0625 C 54.542969 258.015625 49.183594 259.699219 43.957031 259.78125 L 43.957031 251.65625 L 41.722656 251.65625 L 41.722656 259.132812 L 40.394531 259.132812 L 40.394531 251.65625 L 38.160156 251.65625 L 38.160156 257.789062 L 36.832031 257.789062 L 36.832031 251.65625 L 34.597656 251.65625 L 34.597656 256.429688 L 33.273438 256.429688 L 33.273438 251.65625 L 31.039062 251.65625 L 31.039062 255.105469 L 29.710938 255.105469 L 29.710938 251.65625 L 27.769531 251.65625 L 17.667969 258.84375 L 21.84375 250.945312 L 17.667969 243.09375 L 27.703125 250.230469 L 29.726562 250.230469 L 29.726562 246.816406 L 31.054688 246.816406 L 31.054688 250.230469 L 33.289062 250.230469 L 33.289062 245.457031 L 34.613281 245.457031 L 34.613281 250.246094 L 36.847656 250.246094 L 36.847656 244.113281 L 38.175781 244.113281 L 38.175781 250.230469 L 40.410156 250.230469 L 40.410156 242.753906 L 41.738281 242.753906 L 41.738281 250.214844 L 43.972656 250.214844 Z M 44.457031 242.578125 L 44.457031 250.699219 L 41.25 250.699219 L 41.25 243.238281 L 40.894531 243.238281 L 40.894531 250.71875 L 37.691406 250.71875 L 37.691406 244.597656 L 37.335938 244.597656 L 37.335938 250.734375 L 34.128906 250.734375 L 34.128906 245.941406 L 33.773438 245.941406 L 33.773438 250.71875 L 30.566406 250.71875 L 30.566406 247.300781 L 30.210938 247.300781 L 30.210938 250.71875 L 27.546875 250.71875 L 27.421875 250.625 L 19.0625 244.679688 L 22.273438 250.714844 L 22.394531 250.941406 L 22.273438 251.171875 L 19.054688 257.261719 L 27.488281 251.261719 L 27.613281 251.167969 L 30.195312 251.167969 L 30.195312 254.617188 L 30.550781 254.617188 L 30.550781 251.167969 L 33.757812 251.167969 L 33.757812 255.945312 L 34.113281 255.945312 L 34.113281 251.167969 L 37.320312 251.167969 L 37.320312 257.304688 L 37.675781 257.304688 L 37.675781 251.167969 L 40.878906 251.167969 L 40.878906 258.648438 L 41.234375 258.648438 L 41.234375 251.167969 L 44.441406 251.167969 L 44.441406 259.277344 C 49.867188 259.144531 54.28125 257.113281 57.945312 253.210938 L 54.25 253.210938 C 53.703125 253.210938 53.390625 252.722656 53.390625 252.15625 C 53.390625 251.796875 53.515625 251.527344 53.761719 251.28125 L 53.789062 251.25 L 53.824219 251.226562 L 57.691406 248.484375 L 57.671875 248.460938 C 57.628906 248.410156 57.578125 248.351562 57.515625 248.28125 C 57.339844 248.078125 57.125 247.855469 56.871094 247.609375 C 56.148438 246.910156 55.269531 246.210938 54.230469 245.554688 C 51.304688 243.710938 47.90625 242.726562 44.457031 242.578125 Z M 51.144531 245.539062 C 52.476562 245.539062 53.570312 246.675781 53.570312 248.054688 C 53.589844 249.417969 52.472656 250.585938 51.144531 250.585938 C 49.808594 250.585938 48.714844 249.449219 48.714844 248.0625 C 48.714844 246.703125 49.828125 245.539062 51.144531 245.539062 Z M 51.144531 246.023438 C 50.105469 246.023438 49.199219 246.960938 49.199219 248.0625 C 49.199219 249.195312 50.089844 250.101562 51.144531 250.101562 C 52.195312 250.101562 53.101562 249.164062 53.085938 248.0625 C 53.085938 246.929688 52.195312 246.023438 51.144531 246.023438 Z M 51.144531 246.023438 "/>
</g>
<path style="fill-rule:nonzero;fill:rgb(99.215698%,49.804688%,15.684509%);fill-opacity:0.45;stroke-width:0.99628;stroke-linecap:butt;stroke-linejoin:miter;stroke:rgb(100%,100%,100%);stroke-opacity:1;stroke-miterlimit:10;" d="M 74.721116 -224.161525 L 74.721116 -298.882724 L 224.163515 -298.882724 L 224.163515 -224.161525 Z M 74.721116 -224.161525 " transform="matrix(0.996256,0,0,-0.996256,0.99227,3.349722)"/>
<g style="fill:rgb(100%,100%,100%);fill-opacity:0.45;">
  <use xlink:href="#glyph0-11" x="126.777498" y="266.46379"/>
</g>
<g style="fill:rgb(100%,100%,100%);fill-opacity:0.45;">
  <use xlink:href="#glyph0-4" x="140.097244" y="266.46379"/>
</g>
<g style="fill:rgb(100%,100%,100%);fill-opacity:0.45;">
  <use xlink:href="#glyph0-4" x="152.146553" y="266.46379"/>
  <use xlink:href="#glyph0-8" x="163.560642" y="266.46379"/>
</g>
<path style="fill-rule:nonzero;fill:rgb(83.137512%,16.471863%,18.429565%);fill-opacity:0.45;stroke-width:0.99628;stroke-linecap:butt;stroke-linejoin:miter;stroke:rgb(100%,100%,100%);stroke-opacity:1;stroke-miterlimit:10;" d="M -0.0000832965 -298.882724 L -0.0000832965 -373.603923 L 74.721116 -373.603923 L 74.721116 -298.882724 Z M -0.0000832965 -298.882724 " transform="matrix(0.996256,0,0,-0.996256,0.99227,3.349722)"/>
<g clip-path="url(#clip15)" clip-rule="nonzero">
<path style=" stroke:none;fill-rule:nonzero;fill:rgb(100%,100%,100%);fill-opacity:1;" d="M 58.605469 340.132812 L 54.25 340.132812 C 54.023438 340.132812 53.878906 339.890625 53.878906 339.566406 C 53.878906 339.320312 53.957031 339.175781 54.105469 339.03125 L 58.054688 336.230469 C 58.136719 336.183594 58.183594 336.054688 58.183594 335.90625 C 58.183594 335.808594 58.152344 335.710938 58.101562 335.632812 C 58.101562 335.632812 53.601562 329.738281 43.972656 329.480469 L 43.972656 337.621094 L 41.738281 337.621094 L 41.738281 330.160156 L 40.410156 330.160156 L 40.410156 337.636719 L 38.175781 337.636719 L 38.175781 331.519531 L 36.847656 331.519531 L 36.847656 337.65625 L 34.613281 337.65625 L 34.613281 332.863281 L 33.289062 332.863281 L 33.289062 337.636719 L 31.054688 337.636719 L 31.054688 334.222656 L 29.726562 334.222656 L 29.726562 337.636719 L 27.703125 337.636719 L 17.667969 330.5 L 21.84375 338.351562 L 17.667969 346.25 L 27.769531 339.0625 L 29.710938 339.0625 L 29.710938 342.511719 L 31.039062 342.511719 L 31.039062 339.0625 L 33.273438 339.0625 L 33.273438 343.839844 L 34.597656 343.839844 L 34.597656 339.0625 L 36.832031 339.0625 L 36.832031 345.199219 L 38.160156 345.199219 L 38.160156 339.0625 L 40.394531 339.0625 L 40.394531 346.542969 L 41.722656 346.542969 L 41.722656 339.0625 L 43.957031 339.0625 L 43.957031 347.1875 C 49.183594 347.109375 54.542969 345.425781 58.71875 340.472656 C 58.75 340.4375 58.75 340.375 58.75 340.324219 C 58.75 340.210938 58.667969 340.132812 58.605469 340.132812 Z M 51.144531 337.507812 C 50.089844 337.507812 49.199219 336.601562 49.199219 335.46875 C 49.199219 334.371094 50.105469 333.429688 51.144531 333.429688 C 52.195312 333.429688 53.085938 334.335938 53.085938 335.46875 C 53.101562 336.570312 52.195312 337.507812 51.144531 337.507812 Z M 51.144531 337.507812 "/>
<path style=" stroke:none;fill-rule:nonzero;fill:rgb(100%,100%,100%);fill-opacity:1;" d="M 43.972656 329.480469 C 53.601562 329.738281 58.101562 335.632812 58.101562 335.632812 C 58.152344 335.710938 58.183594 335.808594 58.183594 335.90625 C 58.183594 336.054688 58.136719 336.183594 58.054688 336.230469 L 54.105469 339.03125 C 53.957031 339.175781 53.878906 339.320312 53.878906 339.566406 C 53.878906 339.890625 54.023438 340.132812 54.25 340.132812 L 58.605469 340.132812 C 58.667969 340.132812 58.75 340.210938 58.75 340.324219 C 58.75 340.375 58.75 340.4375 58.71875 340.472656 C 54.542969 345.425781 49.183594 347.109375 43.957031 347.1875 L 43.957031 339.0625 L 41.722656 339.0625 L 41.722656 346.542969 L 40.394531 346.542969 L 40.394531 339.0625 L 38.160156 339.0625 L 38.160156 345.199219 L 36.832031 345.199219 L 36.832031 339.0625 L 34.597656 339.0625 L 34.597656 343.839844 L 33.273438 343.839844 L 33.273438 339.0625 L 31.039062 339.0625 L 31.039062 342.511719 L 29.710938 342.511719 L 29.710938 339.0625 L 27.769531 339.0625 L 17.667969 346.25 L 21.84375 338.351562 L 17.667969 330.5 L 27.703125 337.636719 L 29.726562 337.636719 L 29.726562 334.222656 L 31.054688 334.222656 L 31.054688 337.636719 L 33.289062 337.636719 L 33.289062 332.863281 L 34.613281 332.863281 L 34.613281 337.65625 L 36.847656 337.65625 L 36.847656 331.519531 L 38.175781 331.519531 L 38.175781 337.636719 L 40.410156 337.636719 L 40.410156 330.160156 L 41.738281 330.160156 L 41.738281 337.621094 L 43.972656 337.621094 Z M 44.457031 329.988281 L 44.457031 338.109375 L 41.25 338.109375 L 41.25 330.644531 L 40.894531 330.644531 L 40.894531 338.125 L 37.691406 338.125 L 37.691406 332.007812 L 37.335938 332.007812 L 37.335938 338.140625 L 34.128906 338.140625 L 34.128906 333.347656 L 33.773438 333.347656 L 33.773438 338.125 L 30.566406 338.125 L 30.566406 334.707031 L 30.210938 334.707031 L 30.210938 338.125 L 27.546875 338.125 L 27.421875 338.035156 L 19.0625 332.089844 L 22.273438 338.121094 L 22.394531 338.351562 L 22.273438 338.578125 L 19.054688 344.667969 L 27.488281 338.667969 L 27.613281 338.578125 L 30.195312 338.578125 L 30.195312 342.023438 L 30.550781 342.023438 L 30.550781 338.578125 L 33.757812 338.578125 L 33.757812 343.351562 L 34.113281 343.351562 L 34.113281 338.578125 L 37.320312 338.578125 L 37.320312 344.714844 L 37.675781 344.714844 L 37.675781 338.578125 L 40.878906 338.578125 L 40.878906 346.054688 L 41.234375 346.054688 L 41.234375 338.578125 L 44.441406 338.578125 L 44.441406 346.6875 C 49.867188 346.550781 54.28125 344.519531 57.945312 340.617188 L 54.25 340.617188 C 53.703125 340.617188 53.390625 340.132812 53.390625 339.566406 C 53.390625 339.203125 53.515625 338.933594 53.761719 338.6875 L 53.789062 338.660156 L 53.824219 338.636719 L 57.691406 335.894531 L 57.671875 335.871094 C 57.628906 335.820312 57.578125 335.757812 57.515625 335.6875 C 57.339844 335.488281 57.125 335.261719 56.871094 335.019531 C 56.148438 334.320312 55.269531 333.617188 54.230469 332.960938 C 51.304688 331.121094 47.90625 330.132812 44.457031 329.988281 Z M 51.144531 332.945312 C 52.476562 332.945312 53.570312 334.082031 53.570312 335.460938 C 53.589844 336.828125 52.472656 337.996094 51.144531 337.996094 C 49.808594 337.996094 48.714844 336.855469 48.714844 335.46875 C 48.714844 334.109375 49.828125 332.945312 51.144531 332.945312 Z M 51.144531 333.429688 C 50.105469 333.429688 49.199219 334.371094 49.199219 335.46875 C 49.199219 336.601562 50.089844 337.507812 51.144531 337.507812 C 52.195312 337.507812 53.101562 336.570312 53.085938 335.46875 C 53.085938 334.335938 52.195312 333.429688 51.144531 333.429688 Z M 51.144531 333.429688 "/>
</g>
<g clip-path="url(#clip16)" clip-rule="nonzero">
<path style=" stroke:none;fill-rule:nonzero;fill:rgb(100%,100%,100%);fill-opacity:1;" d="M 58.605469 314.199219 L 54.25 314.199219 C 54.023438 314.199219 53.878906 313.957031 53.878906 313.632812 C 53.878906 313.390625 53.957031 313.246094 54.105469 313.097656 L 58.054688 310.296875 C 58.136719 310.25 58.183594 310.121094 58.183594 309.972656 C 58.183594 309.878906 58.152344 309.78125 58.101562 309.699219 C 58.101562 309.699219 53.601562 303.808594 43.972656 303.546875 L 43.972656 311.691406 L 41.738281 311.691406 L 41.738281 304.226562 L 40.410156 304.226562 L 40.410156 311.707031 L 38.175781 311.707031 L 38.175781 305.589844 L 36.847656 305.589844 L 36.847656 311.722656 L 34.613281 311.722656 L 34.613281 306.933594 L 33.289062 306.933594 L 33.289062 311.707031 L 31.054688 311.707031 L 31.054688 308.292969 L 29.726562 308.292969 L 29.726562 311.707031 L 27.703125 311.707031 L 17.667969 304.570312 L 21.84375 312.417969 L 17.667969 320.316406 L 27.769531 313.132812 L 29.710938 313.132812 L 29.710938 316.578125 L 31.039062 316.578125 L 31.039062 313.132812 L 33.273438 313.132812 L 33.273438 317.90625 L 34.597656 317.90625 L 34.597656 313.132812 L 36.832031 313.132812 L 36.832031 319.265625 L 38.160156 319.265625 L 38.160156 313.132812 L 40.394531 313.132812 L 40.394531 320.609375 L 41.722656 320.609375 L 41.722656 313.132812 L 43.957031 313.132812 L 43.957031 321.257812 C 49.183594 321.175781 54.542969 319.492188 58.71875 314.539062 C 58.75 314.507812 58.75 314.441406 58.75 314.394531 C 58.75 314.28125 58.667969 314.199219 58.605469 314.199219 Z M 51.144531 311.578125 C 50.089844 311.578125 49.199219 310.671875 49.199219 309.539062 C 49.199219 308.4375 50.105469 307.5 51.144531 307.5 C 52.195312 307.5 53.085938 308.40625 53.085938 309.539062 C 53.101562 310.640625 52.195312 311.578125 51.144531 311.578125 Z M 51.144531 311.578125 "/>
<path style=" stroke:none;fill-rule:nonzero;fill:rgb(100%,100%,100%);fill-opacity:1;" d="M 43.972656 303.546875 C 53.601562 303.808594 58.101562 309.699219 58.101562 309.699219 C 58.152344 309.78125 58.183594 309.878906 58.183594 309.972656 C 58.183594 310.121094 58.136719 310.25 58.054688 310.296875 L 54.105469 313.097656 C 53.957031 313.246094 53.878906 313.390625 53.878906 313.632812 C 53.878906 313.957031 54.023438 314.199219 54.25 314.199219 L 58.605469 314.199219 C 58.667969 314.199219 58.75 314.28125 58.75 314.394531 C 58.75 314.441406 58.75 314.507812 58.71875 314.539062 C 54.542969 319.492188 49.183594 321.175781 43.957031 321.257812 L 43.957031 313.132812 L 41.722656 313.132812 L 41.722656 320.609375 L 40.394531 320.609375 L 40.394531 313.132812 L 38.160156 313.132812 L 38.160156 319.265625 L 36.832031 319.265625 L 36.832031 313.132812 L 34.597656 313.132812 L 34.597656 317.90625 L 33.273438 317.90625 L 33.273438 313.132812 L 31.039062 313.132812 L 31.039062 316.578125 L 29.710938 316.578125 L 29.710938 313.132812 L 27.769531 313.132812 L 17.667969 320.316406 L 21.84375 312.417969 L 17.667969 304.570312 L 27.703125 311.707031 L 29.726562 311.707031 L 29.726562 308.292969 L 31.054688 308.292969 L 31.054688 311.707031 L 33.289062 311.707031 L 33.289062 306.933594 L 34.613281 306.933594 L 34.613281 311.722656 L 36.847656 311.722656 L 36.847656 305.589844 L 38.175781 305.589844 L 38.175781 311.707031 L 40.410156 311.707031 L 40.410156 304.226562 L 41.738281 304.226562 L 41.738281 311.691406 L 43.972656 311.691406 Z M 44.457031 304.054688 L 44.457031 312.175781 L 41.25 312.175781 L 41.25 304.714844 L 40.894531 304.714844 L 40.894531 312.191406 L 37.691406 312.191406 L 37.691406 306.074219 L 37.335938 306.074219 L 37.335938 312.207031 L 34.128906 312.207031 L 34.128906 307.417969 L 33.773438 307.417969 L 33.773438 312.191406 L 30.566406 312.191406 L 30.566406 308.777344 L 30.210938 308.777344 L 30.210938 312.191406 L 27.546875 312.191406 L 27.421875 312.101562 L 19.0625 306.15625 L 22.273438 312.191406 L 22.394531 312.417969 L 22.273438 312.644531 L 19.054688 318.738281 L 27.488281 312.734375 L 27.613281 312.644531 L 30.195312 312.644531 L 30.195312 316.09375 L 30.550781 316.09375 L 30.550781 312.644531 L 33.757812 312.644531 L 33.757812 317.421875 L 34.113281 317.421875 L 34.113281 312.644531 L 37.320312 312.644531 L 37.320312 318.78125 L 37.675781 318.78125 L 37.675781 312.644531 L 40.878906 312.644531 L 40.878906 320.125 L 41.234375 320.125 L 41.234375 312.644531 L 44.441406 312.644531 L 44.441406 320.753906 C 49.867188 320.621094 54.28125 318.589844 57.945312 314.6875 L 54.25 314.6875 C 53.703125 314.6875 53.390625 314.199219 53.390625 313.632812 C 53.390625 313.273438 53.515625 313.003906 53.761719 312.753906 L 53.789062 312.726562 L 53.824219 312.703125 L 57.691406 309.960938 L 57.671875 309.9375 C 57.628906 309.886719 57.578125 309.824219 57.515625 309.757812 C 57.339844 309.554688 57.125 309.328125 56.871094 309.085938 C 56.148438 308.386719 55.269531 307.6875 54.230469 307.03125 C 51.304688 305.1875 47.90625 304.203125 44.457031 304.054688 Z M 51.144531 307.011719 C 52.476562 307.011719 53.570312 308.148438 53.570312 309.53125 C 53.589844 310.894531 52.472656 312.0625 51.144531 312.0625 C 49.808594 312.0625 48.714844 310.925781 48.714844 309.539062 C 48.714844 308.179688 49.828125 307.011719 51.144531 307.011719 Z M 51.144531 307.5 C 50.105469 307.5 49.199219 308.4375 49.199219 309.539062 C 49.199219 310.671875 50.089844 311.578125 51.144531 311.578125 C 52.195312 311.578125 53.101562 310.640625 53.085938 309.539062 C 53.085938 308.40625 52.195312 307.5 51.144531 307.5 Z M 51.144531 307.5 "/>
</g>
<g clip-path="url(#clip17)" clip-rule="nonzero">
<path style=" stroke:none;fill-rule:nonzero;fill:rgb(100%,100%,100%);fill-opacity:1;" d="M 58.605469 366.0625 L 54.25 366.0625 C 54.023438 366.0625 53.878906 365.820312 53.878906 365.496094 C 53.878906 365.253906 53.957031 365.109375 54.105469 364.964844 L 58.054688 362.160156 C 58.136719 362.113281 58.183594 361.984375 58.183594 361.839844 C 58.183594 361.742188 58.152344 361.644531 58.101562 361.5625 C 58.101562 361.5625 53.601562 355.671875 43.972656 355.414062 L 43.972656 363.554688 L 41.738281 363.554688 L 41.738281 356.09375 L 40.410156 356.09375 L 40.410156 363.570312 L 38.175781 363.570312 L 38.175781 357.453125 L 36.847656 357.453125 L 36.847656 363.585938 L 34.613281 363.585938 L 34.613281 358.796875 L 33.289062 358.796875 L 33.289062 363.570312 L 31.054688 363.570312 L 31.054688 360.15625 L 29.726562 360.15625 L 29.726562 363.570312 L 27.703125 363.570312 L 17.667969 356.429688 L 21.84375 364.28125 L 17.667969 372.183594 L 27.769531 364.996094 L 29.710938 364.996094 L 29.710938 368.441406 L 31.039062 368.441406 L 31.039062 364.996094 L 33.273438 364.996094 L 33.273438 369.769531 L 34.597656 369.769531 L 34.597656 364.996094 L 36.832031 364.996094 L 36.832031 371.128906 L 38.160156 371.128906 L 38.160156 364.996094 L 40.394531 364.996094 L 40.394531 372.472656 L 41.722656 372.472656 L 41.722656 364.996094 L 43.957031 364.996094 L 43.957031 373.121094 C 49.183594 373.039062 54.542969 371.355469 58.71875 366.402344 C 58.75 366.371094 58.75 366.304688 58.75 366.257812 C 58.75 366.144531 58.667969 366.0625 58.605469 366.0625 Z M 51.144531 363.441406 C 50.089844 363.441406 49.199219 362.535156 49.199219 361.402344 C 49.199219 360.300781 50.105469 359.363281 51.144531 359.363281 C 52.195312 359.363281 53.085938 360.269531 53.085938 361.402344 C 53.101562 362.5 52.195312 363.441406 51.144531 363.441406 Z M 51.144531 363.441406 "/>
<path style=" stroke:none;fill-rule:nonzero;fill:rgb(100%,100%,100%);fill-opacity:1;" d="M 43.972656 355.414062 C 53.601562 355.671875 58.101562 361.5625 58.101562 361.5625 C 58.152344 361.644531 58.183594 361.742188 58.183594 361.839844 C 58.183594 361.984375 58.136719 362.113281 58.054688 362.160156 L 54.105469 364.964844 C 53.957031 365.109375 53.878906 365.253906 53.878906 365.496094 C 53.878906 365.820312 54.023438 366.0625 54.25 366.0625 L 58.605469 366.0625 C 58.667969 366.0625 58.75 366.144531 58.75 366.257812 C 58.75 366.304688 58.75 366.371094 58.71875 366.402344 C 54.542969 371.355469 49.183594 373.039062 43.957031 373.121094 L 43.957031 364.996094 L 41.722656 364.996094 L 41.722656 372.472656 L 40.394531 372.472656 L 40.394531 364.996094 L 38.160156 364.996094 L 38.160156 371.128906 L 36.832031 371.128906 L 36.832031 364.996094 L 34.597656 364.996094 L 34.597656 369.769531 L 33.273438 369.769531 L 33.273438 364.996094 L 31.039062 364.996094 L 31.039062 368.441406 L 29.710938 368.441406 L 29.710938 364.996094 L 27.769531 364.996094 L 17.667969 372.183594 L 21.84375 364.28125 L 17.667969 356.429688 L 27.703125 363.570312 L 29.726562 363.570312 L 29.726562 360.15625 L 31.054688 360.15625 L 31.054688 363.570312 L 33.289062 363.570312 L 33.289062 358.796875 L 34.613281 358.796875 L 34.613281 363.585938 L 36.847656 363.585938 L 36.847656 357.453125 L 38.175781 357.453125 L 38.175781 363.570312 L 40.410156 363.570312 L 40.410156 356.09375 L 41.738281 356.09375 L 41.738281 363.554688 L 43.972656 363.554688 Z M 44.457031 355.917969 L 44.457031 364.039062 L 41.25 364.039062 L 41.25 356.578125 L 40.894531 356.578125 L 40.894531 364.054688 L 37.691406 364.054688 L 37.691406 357.9375 L 37.335938 357.9375 L 37.335938 364.074219 L 34.128906 364.074219 L 34.128906 359.28125 L 33.773438 359.28125 L 33.773438 364.054688 L 30.566406 364.054688 L 30.566406 360.640625 L 30.210938 360.640625 L 30.210938 364.054688 L 27.546875 364.054688 L 27.421875 363.964844 L 19.0625 358.019531 L 22.273438 364.054688 L 22.394531 364.28125 L 22.273438 364.511719 L 19.054688 370.601562 L 27.488281 364.597656 L 27.613281 364.507812 L 30.195312 364.507812 L 30.195312 367.957031 L 30.550781 367.957031 L 30.550781 364.507812 L 33.757812 364.507812 L 33.757812 369.285156 L 34.113281 369.285156 L 34.113281 364.507812 L 37.320312 364.507812 L 37.320312 370.644531 L 37.675781 370.644531 L 37.675781 364.507812 L 40.878906 364.507812 L 40.878906 371.988281 L 41.234375 371.988281 L 41.234375 364.507812 L 44.441406 364.507812 L 44.441406 372.617188 C 49.867188 372.484375 54.28125 370.453125 57.945312 366.546875 L 54.25 366.546875 C 53.703125 366.546875 53.390625 366.0625 53.390625 365.496094 C 53.390625 365.136719 53.515625 364.867188 53.761719 364.621094 L 53.789062 364.589844 L 53.824219 364.566406 L 57.691406 361.824219 L 57.671875 361.800781 C 57.628906 361.75 57.578125 361.6875 57.515625 361.621094 C 57.339844 361.417969 57.125 361.195312 56.871094 360.949219 C 56.148438 360.25 55.269531 359.550781 54.230469 358.894531 C 51.304688 357.050781 47.90625 356.066406 44.457031 355.917969 Z M 51.144531 358.875 C 52.476562 358.875 53.570312 360.015625 53.570312 361.394531 C 53.589844 362.757812 52.472656 363.925781 51.144531 363.925781 C 49.808594 363.925781 48.714844 362.789062 48.714844 361.402344 C 48.714844 360.042969 49.828125 358.875 51.144531 358.875 Z M 51.144531 359.363281 C 50.105469 359.363281 49.199219 360.300781 49.199219 361.402344 C 49.199219 362.535156 50.089844 363.441406 51.144531 363.441406 C 52.195312 363.441406 53.101562 362.5 53.085938 361.402344 C 53.085938 360.269531 52.195312 359.363281 51.144531 359.363281 Z M 51.144531 359.363281 "/>
</g>
<path style="fill-rule:nonzero;fill:rgb(83.137512%,16.471863%,18.429565%);fill-opacity:0.45;stroke-width:0.99628;stroke-linecap:butt;stroke-linejoin:miter;stroke:rgb(100%,100%,100%);stroke-opacity:1;stroke-miterlimit:10;" d="M 74.721116 -298.882724 L 74.721116 -373.603923 L 224.163515 -373.603923 L 224.163515 -298.882724 Z M 74.721116 -298.882724 " transform="matrix(0.996256,0,0,-0.996256,0.99227,3.349722)"/>
<g style="fill:rgb(100%,100%,100%);fill-opacity:0.45;">
  <use xlink:href="#glyph0-12" x="131.641218" y="345.162993"/>
  <use xlink:href="#glyph0-9" x="144.325745" y="345.162993"/>
  <use xlink:href="#glyph0-5" x="155.422225" y="345.162993"/>
</g>
<g clip-path="url(#clip18)" clip-rule="nonzero">
<path style="fill:none;stroke-width:1.99255;stroke-linecap:butt;stroke-linejoin:miter;stroke:rgb(0%,0%,0%);stroke-opacity:1;stroke-miterlimit:10;" d="M -0.0000832965 -149.440325 L -0.0000832965 -224.161525 L 224.163515 -224.161525 L 224.163515 -149.440325 Z M -0.0000832965 -149.440325 " transform="matrix(0.996256,0,0,-0.996256,0.99227,3.349722)"/>
</g>
</g>
</svg>
