<?xml version="1.0" encoding="UTF-8"?>
<!DOCTYPE svg PUBLIC "-//W3C//DTD SVG 1.1//EN" "http://www.w3.org/Graphics/SVG/1.1/DTD/svg11.dtd">
<svg version="1.1" xmlns="http://www.w3.org/2000/svg" xmlns:xlink="http://www.w3.org/1999/xlink" x="0" y="0" width="231" height="76" viewBox="0, 0, 231, 76">
  <defs>
    <clipPath id="Clip_1">
      <path d="M0.06,0.871 L230.902,0.871 L230.902,76 L0.06,76 z"/>
    </clipPath>
  </defs>
  <g id="Layer_1">
    <path d="M17.292,20.737 C16.041,21.205 14.776,21.731 13.453,22.295 C12.131,22.86 10.842,23.419 9.61,24.008 C8.376,24.598 7.276,25.198 6.388,25.893 C5.29,26.754 4.849,27.538 5.035,28.287 C5.22,29.037 6.038,29.66 7.434,30.016 C8.537,30.307 9.113,30.462 10.307,30.786 C11.199,31.01 11.812,31.459 12.166,32.181 C12.519,32.904 12.604,33.801 12.45,34.885 C12.257,36.239 11.778,37.275 10.94,38.177 C10.101,39.079 8.974,39.454 7.602,39.34 C6.142,39.219 5.06,38.646 4.297,37.649 C3.535,36.653 3.197,35.703 3.385,34.517 C2.29,34.44 1.755,34.396 0.724,34.296 C0.531,35.57 0.797,36.816 1.334,38.127 C1.871,39.44 2.643,40.477 3.676,41.267 C4.709,42.057 5.978,42.556 7.529,42.732 C8.97,42.895 10.293,42.675 11.471,42.042 C12.648,41.41 13.613,40.429 14.33,39.068 C15.046,37.71 15.458,36.301 15.674,34.772 C15.94,32.885 15.829,31.381 15.269,30.235 C14.71,29.088 13.74,28.436 12.323,28.164 C11.162,27.935 10.604,27.829 9.542,27.639 C8.739,27.505 8.293,27.201 8.219,26.771 C8.146,26.342 8.432,25.836 9.088,25.241 C9.817,24.579 10.746,24.017 11.827,23.507 C12.906,22.998 14.008,22.562 15.16,22.205 C16.332,21.842 17.028,21.739 17.248,21.977 C17.468,22.216 17.259,22.874 16.583,23.824 C17.772,23.561 18.381,23.423 19.613,23.136 C20.645,21.444 20.995,20.437 20.61,20.1 C20.223,19.763 19.134,20.047 17.292,20.737" fill="#FFFFFE"/>
    <path d="M38.808,17.113 C37.757,17.488 36.806,18.142 35.945,19.064 C35.324,19.728 34.829,20.462 34.468,21.277 C34.416,21.292 34.361,21.307 34.309,21.321 C34.343,20.715 34.276,20.233 34.102,19.882 C33.76,19.192 33.039,19.054 31.906,19.403 C30.87,19.722 29.925,20.289 29.064,21.09 C28.441,21.669 27.93,22.313 27.541,23.038 C27.473,23.054 27.402,23.07 27.316,23.09 C27.678,22.157 27.87,21.697 28.268,20.786 C27.113,21.11 26.54,21.265 25.405,21.565 C21.76,28.37 21.317,35.502 20.79,43.024 C22.035,43.028 22.666,43.023 23.938,43 C24.456,35.282 24.591,31.49 26.636,25.358 C26.912,24.532 27.321,23.87 27.834,23.347 C28.345,22.825 28.955,22.472 29.657,22.296 C30.356,22.121 30.822,22.211 31.061,22.58 C31.3,22.949 31.284,23.588 31.023,24.497 C29.257,30.243 28.508,36.877 28.403,42.855 C29.535,42.801 30.105,42.77 31.252,42.696 C31.411,36.521 32.153,29.8 33.826,23.826 C34.066,22.909 34.466,22.16 35.003,21.556 C35.54,20.951 36.153,20.541 36.844,20.337 C37.56,20.124 38.034,20.22 38.277,20.644 C38.518,21.067 38.528,21.769 38.312,22.743 C36.781,29.196 36.34,35.742 35.867,42.331 C37.21,42.206 37.884,42.136 39.237,41.982 C39.722,35.237 40.184,28.523 41.564,21.885 C41.934,19.974 41.89,18.568 41.43,17.69 C40.97,16.813 40.11,16.648 38.808,17.113" fill="#FFFFFE"/>
    <path d="M62.016,28.843 C61.883,30.698 61.189,32.275 59.901,33.667 C58.61,35.062 57.004,35.863 55.086,36.161 C53.407,36.423 52.124,36.165 51.231,35.355 C50.34,34.547 49.928,33.368 50.055,31.768 C50.174,30.27 50.683,29.007 51.564,27.946 C52.439,26.893 53.564,26.189 54.918,25.889 C57.947,25.219 59.431,24.944 62.339,24.51 C62.207,26.241 62.141,27.105 62.016,28.843 z M64.782,9.795 C63.406,8.29 61.477,7.959 58.839,8.898 C56.424,9.759 54.257,11.368 52.353,13.476 C50.451,15.582 49.142,17.833 48.546,20.246 C50.211,19.637 51.034,19.353 52.657,18.828 C52.952,17.59 53.639,16.452 54.692,15.415 C55.743,14.381 56.97,13.614 58.365,13.185 C59.961,12.695 61.12,12.87 61.895,13.674 C62.669,14.476 62.991,15.855 62.851,17.743 C62.761,18.965 62.715,19.575 62.622,20.795 C59.713,21.295 58.223,21.609 55.176,22.372 C52.636,23.008 50.477,24.382 48.765,26.301 C47.052,28.222 46.097,30.4 45.896,33.001 C45.698,35.573 46.33,37.632 47.737,38.912 C49.143,40.192 51.14,40.602 53.747,40.218 C56.052,39.877 57.946,39.033 59.435,37.568 C60.732,36.292 61.52,34.634 61.8,32.746 C61.812,32.745 61.822,32.744 61.836,32.743 C61.682,35.217 61.582,36.416 61.345,38.746 C62.888,38.597 63.654,38.534 65.175,38.429 C65.72,31.264 66.184,24.104 66.616,16.931 C66.791,13.744 66.156,11.299 64.782,9.795" fill="#FFFFFE"/>
    <path d="M77.152,38.155 C77.678,31.408 77.843,24.559 77.796,17.793 C77.781,15.255 78.143,13.258 78.86,11.846 C79.577,10.432 80.564,9.723 81.856,9.814 C83.17,9.907 84.226,10.757 85.072,12.281 C85.919,13.807 86.481,17.764 86.668,20.381 C86.711,20.985 86.731,21.285 86.768,21.884 C88.039,22.077 88.654,22.186 89.848,22.427 C89.78,21.639 89.743,21.242 89.664,20.444 C89.292,16.693 88.304,11.629 86.912,9.119 C85.521,6.61 83.939,5.198 82.083,5.063 C80.461,4.946 79.286,5.925 78.512,7.808 C78.088,8.842 77.789,10.145 77.607,11.686 C77.536,9.399 77.476,8.098 77.323,5.622 C76.113,5.668 75.498,5.711 74.241,5.837 C74.425,16.618 74.234,27.362 73.421,38.119 C74.925,38.111 75.672,38.118 77.152,38.155" fill="#FFFFFE"/>
    <g clip-path="url(#Clip_1)">
      <path d="M92.806,12.913 C94.547,13.492 95.37,13.826 96.944,14.572 C98.39,20.525 99.374,26.9 99.715,33.024 C99.869,35.457 100.291,37.388 101.06,38.793 C101.831,40.2 102.877,40.962 104.193,41.197 C105.863,41.493 106.668,41.643 108.259,41.937 C108.261,40.58 108.239,39.882 108.14,38.439 C106.577,37.992 105.783,37.772 104.135,37.347 C103.038,37.064 102.447,35.895 102.283,33.747 C101.868,27.76 100.746,21.5 99.164,15.721 C101.275,16.911 102.255,17.586 104.114,19.075 C103.463,17.196 103.106,16.231 102.321,14.249 C100.608,12.629 99.696,11.901 97.719,10.632 C96.516,6.697 95.942,4.827 94.884,2.249 C94.193,1.659 93.834,1.383 93.091,0.871 C94.029,3.535 94.546,5.43 95.636,9.412 C94.158,8.625 93.382,8.278 91.741,7.684 C92.215,9.813 92.426,10.858 92.806,12.913" fill="#FFFFFE"/>
      <path d="M14.594,47.682 C13.423,56.2 12.764,59.416 13.599,64.897 C13.662,65.271 13.734,65.652 13.815,66.035 C13.896,66.415 13.992,66.777 14.097,67.113 C14.203,67.448 14.299,67.723 14.381,67.942 C14.265,67.708 14.116,67.412 13.939,67.051 C13.76,66.687 13.582,66.3 13.407,65.887 C13.231,65.473 13.063,65.064 12.902,64.662 C10.654,58.789 10.368,55.51 9.72,47.166 C8.502,47.008 7.904,46.921 6.741,46.731 C5.862,54.6 5.457,57.47 7.112,62.261 C7.22,62.583 7.35,62.915 7.503,63.253 C7.655,63.589 7.818,63.905 7.988,64.202 C8.157,64.498 8.3,64.737 8.412,64.919 C8.272,64.718 8.09,64.458 7.876,64.137 C7.659,63.814 7.438,63.467 7.213,63.095 C6.988,62.721 6.78,62.354 6.587,61.993 C3.68,56.66 3.209,53.669 2.393,45.898 C1.407,45.678 0.927,45.561 0,45.316 C1.689,54.114 2.944,58.122 8.14,65.324 C9.019,66.005 9.481,66.329 10.449,66.949 C7.402,62.658 7.392,60.155 7.869,53.183 C7.907,52.698 7.939,52.211 7.967,51.725 C7.996,51.237 8.035,50.775 8.082,50.344 C8.13,49.912 8.164,49.55 8.184,49.268 C8.206,49.557 8.238,49.93 8.285,50.381 C8.331,50.831 8.384,51.313 8.448,51.822 C8.51,52.327 8.572,52.84 8.633,53.351 C9.678,60.735 10.371,63.617 13.941,68.914 C15.022,69.451 15.584,69.704 16.744,70.182 C14.44,62.956 16.373,55.126 17.499,47.888 C16.32,47.819 15.739,47.777 14.594,47.682" fill="#FFFFFE"/>
      <path d="M33.225,69.051 C33.174,70.116 32.676,70.912 31.77,71.426 C30.862,71.942 29.741,72.063 28.378,71.81 C27.185,71.588 26.247,71.147 25.525,70.513 C24.804,69.88 24.382,69.133 24.305,68.243 C24.233,67.409 24.478,66.782 25.046,66.361 C25.609,65.943 26.417,65.79 27.453,65.918 C29.77,66.205 30.962,66.321 33.39,66.499 C33.307,67.544 33.273,68.054 33.225,69.051 z M30.212,55.156 C28,55.12 26.138,55.598 24.653,56.535 C23.17,57.472 22.314,58.722 22.067,60.279 C23.31,60.434 23.943,60.503 25.222,60.626 C25.384,59.836 25.881,59.223 26.722,58.784 C27.563,58.345 28.6,58.143 29.824,58.19 C31.224,58.243 32.286,58.617 32.98,59.325 C33.673,60.031 33.938,61.026 33.802,62.254 C33.715,63.049 33.674,63.44 33.597,64.207 C31.087,64.074 29.855,63.98 27.454,63.734 C25.452,63.529 23.888,63.809 22.806,64.535 C21.723,65.261 21.282,66.346 21.486,67.787 C21.689,69.212 22.438,70.406 23.604,71.452 C24.771,72.499 26.194,73.25 27.964,73.646 C29.528,73.995 30.773,73.921 31.735,73.411 C32.573,72.968 33.069,72.244 33.2,71.247 C33.21,71.248 33.216,71.249 33.227,71.25 C33.212,72.539 33.222,73.162 33.296,74.378 C34.444,74.559 35.026,74.642 36.207,74.795 C36.155,70.292 36.487,67.847 37.224,62.23 C37.497,60.149 37.029,58.399 35.77,57.114 C34.51,55.828 32.63,55.194 30.212,55.156" fill="#FFFFFE"/>
      <path d="M55.223,45.316 C53.635,45.485 52.838,45.754 51.236,45.959 C50.814,49.022 50.576,51.708 50.091,54.501 C47.399,54.747 45.89,54.995 43.394,55.171 C43.184,56.582 43.077,57.27 42.867,58.613 C45.334,58.493 46.794,58.294 49.44,58.105 C48.403,63.649 47.836,66.138 46.985,70.751 C46.682,72.394 46.982,73.621 47.811,74.519 C48.64,75.416 49.916,75.899 51.685,75.941 C53.931,75.993 55.069,76.003 57.371,75.999 C57.677,74.854 57.837,74.27 58.165,73.075 C55.804,73.092 54.632,73.092 52.316,73.071 C50.773,73.056 50.158,72.31 50.488,70.776 C51.505,66.055 52.138,63.509 53.279,57.851 C57.033,57.622 58.909,57.532 62.644,57.404 C62.979,55.924 63.144,55.167 63.46,53.618 C59.694,53.77 57.798,53.881 53.99,54.174 C54.517,51.326 54.772,48.434 55.223,45.316" fill="#FFFFFE"/>
      <path d="M82.945,60.953 C82.799,61.437 82.71,61.731 82.585,62.129 C78.475,62.192 76.257,62.148 72.013,62.201 C72.153,61.718 72.222,61.476 72.361,60.986 C72.877,59.154 73.718,57.672 74.899,56.629 C76.079,55.586 77.516,55.058 79.208,55.083 C80.927,55.109 82.084,55.676 82.748,56.712 C83.412,57.75 83.476,59.18 82.945,60.953 z M84.435,52.974 C83.258,52.138 81.778,51.66 79.979,51.618 C78.18,51.574 76.513,51.972 74.981,52.782 C73.447,53.593 72.137,54.739 71.053,56.16 C69.966,57.585 69.183,59.226 68.689,61.035 C67.996,63.578 66.843,66.178 66.129,68.517 C65.628,70.155 65.549,71.532 65.88,72.675 C66.21,73.819 66.912,74.66 67.982,75.221 C69.05,75.781 70.439,76.008 72.167,75.916 C74.479,75.793 76.674,75.223 78.608,74.175 C80.542,73.128 81.895,71.797 82.771,70.155 C81.421,70.291 80.715,70.344 79.227,70.418 C78.695,71.32 77.87,72.004 76.832,72.477 C75.796,72.949 74.577,73.218 73.175,73.277 C71.532,73.344 70.423,72.981 69.824,72.165 C69.226,71.351 69.192,70.128 69.733,68.445 C69.998,67.622 70.92,65.823 71.181,64.974 C76.835,64.878 80.012,64.993 85.196,64.648 C85.714,63.184 85.965,62.431 86.444,60.877 C86.97,59.168 87.06,57.629 86.71,56.276 C86.359,54.924 85.61,53.809 84.435,52.974" fill="#FFFFFE"/>
    </g>
    <path d="M102.664,51.016 C101.206,51.123 99.925,51.777 98.842,53.026 C98.244,53.714 97.711,54.579 97.226,55.577 C97.659,54.123 97.879,53.285 98.248,51.647 C97.156,51.686 96.597,51.7 95.44,51.714 C93.539,58.622 90.512,67.178 86.919,73.434 C88.007,73.071 88.527,72.868 89.536,72.42 C91.938,68.541 94.207,64.308 96.049,59.309 C96.61,57.785 97.338,56.493 98.257,55.539 C99.178,54.585 100.194,54.055 101.295,53.911 C102.413,53.765 103.13,54.048 103.444,54.691 C103.758,55.333 103.634,56.305 103.023,57.596 C102.882,57.894 102.81,58.04 102.665,58.331 C103.651,57.982 104.138,57.793 105.117,57.385 C105.313,57.036 105.41,56.86 105.597,56.5 C106.478,54.808 106.58,53.479 106.018,52.461 C105.456,51.444 104.332,50.892 102.664,51.016" fill="#FFFFFE"/>
    <path d="M140.964,30.141 C140.908,30.681 140.855,31.245 140.804,31.836 C140.754,32.425 140.713,33.004 140.684,33.57 C140.654,34.133 140.638,34.638 140.638,35.081 L140.638,39.092 L141.97,39.092 L141.97,28.045 L140.184,28.045 L139.094,31.602 C138.995,31.935 138.904,32.261 138.822,32.577 C138.742,32.896 138.676,33.141 138.626,33.312 C138.586,33.141 138.519,32.896 138.428,32.577 C138.338,32.261 138.238,31.94 138.127,31.617 L136.976,28.045 L135.191,28.045 L135.191,39.092 L136.522,39.092 L136.522,35.081 C136.522,34.587 136.507,34.053 136.477,33.479 C136.446,32.903 136.412,32.326 136.372,31.745 C136.33,31.165 136.285,30.616 136.235,30.097 C136.184,29.577 136.133,29.119 136.083,28.727 L137.884,34.249 L139.322,34.249 L141.107,28.727 C141.067,29.13 141.019,29.603 140.964,30.141" fill="#FFFFFE"/>
    <path d="M150.051,36.035 C150.051,36.681 149.884,37.171 149.552,37.502 C149.218,37.836 148.755,38.003 148.16,38.003 C147.574,38.003 147.113,37.836 146.775,37.502 C146.437,37.171 146.268,36.681 146.268,36.035 L146.268,33.827 C146.268,33.181 146.437,32.691 146.775,32.358 C147.113,32.026 147.574,31.86 148.16,31.86 C148.755,31.86 149.218,32.026 149.552,32.358 C149.884,32.691 150.051,33.181 150.051,33.827 L150.051,36.035 z M149.884,31.026 C149.4,30.775 148.826,30.648 148.16,30.648 C147.494,30.648 146.919,30.775 146.434,31.026 C145.951,31.279 145.575,31.642 145.306,32.117 C145.04,32.59 144.907,33.16 144.907,33.827 L144.907,36.035 C144.907,36.692 145.04,37.26 145.306,37.737 C145.575,38.216 145.951,38.583 146.434,38.835 C146.919,39.088 147.494,39.212 148.16,39.212 C148.826,39.212 149.4,39.088 149.884,38.835 C150.369,38.583 150.745,38.216 151.012,37.737 C151.279,37.26 151.413,36.692 151.413,36.035 L151.413,33.81 C151.413,33.156 151.279,32.59 151.012,32.117 C150.745,31.642 150.369,31.279 149.884,31.026" fill="#FFFFFE"/>
    <path d="M159.448,39.092 L160.809,39.092 L160.809,33.493 C160.809,32.605 160.562,31.904 160.068,31.389 C159.575,30.876 158.909,30.618 158.071,30.618 C157.375,30.618 156.83,30.798 156.436,31.155 C156.111,31.451 155.927,31.857 155.872,32.358 L155.846,32.358 L155.846,30.77 L154.485,30.77 L154.485,39.092 L155.846,39.092 L155.846,33.795 C155.846,33.149 156.009,32.656 156.338,32.313 C156.667,31.97 157.112,31.798 157.677,31.798 C158.222,31.798 158.653,31.957 158.971,32.276 C159.29,32.592 159.448,33.05 159.448,33.645 L159.448,39.092" fill="#FFFFFE"/>
    <path d="M170.903,37.851 L168.103,37.851 L168.103,30.77 L164.17,30.77 L164.17,32.01 L166.742,32.01 L166.742,37.851 L163.792,37.851 L163.792,39.092 L170.903,39.092 L170.903,37.851" fill="#FFFFFE"/>
    <path d="M167.271,29.271 C167.604,29.271 167.867,29.185 168.058,29.014 C168.25,28.843 168.346,28.611 168.346,28.317 C168.346,28.015 168.25,27.777 168.058,27.599 C167.867,27.422 167.604,27.333 167.271,27.333 C166.938,27.333 166.676,27.422 166.484,27.599 C166.293,27.777 166.197,28.015 166.197,28.317 C166.197,28.611 166.293,28.843 166.484,29.014 C166.676,29.185 166.938,29.271 167.271,29.271" fill="#FFFFFE"/>
    <path d="M179.059,37.851 L176.79,37.851 C176.184,37.851 175.881,37.534 175.881,36.899 L175.881,32.01 L179.211,32.01 L179.211,30.77 L175.881,30.77 L175.881,28.425 L174.52,28.425 L174.52,30.77 L172.173,30.77 L172.173,32.01 L174.52,32.01 L174.52,36.899 C174.52,37.594 174.718,38.134 175.118,38.518 C175.515,38.9 176.073,39.092 176.79,39.092 L179.059,39.092 L179.059,37.851" fill="#FFFFFE"/>
    <path d="M187.125,36.035 C187.125,36.681 186.958,37.171 186.625,37.502 C186.292,37.836 185.828,38.003 185.233,38.003 C184.647,38.003 184.186,37.836 183.848,37.502 C183.51,37.171 183.341,36.681 183.341,36.035 L183.341,33.827 C183.341,33.181 183.51,32.691 183.848,32.358 C184.186,32.026 184.647,31.86 185.233,31.86 C185.828,31.86 186.292,32.026 186.625,32.358 C186.958,32.691 187.125,33.181 187.125,33.827 L187.125,36.035 z M188.085,37.737 C188.352,37.26 188.486,36.692 188.486,36.035 L188.486,33.81 C188.486,33.156 188.352,32.59 188.085,32.117 C187.818,31.642 187.442,31.279 186.958,31.026 C186.473,30.775 185.899,30.648 185.233,30.648 C184.567,30.648 183.992,30.775 183.507,31.026 C183.024,31.279 182.648,31.642 182.38,32.117 C182.113,32.59 181.98,33.16 181.98,33.827 L181.98,36.035 C181.98,36.692 182.113,37.26 182.38,37.737 C182.648,38.216 183.024,38.583 183.507,38.835 C183.992,39.088 184.567,39.212 185.233,39.212 C185.899,39.212 186.473,39.088 186.958,38.835 C187.442,38.583 187.818,38.216 188.085,37.737" fill="#FFFFFE"/>
    <path d="M196.763,34.173 L198.126,34.173 L198.126,33.675 C198.126,32.736 197.866,31.993 197.346,31.444 C196.827,30.892 196.129,30.618 195.251,30.618 C194.484,30.618 193.906,30.848 193.518,31.306 C193.302,31.562 193.153,31.892 193.056,32.283 L193.056,30.77 L191.724,30.77 L191.724,39.092 L193.088,39.092 L193.088,33.795 C193.088,33.149 193.251,32.651 193.578,32.299 C193.906,31.944 194.358,31.769 194.933,31.769 C195.518,31.769 195.97,31.942 196.288,32.29 C196.605,32.639 196.763,33.141 196.763,33.795 L196.763,34.173" fill="#FFFFFE"/>
    <path d="M204.103,29.271 C204.435,29.271 204.698,29.185 204.889,29.014 C205.082,28.843 205.177,28.611 205.177,28.317 C205.177,28.015 205.082,27.777 204.889,27.599 C204.698,27.422 204.435,27.333 204.103,27.333 C203.769,27.333 203.507,27.422 203.315,27.599 C203.125,27.777 203.028,28.015 203.028,28.317 C203.028,28.611 203.125,28.843 203.315,29.014 C203.507,29.185 203.769,29.271 204.103,29.271" fill="#FFFFFE"/>
    <path d="M207.734,37.851 L204.935,37.851 L204.935,30.77 L201.001,30.77 L201.001,32.01 L203.573,32.01 L203.573,37.851 L200.623,37.851 L200.623,39.092 L207.734,39.092 L207.734,37.851" fill="#FFFFFE"/>
    <path d="M215.36,33.645 L215.36,39.092 L216.722,39.092 L216.722,33.493 C216.722,32.605 216.475,31.904 215.981,31.389 C215.487,30.876 214.821,30.618 213.984,30.618 C213.288,30.618 212.743,30.798 212.349,31.155 C212.024,31.451 211.84,31.857 211.785,32.358 L211.758,32.358 L211.758,30.77 L210.397,30.77 L210.397,39.092 L211.758,39.092 L211.758,33.795 C211.758,33.149 211.922,32.656 212.251,32.313 C212.579,31.97 213.024,31.798 213.59,31.798 C214.135,31.798 214.566,31.957 214.884,32.276 C215.202,32.592 215.36,33.05 215.36,33.645" fill="#FFFFFE"/>
    <path d="M224.773,35.385 C224.773,36.01 224.611,36.5 224.29,36.852 C223.966,37.205 223.522,37.382 222.958,37.382 C222.381,37.382 221.935,37.211 221.618,36.867 C221.3,36.525 221.141,36.031 221.141,35.385 L221.141,33.795 C221.141,33.149 221.3,32.656 221.618,32.313 C221.935,31.97 222.381,31.798 222.958,31.798 C223.522,31.798 223.966,31.976 224.29,32.328 C224.611,32.681 224.773,33.171 224.773,33.795 L224.773,35.385 z M226.12,39.394 L226.12,30.77 L224.773,30.77 L224.773,32.358 L224.753,32.358 C224.707,31.861 224.518,31.454 224.168,31.148 C223.765,30.796 223.224,30.618 222.548,30.618 C221.692,30.618 221.015,30.895 220.521,31.45 C220.027,32.005 219.78,32.757 219.78,33.704 L219.78,35.461 C219.78,36.409 220.027,37.163 220.521,37.722 C221.015,38.284 221.692,38.562 222.548,38.562 C223.224,38.562 223.765,38.387 224.168,38.033 C224.518,37.726 224.707,37.32 224.753,36.823 L224.789,36.823 L224.758,38.336 L224.758,39.394 C224.758,39.797 224.66,40.095 224.463,40.287 C224.266,40.479 223.956,40.575 223.533,40.575 L220.884,40.575 L220.884,41.816 L223.518,41.816 C224.335,41.816 224.972,41.598 225.431,41.165 C225.89,40.731 226.12,40.142 226.12,39.394" fill="#FFFFFE"/>
    <path d="M134.238,46.568 C134.571,46.568 134.834,46.481 135.024,46.31 C135.216,46.139 135.312,45.907 135.312,45.614 C135.312,45.312 135.216,45.073 135.024,44.896 C134.834,44.718 134.571,44.629 134.238,44.629 C133.905,44.629 133.642,44.718 133.451,44.896 C133.259,45.073 133.164,45.312 133.164,45.614 C133.164,45.907 133.259,46.139 133.451,46.31 C133.642,46.481 133.905,46.568 134.238,46.568" fill="#FFFFFE"/>
    <path d="M135.07,48.067 L131.135,48.067 L131.135,49.306 L133.709,49.306 L133.709,55.147 L130.757,55.147 L130.757,56.388 L137.869,56.388 L137.869,55.147 L135.07,55.147 L135.07,48.067" fill="#FFFFFE"/>
    <path d="M144.12,47.914 C143.423,47.914 142.879,48.094 142.485,48.451 C142.16,48.748 141.976,49.153 141.921,49.654 L141.895,49.654 L141.895,48.067 L140.534,48.067 L140.534,56.388 L141.895,56.388 L141.895,51.092 C141.895,50.446 142.058,49.951 142.386,49.61 C142.715,49.266 143.161,49.095 143.726,49.095 C144.271,49.095 144.702,49.253 145.02,49.572 C145.338,49.888 145.497,50.346 145.497,50.942 L145.497,56.388 L146.858,56.388 L146.858,50.789 C146.858,49.901 146.611,49.201 146.117,48.685 C145.624,48.172 144.958,47.914 144.12,47.914" fill="#FFFFFE"/>
    <path d="M163.768,54.656 C163.4,54.993 162.898,55.162 162.262,55.162 L160.386,55.162 L160.386,51.229 L162.262,51.229 C162.898,51.229 163.4,51.416 163.768,51.797 C164.136,52.175 164.32,52.666 164.32,53.271 C164.32,53.858 164.136,54.318 163.768,54.656 z M160.386,46.568 L162.187,46.568 C162.772,46.568 163.231,46.724 163.563,47.036 C163.897,47.349 164.063,47.773 164.063,48.307 C164.063,48.843 163.894,49.266 163.556,49.578 C163.218,49.893 162.756,50.049 162.171,50.049 L160.386,50.049 L160.386,46.568 z M164.313,50.775 C164.135,50.679 163.94,50.608 163.735,50.553 C163.896,50.508 164.05,50.453 164.191,50.38 C164.58,50.18 164.88,49.893 165.091,49.519 C165.304,49.146 165.41,48.706 165.41,48.201 C165.41,47.304 165.125,46.604 164.554,46.099 C163.985,45.594 163.195,45.341 162.187,45.341 L159.054,45.341 L159.054,56.388 L162.414,56.388 C163.089,56.388 163.67,56.266 164.154,56.017 C164.638,55.77 165.011,55.415 165.273,54.951 C165.536,54.487 165.668,53.942 165.668,53.317 C165.668,52.722 165.548,52.206 165.311,51.774 C165.075,51.339 164.742,51.007 164.313,50.775" fill="#FFFFFE"/>
    <path d="M172.251,47.914 C171.483,47.914 170.906,48.145 170.517,48.603 C170.301,48.859 170.152,49.188 170.056,49.578 L170.056,48.067 L168.724,48.067 L168.724,56.388 L170.087,56.388 L170.087,51.092 C170.087,50.446 170.251,49.948 170.578,49.595 C170.906,49.241 171.358,49.065 171.933,49.065 C172.517,49.065 172.969,49.239 173.287,49.586 C173.605,49.935 173.763,50.438 173.763,51.092 L173.763,51.47 L175.125,51.47 L175.125,50.971 C175.125,50.032 174.865,49.288 174.346,48.74 C173.827,48.189 173.128,47.914 172.251,47.914" fill="#FFFFFE"/>
    <path d="M182.949,53.362 C182.949,53.989 182.785,54.474 182.457,54.823 C182.13,55.17 181.683,55.343 181.117,55.343 C180.563,55.343 180.124,55.17 179.801,54.823 C179.478,54.474 179.316,53.989 179.316,53.362 L179.316,48.067 L177.955,48.067 L177.955,53.362 C177.955,54.341 178.243,55.116 178.817,55.686 C179.392,56.255 180.159,56.54 181.117,56.54 C182.076,56.54 182.847,56.255 183.433,55.686 C184.018,55.116 184.31,54.341 184.31,53.362 L184.31,48.067 L182.949,48.067 L182.949,53.362" fill="#FFFFFE"/>
    <path d="M191.241,51.592 L190.121,51.41 C189.687,51.339 189.37,51.223 189.168,51.062 C188.965,50.9 188.865,50.649 188.865,50.304 C188.865,49.922 188.983,49.635 189.22,49.443 C189.457,49.251 189.833,49.156 190.348,49.156 L190.923,49.156 C191.336,49.156 191.665,49.234 191.906,49.39 C192.149,49.546 192.299,49.755 192.36,50.017 L193.722,50.017 C193.622,49.382 193.329,48.877 192.844,48.503 C192.36,48.132 191.719,47.944 190.923,47.944 L190.348,47.944 C189.399,47.944 188.689,48.149 188.213,48.559 C187.74,48.966 187.504,49.544 187.504,50.289 C187.504,50.996 187.702,51.533 188.101,51.903 C188.499,52.27 189.107,52.526 189.923,52.666 L191.044,52.848 C191.508,52.918 191.859,53.057 192.096,53.264 C192.333,53.471 192.451,53.749 192.451,54.104 C192.451,54.467 192.32,54.756 192.058,54.974 C191.796,55.192 191.397,55.299 190.862,55.299 L190.226,55.299 C189.782,55.299 189.427,55.212 189.16,55.041 C188.892,54.87 188.729,54.638 188.668,54.345 L187.306,54.345 C187.357,54.79 187.505,55.172 187.753,55.495 C188,55.819 188.333,56.068 188.751,56.244 C189.171,56.42 189.662,56.509 190.226,56.509 L190.862,56.509 C191.851,56.509 192.59,56.289 193.079,55.852 C193.569,55.413 193.813,54.81 193.813,54.043 C193.813,53.317 193.609,52.762 193.2,52.377 C192.792,51.995 192.138,51.734 191.241,51.592" fill="#FFFFFE"/>
    <path d="M200.684,51.592 L199.564,51.41 C199.13,51.339 198.812,51.223 198.611,51.062 C198.408,50.9 198.308,50.649 198.308,50.304 C198.308,49.922 198.426,49.635 198.664,49.443 C198.9,49.251 199.276,49.156 199.791,49.156 L200.366,49.156 C200.779,49.156 201.107,49.234 201.349,49.39 C201.591,49.546 201.743,49.755 201.803,50.017 L203.166,50.017 C203.064,49.382 202.772,48.877 202.288,48.503 C201.803,48.132 201.162,47.944 200.366,47.944 L199.791,47.944 C198.842,47.944 198.131,48.149 197.657,48.559 C197.183,48.966 196.946,49.544 196.946,50.289 C196.946,50.996 197.145,51.533 197.544,51.903 C197.942,52.27 198.549,52.526 199.367,52.666 L200.487,52.848 C200.951,52.918 201.301,53.057 201.539,53.264 C201.775,53.471 201.894,53.749 201.894,54.104 C201.894,54.467 201.763,54.756 201.501,54.974 C201.238,55.192 200.84,55.299 200.305,55.299 L199.67,55.299 C199.225,55.299 198.871,55.212 198.602,55.041 C198.336,54.87 198.171,54.638 198.111,54.345 L196.749,54.345 C196.799,54.79 196.949,55.172 197.195,55.495 C197.442,55.819 197.776,56.068 198.194,56.244 C198.613,56.42 199.105,56.509 199.67,56.509 L200.305,56.509 C201.295,56.509 202.033,56.289 202.522,55.852 C203.011,55.413 203.256,54.81 203.256,54.043 C203.256,53.317 203.051,52.762 202.643,52.377 C202.235,51.995 201.582,51.734 200.684,51.592" fill="#FFFFFE"/>
    <path d="M207.477,51.092 C207.477,50.438 207.644,49.933 207.977,49.578 C208.31,49.226 208.785,49.05 209.4,49.05 C210.025,49.05 210.502,49.226 210.83,49.578 C211.157,49.933 211.321,50.438 211.321,51.092 L211.321,51.531 L207.477,51.531 L207.477,51.092 z M211.117,48.307 C210.628,48.045 210.055,47.914 209.4,47.914 C208.743,47.914 208.171,48.045 207.682,48.307 C207.193,48.572 206.815,48.939 206.546,49.413 C206.28,49.886 206.146,50.446 206.146,51.092 L206.146,53.362 C206.146,53.996 206.28,54.556 206.546,55.034 C206.815,55.512 207.193,55.884 207.682,56.146 C208.171,56.41 208.743,56.54 209.4,56.54 C210.277,56.54 211.011,56.336 211.601,55.926 C212.192,55.519 212.532,54.965 212.623,54.269 L211.26,54.269 C211.19,54.643 210.994,54.923 210.671,55.109 C210.347,55.297 209.924,55.39 209.4,55.39 C208.785,55.39 208.31,55.215 207.977,54.868 C207.644,54.52 207.477,54.018 207.477,53.362 L207.477,52.559 L212.653,52.559 L212.653,51.092 C212.653,50.446 212.519,49.886 212.252,49.413 C211.985,48.939 211.606,48.572 211.117,48.307" fill="#FFFFFE"/>
    <path d="M218.328,54.852 C218.135,54.656 218.04,54.385 218.04,54.043 L218.04,45.341 L213.879,45.341 L213.879,46.582 L216.677,46.582 L216.677,54.043 C216.677,54.518 216.779,54.932 216.981,55.285 C217.182,55.637 217.465,55.91 217.829,56.102 C218.191,56.293 218.615,56.388 219.099,56.388 L221.748,56.388 L221.748,55.147 L219.099,55.147 C218.776,55.147 218.518,55.05 218.328,54.852" fill="#FFFFFE"/>
    <path d="M230.289,52.377 C229.88,51.995 229.227,51.734 228.33,51.592 L227.21,51.41 C226.776,51.339 226.459,51.223 226.256,51.062 C226.054,50.9 225.954,50.649 225.954,50.304 C225.954,49.922 226.072,49.635 226.309,49.443 C226.546,49.251 226.921,49.156 227.437,49.156 L228.012,49.156 C228.425,49.156 228.754,49.234 228.995,49.39 C229.238,49.546 229.388,49.755 229.449,50.017 L230.811,50.017 C230.711,49.382 230.418,48.877 229.933,48.503 C229.449,48.132 228.808,47.944 228.012,47.944 L227.437,47.944 C226.488,47.944 225.778,48.149 225.302,48.559 C224.829,48.966 224.592,49.544 224.592,50.289 C224.592,50.996 224.791,51.533 225.19,51.903 C225.588,52.27 226.196,52.526 227.012,52.666 L228.132,52.848 C228.597,52.918 228.948,53.057 229.185,53.264 C229.421,53.471 229.54,53.749 229.54,54.104 C229.54,54.467 229.409,54.756 229.147,54.974 C228.884,55.192 228.486,55.299 227.951,55.299 L227.316,55.299 C226.872,55.299 226.516,55.212 226.249,55.041 C225.981,54.87 225.818,54.638 225.756,54.345 L224.395,54.345 C224.446,54.79 224.594,55.172 224.841,55.495 C225.088,55.819 225.421,56.068 225.839,56.244 C226.259,56.42 226.751,56.509 227.316,56.509 L227.951,56.509 C228.94,56.509 229.679,56.289 230.168,55.852 C230.658,55.413 230.902,54.81 230.902,54.043 C230.902,53.317 230.698,52.762 230.289,52.377" fill="#FFFFFE"/>
  </g>
</svg>
